::ffff:127.0.0.1 - - [25/Jan/2017:14:23:34 +0000] "POST /v2/auth/login/ HTTP/1.1" 200 328 "-" "-"
::ffff:127.0.0.1 - - [25/Jan/2017:14:24:17 +0000] "POST /v2/opp/withdraw/ HTTP/1.1" 200 146 "-" "-"
::ffff:127.0.0.1 - - [25/Jan/2017:14:40:05 +0000] "POST /v2/auth/login/ HTTP/1.1" 200 328 "-" "-"
::ffff:127.0.0.1 - - [25/Jan/2017:14:40:17 +0000] "POST /v2/opp/withdraw/ HTTP/1.1" 500 818 "-" "-"
::ffff:127.0.0.1 - - [25/Jan/2017:14:41:01 +0000] "POST /v2/opp/withdraw/ HTTP/1.1" 500 818 "-" "-"
::ffff:127.0.0.1 - - [25/Jan/2017:14:41:33 +0000] "POST /v2/auth/login/ HTTP/1.1" 200 328 "-" "-"
::ffff:127.0.0.1 - - [25/Jan/2017:14:41:37 +0000] "POST /v2/opp/withdraw/ HTTP/1.1" 500 818 "-" "-"
::ffff:127.0.0.1 - - [25/Jan/2017:14:41:52 +0000] "POST /v2/auth/login/ HTTP/1.1" 200 328 "-" "-"
::ffff:127.0.0.1 - - [25/Jan/2017:14:41:56 +0000] "POST /v2/opp/withdraw/ HTTP/1.1" 500 818 "-" "-"
::ffff:127.0.0.1 - - [25/Jan/2017:14:44:58 +0000] "POST /v2/auth/login/ HTTP/1.1" 200 328 "-" "-"
::ffff:127.0.0.1 - - [25/Jan/2017:14:45:02 +0000] "POST /v2/opp/withdraw/ HTTP/1.1" 500 818 "-" "-"
::ffff:127.0.0.1 - - [25/Jan/2017:14:45:14 +0000] "POST /v2/auth/login/ HTTP/1.1" 200 328 "-" "-"
::ffff:127.0.0.1 - - [25/Jan/2017:14:45:18 +0000] "POST /v2/opp/withdraw/ HTTP/1.1" 500 818 "-" "-"
::ffff:127.0.0.1 - - [25/Jan/2017:14:45:30 +0000] "POST /v2/auth/login/ HTTP/1.1" 200 328 "-" "-"
::ffff:127.0.0.1 - - [25/Jan/2017:14:45:42 +0000] "POST /v2/opp/withdraw/ HTTP/1.1" 500 818 "-" "-"
::ffff:127.0.0.1 - - [25/Jan/2017:14:46:33 +0000] "POST /v2/auth/login/ HTTP/1.1" 200 328 "-" "-"
::ffff:127.0.0.1 - - [25/Jan/2017:14:46:35 +0000] "POST /v2/opp/withdraw/ HTTP/1.1" 500 818 "-" "-"
::ffff:127.0.0.1 - - [25/Jan/2017:14:48:10 +0000] "POST /v2/auth/login/ HTTP/1.1" 200 328 "-" "-"
::ffff:127.0.0.1 - - [25/Jan/2017:14:48:16 +0000] "POST /v2/opp/withdraw/ HTTP/1.1" 500 818 "-" "-"
::ffff:127.0.0.1 - - [25/Jan/2017:14:48:51 +0000] "POST /v2/auth/login/ HTTP/1.1" 200 328 "-" "-"
::ffff:127.0.0.1 - - [25/Jan/2017:14:48:54 +0000] "POST /v2/opp/withdraw/ HTTP/1.1" 500 818 "-" "-"
::ffff:127.0.0.1 - - [25/Jan/2017:14:50:28 +0000] "POST /v2/auth/login/ HTTP/1.1" 200 328 "-" "-"
::ffff:127.0.0.1 - - [25/Jan/2017:14:50:30 +0000] "POST /v2/opp/withdraw/ HTTP/1.1" 500 818 "-" "-"
::ffff:127.0.0.1 - - [25/Jan/2017:14:51:53 +0000] "POST /v2/auth/login/ HTTP/1.1" 200 328 "-" "-"
::ffff:127.0.0.1 - - [25/Jan/2017:14:51:56 +0000] "POST /v2/opp/withdraw/ HTTP/1.1" 500 818 "-" "-"
::ffff:127.0.0.1 - - [25/Jan/2017:14:52:25 +0000] "POST /v2/auth/login/ HTTP/1.1" 200 328 "-" "-"
::ffff:127.0.0.1 - - [25/Jan/2017:14:53:16 +0000] "POST /v2/opp/withdraw/ HTTP/1.1" 500 818 "-" "-"
::ffff:127.0.0.1 - - [25/Jan/2017:15:16:55 +0000] "POST /v2/opp/deposit HTTP/1.1" 401 48 "-" "-"
::ffff:127.0.0.1 - - [25/Jan/2017:15:16:55 +0000] "POST /v2/auth/login/ HTTP/1.1" 200 328 "-" "-"
::ffff:127.0.0.1 - - [25/Jan/2017:15:17:27 +0000] "POST /v2/opp/deposit HTTP/1.1" 200 148 "-" "-"
::ffff:127.0.0.1 - - [25/Jan/2017:15:18:56 +0000] "POST /v2/opp/transaction/approve HTTP/1.1" 200 525 "-" "-"
::ffff:127.0.0.1 - - [25/Jan/2017:16:00:30 +0000] "POST /v2/opp/payment HTTP/1.1" 200 941 "-" "-"
::ffff:127.0.0.1 - - [25/Jan/2017:16:00:55 +0000] "POST /v2/opp/payment HTTP/1.1" 400 52 "-" "-"
::ffff:127.0.0.1 - - [25/Jan/2017:16:05:26 +0000] "POST /v2/opp/payment HTTP/1.1" 400 52 "-" "-"
::ffff:127.0.0.1 - - [25/Jan/2017:16:11:15 +0000] "POST /v2/opp/payment HTTP/1.1" 400 52 "-" "-"
::ffff:127.0.0.1 - - [25/Jan/2017:16:15:20 +0000] "POST /v2/opp/payment HTTP/1.1" 400 52 "-" "-"
::ffff:127.0.0.1 - - [25/Jan/2017:16:17:35 +0000] "POST /v2/opp/payment HTTP/1.1" 200 832 "-" "-"
::ffff:127.0.0.1 - - [25/Jan/2017:16:21:26 +0000] "POST /v2/opp/payment HTTP/1.1" 400 111 "-" "-"
::ffff:127.0.0.1 - - [25/Jan/2017:16:21:53 +0000] "POST /v2/auth/login/ HTTP/1.1" 200 328 "-" "-"
::ffff:127.0.0.1 - - [25/Jan/2017:16:21:55 +0000] "POST /v2/opp/payment HTTP/1.1" 400 111 "-" "-"
::ffff:127.0.0.1 - - [25/Jan/2017:16:22:19 +0000] "POST /v2/auth/login/ HTTP/1.1" 200 328 "-" "-"
::ffff:127.0.0.1 - - [25/Jan/2017:16:22:27 +0000] "POST /v2/opp/payment HTTP/1.1" 400 111 "-" "-"
::ffff:127.0.0.1 - - [25/Jan/2017:16:30:33 +0000] "POST /v2/auth/login/ HTTP/1.1" 200 328 "-" "-"
::ffff:127.0.0.1 - - [25/Jan/2017:16:30:39 +0000] "POST /v2/opp/payment HTTP/1.1" 400 111 "-" "-"
::ffff:127.0.0.1 - - [25/Jan/2017:16:31:48 +0000] "POST /v2/auth/login/ HTTP/1.1" 200 328 "-" "-"
::ffff:127.0.0.1 - - [25/Jan/2017:16:31:58 +0000] "POST /v2/opp/payment HTTP/1.1" 400 111 "-" "-"
::ffff:127.0.0.1 - - [25/Jan/2017:16:32:11 +0000] "POST /v2/opp/payment HTTP/1.1" 400 111 "-" "-"
::ffff:127.0.0.1 - - [25/Jan/2017:16:33:01 +0000] "POST /v2/opp/payment HTTP/1.1" 400 111 "-" "-"
::ffff:127.0.0.1 - - [25/Jan/2017:16:35:09 +0000] "POST /v2/auth/login/ HTTP/1.1" 200 328 "-" "-"
::ffff:127.0.0.1 - - [25/Jan/2017:16:35:45 +0000] "POST /v2/opp/payment HTTP/1.1" 400 111 "-" "-"
::ffff:127.0.0.1 - - [25/Jan/2017:16:39:52 +0000] "POST /v2/auth/login/ HTTP/1.1" 200 328 "-" "-"
::ffff:127.0.0.1 - - [25/Jan/2017:16:42:36 +0000] "POST /v2/opp/payment HTTP/1.1" 400 111 "-" "-"
::ffff:127.0.0.1 - - [25/Jan/2017:16:45:46 +0000] "POST /v2/auth/login/ HTTP/1.1" 200 328 "-" "-"
::ffff:127.0.0.1 - - [25/Jan/2017:16:49:40 +0000] "POST /v2/auth/login/ HTTP/1.1" 200 328 "-" "-"
::ffff:127.0.0.1 - - [25/Jan/2017:16:50:56 +0000] "POST /v2/auth/login/ HTTP/1.1" 200 328 "-" "-"
::ffff:127.0.0.1 - - [25/Jan/2017:16:51:01 +0000] "POST /v2/opp/payment HTTP/1.1" 400 111 "-" "-"
::ffff:127.0.0.1 - - [25/Jan/2017:16:51:18 +0000] "POST /v2/opp/payment HTTP/1.1" 400 111 "-" "-"
::ffff:127.0.0.1 - - [25/Jan/2017:16:52:44 +0000] "POST /v2/opp/payment HTTP/1.1" 400 111 "-" "-"
::ffff:127.0.0.1 - - [25/Jan/2017:16:54:06 +0000] "POST /v2/auth/login/ HTTP/1.1" 200 328 "-" "-"
::ffff:127.0.0.1 - - [25/Jan/2017:16:54:16 +0000] "POST /v2/opp/payment HTTP/1.1" 400 111 "-" "-"
::ffff:127.0.0.1 - - [25/Jan/2017:16:55:20 +0000] "POST /v2/opp/payment HTTP/1.1" 400 111 "-" "-"
::ffff:127.0.0.1 - - [25/Jan/2017:16:56:04 +0000] "POST /v2/auth/login/ HTTP/1.1" 200 328 "-" "-"
::ffff:127.0.0.1 - - [25/Jan/2017:16:56:07 +0000] "POST /v2/opp/payment HTTP/1.1" 400 111 "-" "-"
::ffff:127.0.0.1 - - [25/Jan/2017:16:58:17 +0000] "POST /v2/opp/payment HTTP/1.1" 400 111 "-" "-"
::ffff:127.0.0.1 - - [25/Jan/2017:16:58:56 +0000] "POST /v2/auth/login/ HTTP/1.1" 200 328 "-" "-"
::ffff:127.0.0.1 - - [25/Jan/2017:16:59:05 +0000] "POST /v2/opp/payment HTTP/1.1" 400 111 "-" "-"
::ffff:127.0.0.1 - - [25/Jan/2017:16:59:29 +0000] "POST /v2/opp/payment HTTP/1.1" 400 111 "-" "-"
::ffff:127.0.0.1 - - [25/Jan/2017:16:59:50 +0000] "POST /v2/opp/payment HTTP/1.1" 400 111 "-" "-"
::ffff:127.0.0.1 - - [25/Jan/2017:17:00:35 +0000] "POST /v2/auth/login/ HTTP/1.1" 200 328 "-" "-"
::ffff:127.0.0.1 - - [25/Jan/2017:17:00:43 +0000] "POST /v2/opp/payment HTTP/1.1" 400 111 "-" "-"
::ffff:127.0.0.1 - - [25/Jan/2017:17:01:25 +0000] "POST /v2/auth/login/ HTTP/1.1" 200 328 "-" "-"
::ffff:127.0.0.1 - - [25/Jan/2017:17:01:28 +0000] "POST /v2/opp/payment HTTP/1.1" 400 111 "-" "-"
::ffff:127.0.0.1 - - [25/Jan/2017:17:01:34 +0000] "POST /v2/opp/payment HTTP/1.1" 200 936 "-" "-"
::ffff:127.0.0.1 - - [25/Jan/2017:17:03:20 +0000] "POST /v2/opp/payment HTTP/1.1" 200 803 "-" "-"
::ffff:127.0.0.1 - - [25/Jan/2017:17:03:42 +0000] "POST /v2/opp/payment HTTP/1.1" 400 116 "-" "-"
::ffff:127.0.0.1 - - [25/Jan/2017:17:53:31 +0000] "POST /v2/auth/login/ HTTP/1.1" 200 328 "-" "-"
::ffff:127.0.0.1 - - [25/Jan/2017:17:55:58 +0000] "POST /v2/auth/login/ HTTP/1.1" 200 328 "-" "-"
::ffff:127.0.0.1 - - [25/Jan/2017:17:59:15 +0000] "POST /v2/auth/login/ HTTP/1.1" 200 328 "-" "-"
::ffff:127.0.0.1 - - [25/Jan/2017:18:05:36 +0000] "POST /v2/auth/login/ HTTP/1.1" 200 328 "-" "-"
::ffff:127.0.0.1 - - [25/Jan/2017:18:09:17 +0000] "POST /v2/auth/login/ HTTP/1.1" 200 328 "-" "-"
::ffff:127.0.0.1 - - [25/Jan/2017:18:10:15 +0000] "POST /v2/auth/login/ HTTP/1.1" 200 328 "-" "-"
::ffff:127.0.0.1 - - [25/Jan/2017:18:11:54 +0000] "POST /v2/auth/login/ HTTP/1.1" 200 328 "-" "-"
::ffff:127.0.0.1 - - [25/Jan/2017:18:16:46 +0000] "POST /v2/opp/payment HTTP/1.1" 200 832 "-" "-"
::ffff:127.0.0.1 - - [25/Jan/2017:18:17:41 +0000] "POST /v2/auth/login/ HTTP/1.1" 200 328 "-" "-"
::ffff:127.0.0.1 - - [25/Jan/2017:18:17:54 +0000] "POST /v2/opp/payment HTTP/1.1" 200 832 "-" "-"
::ffff:127.0.0.1 - - [25/Jan/2017:18:22:08 +0000] "POST /v2/opp/payment HTTP/1.1" 200 832 "-" "-"
::ffff:127.0.0.1 - - [25/Jan/2017:19:06:18 +0000] "POST /v2/auth/login/ HTTP/1.1" 200 328 "-" "-"
::ffff:127.0.0.1 - - [25/Jan/2017:19:39:53 +0000] "POST /v2/auth/login/ HTTP/1.1" 200 328 "-" "-"
::ffff:127.0.0.1 - - [25/Jan/2017:19:42:23 +0000] "POST /v2/auth/login/ HTTP/1.1" 200 328 "-" "-"
::ffff:127.0.0.1 - - [25/Jan/2017:19:44:21 +0000] "POST /v2/auth/login/ HTTP/1.1" 200 328 "-" "-"
::ffff:127.0.0.1 - - [25/Jan/2017:19:45:16 +0000] "POST /v2/auth/login/ HTTP/1.1" 200 328 "-" "-"
::ffff:127.0.0.1 - - [25/Jan/2017:19:45:43 +0000] "POST /v2/auth/login/ HTTP/1.1" 200 328 "-" "-"
::ffff:127.0.0.1 - - [25/Jan/2017:19:46:45 +0000] "POST /v2/auth/login/ HTTP/1.1" 200 328 "-" "-"
::ffff:127.0.0.1 - - [25/Jan/2017:19:48:49 +0000] "POST /v2/auth/login/ HTTP/1.1" 200 328 "-" "-"
::ffff:127.0.0.1 - - [25/Jan/2017:19:50:35 +0000] "POST /v2/auth/login/ HTTP/1.1" 200 328 "-" "-"
::ffff:127.0.0.1 - - [25/Jan/2017:19:59:06 +0000] "POST /v2/auth/login/ HTTP/1.1" 200 328 "-" "-"
::ffff:127.0.0.1 - - [25/Jan/2017:20:04:44 +0000] "POST /v2/auth/login/ HTTP/1.1" 200 328 "-" "-"
::ffff:127.0.0.1 - - [25/Jan/2017:20:07:26 +0000] "POST /v2/auth/login/ HTTP/1.1" 200 328 "-" "-"
::ffff:127.0.0.1 - - [25/Jan/2017:20:08:03 +0000] "POST /v2/auth/login/ HTTP/1.1" 200 328 "-" "-"
::ffff:127.0.0.1 - - [25/Jan/2017:20:12:39 +0000] "POST /v2/auth/login/ HTTP/1.1" 200 328 "-" "-"
::ffff:127.0.0.1 - - [25/Jan/2017:20:12:47 +0000] "POST /v2/opp/payment HTTP/1.1" 400 111 "-" "-"
::ffff:127.0.0.1 - - [25/Jan/2017:20:18:43 +0000] "POST /v2/auth/login/ HTTP/1.1" 200 328 "-" "-"
::ffff:127.0.0.1 - - [25/Jan/2017:20:21:46 +0000] "POST /v2/auth/login/ HTTP/1.1" 200 328 "-" "-"
::ffff:127.0.0.1 - - [25/Jan/2017:20:26:23 +0000] "POST /v2/auth/login/ HTTP/1.1" 200 328 "-" "-"
::ffff:127.0.0.1 - - [25/Jan/2017:20:30:09 +0000] "POST /v2/auth/login/ HTTP/1.1" 200 328 "-" "-"
::ffff:127.0.0.1 - - [25/Jan/2017:20:31:02 +0000] "POST /v2/auth/login/ HTTP/1.1" 200 328 "-" "-"
::ffff:127.0.0.1 - - [25/Jan/2017:20:31:38 +0000] "POST /v2/auth/login/ HTTP/1.1" 200 328 "-" "-"
::ffff:127.0.0.1 - - [25/Jan/2017:20:35:32 +0000] "POST /v2/auth/login/ HTTP/1.1" 200 328 "-" "-"
::ffff:127.0.0.1 - - [25/Jan/2017:21:57:18 +0000] "POST /v2/auth/login/ HTTP/1.1" 200 328 "-" "-"
::ffff:127.0.0.1 - - [25/Jan/2017:22:06:26 +0000] "POST /v2/auth/login/ HTTP/1.1" 200 328 "-" "-"
::ffff:127.0.0.1 - - [25/Jan/2017:22:08:42 +0000] "POST /v2/opp/payment HTTP/1.1" 400 116 "-" "-"
::ffff:127.0.0.1 - - [25/Jan/2017:22:09:26 +0000] "POST /v2/opp/payment HTTP/1.1" 400 116 "-" "-"
::ffff:127.0.0.1 - - [25/Jan/2017:22:12:58 +0000] "POST /v2/auth/login/ HTTP/1.1" 200 328 "-" "-"
::ffff:127.0.0.1 - - [25/Jan/2017:22:13:21 +0000] "POST /v2/opp/payment HTTP/1.1" 400 116 "-" "-"
::ffff:127.0.0.1 - - [25/Jan/2017:22:13:42 +0000] "POST /v2/opp/payment HTTP/1.1" 400 116 "-" "-"
::ffff:127.0.0.1 - - [25/Jan/2017:22:14:58 +0000] "POST /v2/auth/login/ HTTP/1.1" 200 328 "-" "-"
::ffff:127.0.0.1 - - [25/Jan/2017:22:15:05 +0000] "POST /v2/opp/payment HTTP/1.1" 400 116 "-" "-"
