{"name":"sails","hostname":"apaco-Lenovo-G40-80","pid":7307,"level":30,"msg":"Bootstrap: Created admin@opp.com","time":"2017-02-10T19:02:02.971Z","v":0}
{"name":"sails","hostname":"apaco-Lenovo-G40-80","pid":7307,"level":30,"msg":"Bootstrap: Created test credit cards","time":"2017-02-10T19:02:03.049Z","v":0}
{"name":"sails","hostname":"apaco-Lenovo-G40-80","pid":7307,"level":30,"msg":"Bootstrap: Created Roles","time":"2017-02-10T19:02:03.060Z","v":0}
{"name":"sails","hostname":"apaco-Lenovo-G40-80","pid":7307,"level":30,"msg":"Bootstrap: Created Transaction Item Trigger","time":"2017-02-10T19:02:03.126Z","v":0}
{"name":"Not Found","hostname":"apaco-Lenovo-G40-80","pid":7307,"level":30,"message":"User was not found","statusCode":404,"msg":"","time":"2017-02-10T19:02:03.812Z","v":0}
{"name":"Not Found","hostname":"apaco-Lenovo-G40-80","pid":7307,"level":30,"message":"User was not found","statusCode":404,"msg":"","time":"2017-02-10T19:02:03.889Z","v":0}
{"name":"Not Found","hostname":"apaco-Lenovo-G40-80","pid":7307,"level":30,"message":"Sender was not found","statusCode":404,"msg":"","time":"2017-02-10T19:02:03.993Z","v":0}
