{"name":"sails","hostname":"apaco-Lenovo-G40-80","pid":10239,"level":30,"msg":"Bootstrap: Created admin@opp.com","time":"2017-01-19T14:49:44.411Z","v":0}
{"name":"sails","hostname":"apaco-Lenovo-G40-80","pid":10239,"level":30,"msg":"Bootstrap: Created test credit cards","time":"2017-01-19T14:49:44.676Z","v":0}
{"name":"sails","hostname":"apaco-Lenovo-G40-80","pid":10239,"level":30,"msg":"Bootstrap: Created Roles","time":"2017-01-19T14:49:44.769Z","v":0}
{"name":"sails","hostname":"apaco-Lenovo-G40-80","pid":10239,"level":30,"msg":"Bootstrap: Created Transaction Item Trigger","time":"2017-01-19T14:49:45.920Z","v":0}
{"name":"sails","hostname":"apaco-Lenovo-G40-80","pid":10987,"level":30,"msg":"Bootstrap: Created admin@opp.com","time":"2017-01-19T15:01:45.692Z","v":0}
{"name":"sails","hostname":"apaco-Lenovo-G40-80","pid":10987,"level":30,"msg":"Bootstrap: Created test credit cards","time":"2017-01-19T15:01:45.727Z","v":0}
{"name":"sails","hostname":"apaco-Lenovo-G40-80","pid":10987,"level":30,"msg":"Bootstrap: Created Roles","time":"2017-01-19T15:01:45.738Z","v":0}
{"name":"sails","hostname":"apaco-Lenovo-G40-80","pid":10987,"level":30,"msg":"Bootstrap: Created Transaction Item Trigger","time":"2017-01-19T15:01:45.750Z","v":0}
{"name":"sails","hostname":"apaco-Lenovo-G40-80","pid":11074,"level":30,"msg":"Bootstrap: Created admin@opp.com","time":"2017-01-19T15:02:04.926Z","v":0}
{"name":"sails","hostname":"apaco-Lenovo-G40-80","pid":11074,"level":30,"msg":"Bootstrap: Created test credit cards","time":"2017-01-19T15:02:04.968Z","v":0}
{"name":"sails","hostname":"apaco-Lenovo-G40-80","pid":11074,"level":30,"msg":"Bootstrap: Created Roles","time":"2017-01-19T15:02:04.978Z","v":0}
{"name":"sails","hostname":"apaco-Lenovo-G40-80","pid":11074,"level":30,"msg":"Bootstrap: Created Transaction Item Trigger","time":"2017-01-19T15:02:04.989Z","v":0}
{"name":"sails","hostname":"apaco-Lenovo-G40-80","pid":13013,"level":30,"msg":"Bootstrap: Created admin@opp.com","time":"2017-01-19T15:32:20.572Z","v":0}
{"name":"sails","hostname":"apaco-Lenovo-G40-80","pid":13013,"level":30,"msg":"Bootstrap: Created test credit cards","time":"2017-01-19T15:32:20.623Z","v":0}
{"name":"sails","hostname":"apaco-Lenovo-G40-80","pid":13013,"level":30,"msg":"Bootstrap: Created Roles","time":"2017-01-19T15:32:20.634Z","v":0}
{"name":"sails","hostname":"apaco-Lenovo-G40-80","pid":13013,"level":30,"msg":"Bootstrap: Created Transaction Item Trigger","time":"2017-01-19T15:32:20.646Z","v":0}
{"name":"sails","hostname":"apaco-Lenovo-G40-80","pid":13196,"level":30,"msg":"Bootstrap: Created admin@opp.com","time":"2017-01-19T15:33:21.023Z","v":0}
{"name":"sails","hostname":"apaco-Lenovo-G40-80","pid":13196,"level":30,"msg":"Bootstrap: Created test credit cards","time":"2017-01-19T15:33:21.076Z","v":0}
{"name":"sails","hostname":"apaco-Lenovo-G40-80","pid":13196,"level":30,"msg":"Bootstrap: Created Roles","time":"2017-01-19T15:33:21.087Z","v":0}
{"name":"sails","hostname":"apaco-Lenovo-G40-80","pid":13196,"level":30,"msg":"Bootstrap: Created Transaction Item Trigger","time":"2017-01-19T15:33:21.098Z","v":0}
{"name":"sails","hostname":"apaco-Lenovo-G40-80","pid":13615,"level":30,"msg":"Bootstrap: Created admin@opp.com","time":"2017-01-19T15:38:08.669Z","v":0}
{"name":"sails","hostname":"apaco-Lenovo-G40-80","pid":13615,"level":30,"msg":"Bootstrap: Created test credit cards","time":"2017-01-19T15:38:08.705Z","v":0}
{"name":"sails","hostname":"apaco-Lenovo-G40-80","pid":13615,"level":30,"msg":"Bootstrap: Created Roles","time":"2017-01-19T15:38:08.716Z","v":0}
{"name":"sails","hostname":"apaco-Lenovo-G40-80","pid":13615,"level":30,"msg":"Bootstrap: Created Transaction Item Trigger","time":"2017-01-19T15:38:08.739Z","v":0}
{"name":"sails","hostname":"apaco-Lenovo-G40-80","pid":15030,"level":30,"msg":"Bootstrap: Created admin@opp.com","time":"2017-01-19T15:58:44.222Z","v":0}
{"name":"sails","hostname":"apaco-Lenovo-G40-80","pid":15030,"level":30,"msg":"Bootstrap: Created test credit cards","time":"2017-01-19T15:58:44.306Z","v":0}
{"name":"sails","hostname":"apaco-Lenovo-G40-80","pid":15030,"level":30,"msg":"Bootstrap: Created Roles","time":"2017-01-19T15:58:44.332Z","v":0}
{"name":"sails","hostname":"apaco-Lenovo-G40-80","pid":15030,"level":30,"msg":"Bootstrap: Created Transaction Item Trigger","time":"2017-01-19T15:58:44.362Z","v":0}
{"name":"sails","hostname":"apaco-Lenovo-G40-80","pid":17148,"level":30,"msg":"Bootstrap: Created admin@opp.com","time":"2017-01-19T16:37:11.298Z","v":0}
{"name":"sails","hostname":"apaco-Lenovo-G40-80","pid":17148,"level":30,"msg":"Bootstrap: Created test credit cards","time":"2017-01-19T16:37:11.331Z","v":0}
{"name":"sails","hostname":"apaco-Lenovo-G40-80","pid":17148,"level":30,"msg":"Bootstrap: Created Roles","time":"2017-01-19T16:37:11.342Z","v":0}
{"name":"sails","hostname":"apaco-Lenovo-G40-80","pid":17148,"level":30,"msg":"Bootstrap: Created Transaction Item Trigger","time":"2017-01-19T16:37:11.388Z","v":0}
{"name":"sails","hostname":"apaco-Lenovo-G40-80","pid":17307,"level":30,"msg":"Bootstrap: Created admin@opp.com","time":"2017-01-19T16:38:58.703Z","v":0}
{"name":"sails","hostname":"apaco-Lenovo-G40-80","pid":17307,"level":30,"msg":"Bootstrap: Created test credit cards","time":"2017-01-19T16:38:58.732Z","v":0}
{"name":"sails","hostname":"apaco-Lenovo-G40-80","pid":17307,"level":30,"msg":"Bootstrap: Created Roles","time":"2017-01-19T16:38:58.743Z","v":0}
{"name":"sails","hostname":"apaco-Lenovo-G40-80","pid":17307,"level":30,"msg":"Bootstrap: Created Transaction Item Trigger","time":"2017-01-19T16:38:58.754Z","v":0}
{"name":"sails","hostname":"apaco-Lenovo-G40-80","pid":18119,"level":30,"msg":"Bootstrap: Created admin@opp.com","time":"2017-01-19T16:42:37.797Z","v":0}
{"name":"sails","hostname":"apaco-Lenovo-G40-80","pid":18119,"level":30,"msg":"Bootstrap: Created test credit cards","time":"2017-01-19T16:42:37.837Z","v":0}
{"name":"sails","hostname":"apaco-Lenovo-G40-80","pid":18119,"level":30,"msg":"Bootstrap: Created Roles","time":"2017-01-19T16:42:37.848Z","v":0}
{"name":"sails","hostname":"apaco-Lenovo-G40-80","pid":18119,"level":30,"msg":"Bootstrap: Created Transaction Item Trigger","time":"2017-01-19T16:42:37.871Z","v":0}
{"name":"sails","hostname":"apaco-Lenovo-G40-80","pid":18440,"level":30,"msg":"Bootstrap: Created admin@opp.com","time":"2017-01-19T16:46:18.771Z","v":0}
{"name":"sails","hostname":"apaco-Lenovo-G40-80","pid":18440,"level":30,"msg":"Bootstrap: Created test credit cards","time":"2017-01-19T16:46:18.814Z","v":0}
{"name":"sails","hostname":"apaco-Lenovo-G40-80","pid":18440,"level":30,"msg":"Bootstrap: Created Roles","time":"2017-01-19T16:46:18.825Z","v":0}
{"name":"sails","hostname":"apaco-Lenovo-G40-80","pid":18440,"level":30,"msg":"Bootstrap: Created Transaction Item Trigger","time":"2017-01-19T16:46:18.848Z","v":0}
{"name":"sails","hostname":"apaco-Lenovo-G40-80","pid":18764,"level":30,"msg":"Bootstrap: Created admin@opp.com","time":"2017-01-19T16:50:56.634Z","v":0}
{"name":"sails","hostname":"apaco-Lenovo-G40-80","pid":18764,"level":30,"msg":"Bootstrap: Created test credit cards","time":"2017-01-19T16:50:56.680Z","v":0}
{"name":"sails","hostname":"apaco-Lenovo-G40-80","pid":18764,"level":30,"msg":"Bootstrap: Created Roles","time":"2017-01-19T16:50:56.691Z","v":0}
{"name":"sails","hostname":"apaco-Lenovo-G40-80","pid":18764,"level":30,"msg":"Bootstrap: Created Transaction Item Trigger","time":"2017-01-19T16:50:56.703Z","v":0}
{"name":"sails","hostname":"apaco-Lenovo-G40-80","pid":18859,"level":30,"msg":"Bootstrap: Created admin@opp.com","time":"2017-01-19T16:51:49.477Z","v":0}
{"name":"sails","hostname":"apaco-Lenovo-G40-80","pid":18859,"level":30,"msg":"Bootstrap: Created test credit cards","time":"2017-01-19T16:51:49.529Z","v":0}
{"name":"sails","hostname":"apaco-Lenovo-G40-80","pid":18859,"level":30,"msg":"Bootstrap: Created Roles","time":"2017-01-19T16:51:49.540Z","v":0}
{"name":"sails","hostname":"apaco-Lenovo-G40-80","pid":18859,"level":30,"msg":"Bootstrap: Created Transaction Item Trigger","time":"2017-01-19T16:51:49.551Z","v":0}
{"name":"sails","hostname":"apaco-Lenovo-G40-80","pid":20215,"level":50,"msg":"Bootstrap encountered an error: (see below)","time":"2017-01-19T17:16:20.696Z","v":0}
{"name":"sails","hostname":"apaco-Lenovo-G40-80","pid":20215,"level":50,"err":{"message":"sequelize.getMigrator is not a function","name":"TypeError","stack":"TypeError: sequelize.getMigrator is not a function\n    at Object.module.exports.bootstrap (/home/apaco/Projects/open-payment-platform-v2/config/bootstrap.js:17:28)\n    at Sails.runBootstrap (/home/apaco/Projects/open-payment-platform-v2/node_modules/sails/lib/app/private/bootstrap.js:44:25)\n    at Sails.wrapper [as runBootstrap] (/home/apaco/Projects/open-payment-platform-v2/node_modules/@sailshq/lodash/lib/index.js:3250:19)\n    at Sails.initialize (/home/apaco/Projects/open-payment-platform-v2/node_modules/sails/lib/app/private/initialize.js:68:9)\n    at wrapper (/home/apaco/Projects/open-payment-platform-v2/node_modules/@sailshq/lodash/lib/index.js:3250:19)\n    at /home/apaco/Projects/open-payment-platform-v2/node_modules/sails/node_modules/async/lib/async.js:713:13\n    at iterate (/home/apaco/Projects/open-payment-platform-v2/node_modules/sails/node_modules/async/lib/async.js:262:13)\n    at /home/apaco/Projects/open-payment-platform-v2/node_modules/sails/node_modules/async/lib/async.js:274:29\n    at /home/apaco/Projects/open-payment-platform-v2/node_modules/sails/node_modules/async/lib/async.js:44:16\n    at /home/apaco/Projects/open-payment-platform-v2/node_modules/sails/node_modules/async/lib/async.js:718:17\n    at /home/apaco/Projects/open-payment-platform-v2/node_modules/sails/node_modules/async/lib/async.js:167:37\n    at module.exports (/home/apaco/Projects/open-payment-platform-v2/node_modules/sails/lib/app/load.js:184:13)\n    at _toString (/home/apaco/Projects/open-payment-platform-v2/node_modules/sails/node_modules/async/lib/async.js:52:16)\n    at /home/apaco/Projects/open-payment-platform-v2/node_modules/sails/node_modules/async/lib/async.js:548:17\n    at /home/apaco/Projects/open-payment-platform-v2/node_modules/sails/node_modules/async/lib/async.js:542:17\n    at _arrayEach (/home/apaco/Projects/open-payment-platform-v2/node_modules/sails/node_modules/async/lib/async.js:85:13)\n    at Immediate.taskComplete (/home/apaco/Projects/open-payment-platform-v2/node_modules/sails/node_modules/async/lib/async.js:541:13)\n    at runCallback (timers.js:651:20)\n    at tryOnImmediate (timers.js:624:5)\n    at processImmediate [as _immediateCallback] (timers.js:596:5)"},"msg":"sequelize.getMigrator is not a function","time":"2017-01-19T17:16:20.698Z","v":0}
{"name":"sails","hostname":"apaco-Lenovo-G40-80","pid":20303,"level":50,"msg":"Bootstrap encountered an error: (see below)","time":"2017-01-19T17:16:49.171Z","v":0}
{"name":"sails","hostname":"apaco-Lenovo-G40-80","pid":20303,"level":50,"err":{"message":"Sequelize.getMigrator is not a function","name":"TypeError","stack":"TypeError: Sequelize.getMigrator is not a function\n    at Object.module.exports.bootstrap (/home/apaco/Projects/open-payment-platform-v2/config/bootstrap.js:17:28)\n    at Sails.runBootstrap (/home/apaco/Projects/open-payment-platform-v2/node_modules/sails/lib/app/private/bootstrap.js:44:25)\n    at Sails.wrapper [as runBootstrap] (/home/apaco/Projects/open-payment-platform-v2/node_modules/@sailshq/lodash/lib/index.js:3250:19)\n    at Sails.initialize (/home/apaco/Projects/open-payment-platform-v2/node_modules/sails/lib/app/private/initialize.js:68:9)\n    at wrapper (/home/apaco/Projects/open-payment-platform-v2/node_modules/@sailshq/lodash/lib/index.js:3250:19)\n    at /home/apaco/Projects/open-payment-platform-v2/node_modules/sails/node_modules/async/lib/async.js:713:13\n    at iterate (/home/apaco/Projects/open-payment-platform-v2/node_modules/sails/node_modules/async/lib/async.js:262:13)\n    at /home/apaco/Projects/open-payment-platform-v2/node_modules/sails/node_modules/async/lib/async.js:274:29\n    at /home/apaco/Projects/open-payment-platform-v2/node_modules/sails/node_modules/async/lib/async.js:44:16\n    at /home/apaco/Projects/open-payment-platform-v2/node_modules/sails/node_modules/async/lib/async.js:718:17\n    at /home/apaco/Projects/open-payment-platform-v2/node_modules/sails/node_modules/async/lib/async.js:167:37\n    at module.exports (/home/apaco/Projects/open-payment-platform-v2/node_modules/sails/lib/app/load.js:184:13)\n    at _toString (/home/apaco/Projects/open-payment-platform-v2/node_modules/sails/node_modules/async/lib/async.js:52:16)\n    at /home/apaco/Projects/open-payment-platform-v2/node_modules/sails/node_modules/async/lib/async.js:548:17\n    at /home/apaco/Projects/open-payment-platform-v2/node_modules/sails/node_modules/async/lib/async.js:542:17\n    at _arrayEach (/home/apaco/Projects/open-payment-platform-v2/node_modules/sails/node_modules/async/lib/async.js:85:13)\n    at Immediate.taskComplete (/home/apaco/Projects/open-payment-platform-v2/node_modules/sails/node_modules/async/lib/async.js:541:13)\n    at runCallback (timers.js:651:20)\n    at tryOnImmediate (timers.js:624:5)\n    at processImmediate [as _immediateCallback] (timers.js:596:5)"},"msg":"Sequelize.getMigrator is not a function","time":"2017-01-19T17:16:49.174Z","v":0}
{"name":"sails","hostname":"apaco-Lenovo-G40-80","pid":20403,"level":50,"msg":"Bootstrap encountered an error: (see below)","time":"2017-01-19T17:17:15.817Z","v":0}
{"name":"sails","hostname":"apaco-Lenovo-G40-80","pid":20403,"level":50,"err":{"message":"User.sequelize.getMigrator is not a function","name":"TypeError","stack":"TypeError: User.sequelize.getMigrator is not a function\n    at Object.module.exports.bootstrap (/home/apaco/Projects/open-payment-platform-v2/config/bootstrap.js:17:33)\n    at Sails.runBootstrap (/home/apaco/Projects/open-payment-platform-v2/node_modules/sails/lib/app/private/bootstrap.js:44:25)\n    at Sails.wrapper [as runBootstrap] (/home/apaco/Projects/open-payment-platform-v2/node_modules/@sailshq/lodash/lib/index.js:3250:19)\n    at Sails.initialize (/home/apaco/Projects/open-payment-platform-v2/node_modules/sails/lib/app/private/initialize.js:68:9)\n    at wrapper (/home/apaco/Projects/open-payment-platform-v2/node_modules/@sailshq/lodash/lib/index.js:3250:19)\n    at /home/apaco/Projects/open-payment-platform-v2/node_modules/sails/node_modules/async/lib/async.js:713:13\n    at iterate (/home/apaco/Projects/open-payment-platform-v2/node_modules/sails/node_modules/async/lib/async.js:262:13)\n    at /home/apaco/Projects/open-payment-platform-v2/node_modules/sails/node_modules/async/lib/async.js:274:29\n    at /home/apaco/Projects/open-payment-platform-v2/node_modules/sails/node_modules/async/lib/async.js:44:16\n    at /home/apaco/Projects/open-payment-platform-v2/node_modules/sails/node_modules/async/lib/async.js:718:17\n    at /home/apaco/Projects/open-payment-platform-v2/node_modules/sails/node_modules/async/lib/async.js:167:37\n    at module.exports (/home/apaco/Projects/open-payment-platform-v2/node_modules/sails/lib/app/load.js:184:13)\n    at _toString (/home/apaco/Projects/open-payment-platform-v2/node_modules/sails/node_modules/async/lib/async.js:52:16)\n    at /home/apaco/Projects/open-payment-platform-v2/node_modules/sails/node_modules/async/lib/async.js:548:17\n    at /home/apaco/Projects/open-payment-platform-v2/node_modules/sails/node_modules/async/lib/async.js:542:17\n    at _arrayEach (/home/apaco/Projects/open-payment-platform-v2/node_modules/sails/node_modules/async/lib/async.js:85:13)\n    at Immediate.taskComplete (/home/apaco/Projects/open-payment-platform-v2/node_modules/sails/node_modules/async/lib/async.js:541:13)\n    at runCallback (timers.js:651:20)\n    at tryOnImmediate (timers.js:624:5)\n    at processImmediate [as _immediateCallback] (timers.js:596:5)"},"msg":"User.sequelize.getMigrator is not a function","time":"2017-01-19T17:17:15.819Z","v":0}
{"name":"sails","hostname":"apaco-Lenovo-G40-80","pid":20520,"level":50,"msg":"Bootstrap encountered an error: (see below)","time":"2017-01-19T17:17:47.110Z","v":0}
{"name":"sails","hostname":"apaco-Lenovo-G40-80","pid":20520,"level":50,"err":{"message":"User.sequelize.getMigrator is not a function","name":"TypeError","stack":"TypeError: User.sequelize.getMigrator is not a function\n    at Object.module.exports.bootstrap (/home/apaco/Projects/open-payment-platform-v2/config/bootstrap.js:17:33)\n    at Sails.runBootstrap (/home/apaco/Projects/open-payment-platform-v2/node_modules/sails/lib/app/private/bootstrap.js:44:25)\n    at Sails.wrapper [as runBootstrap] (/home/apaco/Projects/open-payment-platform-v2/node_modules/@sailshq/lodash/lib/index.js:3250:19)\n    at Sails.initialize (/home/apaco/Projects/open-payment-platform-v2/node_modules/sails/lib/app/private/initialize.js:68:9)\n    at wrapper (/home/apaco/Projects/open-payment-platform-v2/node_modules/@sailshq/lodash/lib/index.js:3250:19)\n    at /home/apaco/Projects/open-payment-platform-v2/node_modules/sails/node_modules/async/lib/async.js:713:13\n    at iterate (/home/apaco/Projects/open-payment-platform-v2/node_modules/sails/node_modules/async/lib/async.js:262:13)\n    at /home/apaco/Projects/open-payment-platform-v2/node_modules/sails/node_modules/async/lib/async.js:274:29\n    at /home/apaco/Projects/open-payment-platform-v2/node_modules/sails/node_modules/async/lib/async.js:44:16\n    at /home/apaco/Projects/open-payment-platform-v2/node_modules/sails/node_modules/async/lib/async.js:718:17\n    at /home/apaco/Projects/open-payment-platform-v2/node_modules/sails/node_modules/async/lib/async.js:167:37\n    at module.exports (/home/apaco/Projects/open-payment-platform-v2/node_modules/sails/lib/app/load.js:184:13)\n    at _toString (/home/apaco/Projects/open-payment-platform-v2/node_modules/sails/node_modules/async/lib/async.js:52:16)\n    at /home/apaco/Projects/open-payment-platform-v2/node_modules/sails/node_modules/async/lib/async.js:548:17\n    at /home/apaco/Projects/open-payment-platform-v2/node_modules/sails/node_modules/async/lib/async.js:542:17\n    at _arrayEach (/home/apaco/Projects/open-payment-platform-v2/node_modules/sails/node_modules/async/lib/async.js:85:13)\n    at Immediate.taskComplete (/home/apaco/Projects/open-payment-platform-v2/node_modules/sails/node_modules/async/lib/async.js:541:13)\n    at runCallback (timers.js:651:20)\n    at tryOnImmediate (timers.js:624:5)\n    at processImmediate [as _immediateCallback] (timers.js:596:5)"},"msg":"User.sequelize.getMigrator is not a function","time":"2017-01-19T17:17:47.114Z","v":0}
{"name":"sails","hostname":"apaco-Lenovo-G40-80","pid":25743,"level":50,"msg":"Bootstrap encountered an error: (see below)","time":"2017-01-19T18:10:12.790Z","v":0}
{"name":"sails","hostname":"apaco-Lenovo-G40-80","pid":25743,"level":50,"err":{"message":"User.sequelize.getMigrator is not a function","name":"TypeError","stack":"TypeError: User.sequelize.getMigrator is not a function\n    at Object.module.exports.bootstrap (/home/apaco/Projects/open-payment-platform-v2/config/bootstrap.js:17:33)\n    at Sails.runBootstrap (/home/apaco/Projects/open-payment-platform-v2/node_modules/sails/lib/app/private/bootstrap.js:44:25)\n    at Sails.wrapper [as runBootstrap] (/home/apaco/Projects/open-payment-platform-v2/node_modules/@sailshq/lodash/lib/index.js:3250:19)\n    at Sails.initialize (/home/apaco/Projects/open-payment-platform-v2/node_modules/sails/lib/app/private/initialize.js:68:9)\n    at wrapper (/home/apaco/Projects/open-payment-platform-v2/node_modules/@sailshq/lodash/lib/index.js:3250:19)\n    at /home/apaco/Projects/open-payment-platform-v2/node_modules/sails/node_modules/async/lib/async.js:713:13\n    at iterate (/home/apaco/Projects/open-payment-platform-v2/node_modules/sails/node_modules/async/lib/async.js:262:13)\n    at /home/apaco/Projects/open-payment-platform-v2/node_modules/sails/node_modules/async/lib/async.js:274:29\n    at /home/apaco/Projects/open-payment-platform-v2/node_modules/sails/node_modules/async/lib/async.js:44:16\n    at /home/apaco/Projects/open-payment-platform-v2/node_modules/sails/node_modules/async/lib/async.js:718:17\n    at /home/apaco/Projects/open-payment-platform-v2/node_modules/sails/node_modules/async/lib/async.js:167:37\n    at module.exports (/home/apaco/Projects/open-payment-platform-v2/node_modules/sails/lib/app/load.js:184:13)\n    at _toString (/home/apaco/Projects/open-payment-platform-v2/node_modules/sails/node_modules/async/lib/async.js:52:16)\n    at /home/apaco/Projects/open-payment-platform-v2/node_modules/sails/node_modules/async/lib/async.js:548:17\n    at /home/apaco/Projects/open-payment-platform-v2/node_modules/sails/node_modules/async/lib/async.js:542:17\n    at _arrayEach (/home/apaco/Projects/open-payment-platform-v2/node_modules/sails/node_modules/async/lib/async.js:85:13)\n    at Immediate.taskComplete (/home/apaco/Projects/open-payment-platform-v2/node_modules/sails/node_modules/async/lib/async.js:541:13)\n    at runCallback (timers.js:651:20)\n    at tryOnImmediate (timers.js:624:5)\n    at processImmediate [as _immediateCallback] (timers.js:596:5)"},"msg":"User.sequelize.getMigrator is not a function","time":"2017-01-19T18:10:12.792Z","v":0}
{"name":"sails","hostname":"apaco-Lenovo-G40-80","pid":25858,"level":30,"msg":"Bootstrap: Created admin@opp.com","time":"2017-01-19T18:10:49.145Z","v":0}
{"name":"sails","hostname":"apaco-Lenovo-G40-80","pid":25858,"level":30,"msg":"Bootstrap: Created test credit cards","time":"2017-01-19T18:10:49.190Z","v":0}
{"name":"sails","hostname":"apaco-Lenovo-G40-80","pid":25858,"level":30,"msg":"Bootstrap: Created Roles","time":"2017-01-19T18:10:49.223Z","v":0}
{"name":"sails","hostname":"apaco-Lenovo-G40-80","pid":25858,"level":30,"msg":"Bootstrap: Created Transaction Item Trigger","time":"2017-01-19T18:10:49.435Z","v":0}
{"name":"sails","hostname":"apaco-Lenovo-G40-80","pid":634,"level":30,"msg":"Bootstrap: Created admin@opp.com","time":"2017-01-19T20:06:05.374Z","v":0}
{"name":"sails","hostname":"apaco-Lenovo-G40-80","pid":634,"level":30,"msg":"Bootstrap: Created test credit cards","time":"2017-01-19T20:06:05.440Z","v":0}
{"name":"sails","hostname":"apaco-Lenovo-G40-80","pid":634,"level":30,"msg":"Bootstrap: Created Roles","time":"2017-01-19T20:06:05.473Z","v":0}
{"name":"sails","hostname":"apaco-Lenovo-G40-80","pid":634,"level":30,"msg":"Bootstrap: Created Transaction Item Trigger","time":"2017-01-19T20:06:05.595Z","v":0}
{"name":"sails","hostname":"apaco-Lenovo-G40-80","pid":763,"level":30,"msg":"Bootstrap: Created admin@opp.com","time":"2017-01-19T20:06:37.046Z","v":0}
{"name":"sails","hostname":"apaco-Lenovo-G40-80","pid":763,"level":30,"msg":"Bootstrap: Created test credit cards","time":"2017-01-19T20:06:37.079Z","v":0}
{"name":"sails","hostname":"apaco-Lenovo-G40-80","pid":763,"level":30,"msg":"Bootstrap: Created Roles","time":"2017-01-19T20:06:37.089Z","v":0}
{"name":"sails","hostname":"apaco-Lenovo-G40-80","pid":763,"level":30,"msg":"Bootstrap: Created Transaction Item Trigger","time":"2017-01-19T20:06:37.111Z","v":0}
{"name":"sails","hostname":"apaco-Lenovo-G40-80","pid":2197,"level":30,"msg":"Bootstrap: Created admin@opp.com","time":"2017-01-19T20:20:03.685Z","v":0}
{"name":"sails","hostname":"apaco-Lenovo-G40-80","pid":2197,"level":30,"msg":"Bootstrap: Created test credit cards","time":"2017-01-19T20:20:03.733Z","v":0}
{"name":"sails","hostname":"apaco-Lenovo-G40-80","pid":2197,"level":30,"msg":"Bootstrap: Created Roles","time":"2017-01-19T20:20:03.745Z","v":0}
{"name":"sails","hostname":"apaco-Lenovo-G40-80","pid":2197,"level":30,"msg":"Bootstrap: Created Transaction Item Trigger","time":"2017-01-19T20:20:03.767Z","v":0}
{"name":"sails","hostname":"apaco-Lenovo-G40-80","pid":7452,"level":30,"msg":"Bootstrap: Created admin@opp.com","time":"2017-01-19T21:19:03.716Z","v":0}
{"name":"sails","hostname":"apaco-Lenovo-G40-80","pid":7452,"level":30,"msg":"Bootstrap: Created test credit cards","time":"2017-01-19T21:19:03.760Z","v":0}
{"name":"sails","hostname":"apaco-Lenovo-G40-80","pid":7452,"level":30,"msg":"Bootstrap: Created Roles","time":"2017-01-19T21:19:03.771Z","v":0}
{"name":"sails","hostname":"apaco-Lenovo-G40-80","pid":7452,"level":30,"msg":"Bootstrap: Created Transaction Item Trigger","time":"2017-01-19T21:19:03.795Z","v":0}
{"name":"sails","hostname":"apaco-Lenovo-G40-80","pid":8294,"level":30,"msg":"Bootstrap: Created admin@opp.com","time":"2017-01-19T21:30:35.514Z","v":0}
{"name":"sails","hostname":"apaco-Lenovo-G40-80","pid":8294,"level":30,"msg":"Bootstrap: Created test credit cards","time":"2017-01-19T21:30:35.572Z","v":0}
{"name":"sails","hostname":"apaco-Lenovo-G40-80","pid":8294,"level":30,"msg":"Bootstrap: Created Roles","time":"2017-01-19T21:30:35.583Z","v":0}
{"name":"sails","hostname":"apaco-Lenovo-G40-80","pid":8294,"level":30,"msg":"Bootstrap: Created Transaction Item Trigger","time":"2017-01-19T21:30:35.605Z","v":0}
{"name":"sails","hostname":"apaco-Lenovo-G40-80","pid":8781,"level":30,"msg":"Bootstrap: Created admin@opp.com","time":"2017-01-19T21:36:40.368Z","v":0}
{"name":"sails","hostname":"apaco-Lenovo-G40-80","pid":8781,"level":30,"msg":"Bootstrap: Created test credit cards","time":"2017-01-19T21:36:40.437Z","v":0}
{"name":"sails","hostname":"apaco-Lenovo-G40-80","pid":8781,"level":30,"msg":"Bootstrap: Created Roles","time":"2017-01-19T21:36:40.448Z","v":0}
{"name":"sails","hostname":"apaco-Lenovo-G40-80","pid":8781,"level":30,"msg":"Bootstrap: Created Transaction Item Trigger","time":"2017-01-19T21:36:40.504Z","v":0}
{"name":"sails","hostname":"apaco-Lenovo-G40-80","pid":8912,"level":30,"msg":"Bootstrap: Created admin@opp.com","time":"2017-01-19T21:37:39.790Z","v":0}
{"name":"sails","hostname":"apaco-Lenovo-G40-80","pid":8912,"level":30,"msg":"Bootstrap: Created test credit cards","time":"2017-01-19T21:37:39.828Z","v":0}
{"name":"sails","hostname":"apaco-Lenovo-G40-80","pid":8912,"level":30,"msg":"Bootstrap: Created Roles","time":"2017-01-19T21:37:39.839Z","v":0}
{"name":"sails","hostname":"apaco-Lenovo-G40-80","pid":8912,"level":30,"msg":"Bootstrap: Created Transaction Item Trigger","time":"2017-01-19T21:37:39.850Z","v":0}
{"name":"sails","hostname":"apaco-Lenovo-G40-80","pid":9109,"level":30,"msg":"Bootstrap: Created admin@opp.com","time":"2017-01-19T21:39:17.184Z","v":0}
{"name":"sails","hostname":"apaco-Lenovo-G40-80","pid":9109,"level":30,"msg":"Bootstrap: Created test credit cards","time":"2017-01-19T21:39:17.210Z","v":0}
{"name":"sails","hostname":"apaco-Lenovo-G40-80","pid":9109,"level":30,"msg":"Bootstrap: Created Roles","time":"2017-01-19T21:39:17.224Z","v":0}
{"name":"sails","hostname":"apaco-Lenovo-G40-80","pid":9109,"level":30,"msg":"Bootstrap: Created Transaction Item Trigger","time":"2017-01-19T21:39:17.244Z","v":0}
{"name":"sails","hostname":"apaco-Lenovo-G40-80","pid":9298,"level":30,"msg":"Bootstrap: Created admin@opp.com","time":"2017-01-19T21:40:57.590Z","v":0}
{"name":"sails","hostname":"apaco-Lenovo-G40-80","pid":9298,"level":30,"msg":"Bootstrap: Created test credit cards","time":"2017-01-19T21:40:57.626Z","v":0}
{"name":"sails","hostname":"apaco-Lenovo-G40-80","pid":9298,"level":30,"msg":"Bootstrap: Created Roles","time":"2017-01-19T21:40:57.640Z","v":0}
{"name":"sails","hostname":"apaco-Lenovo-G40-80","pid":9298,"level":30,"msg":"Bootstrap: Created Transaction Item Trigger","time":"2017-01-19T21:40:57.706Z","v":0}
