{"name":"sails","hostname":"apaco-Lenovo-G40-80","pid":8283,"level":30,"msg":"Bootstrap: Created admin@opp.com","time":"2017-02-01T16:19:12.049Z","v":0}
{"name":"sails","hostname":"apaco-Lenovo-G40-80","pid":8283,"level":30,"msg":"Bootstrap: Created test credit cards","time":"2017-02-01T16:19:12.340Z","v":0}
{"name":"sails","hostname":"apaco-Lenovo-G40-80","pid":8283,"level":30,"msg":"Bootstrap: Created Roles","time":"2017-02-01T16:19:12.572Z","v":0}
{"name":"sails","hostname":"apaco-Lenovo-G40-80","pid":8283,"level":30,"msg":"Bootstrap: Created Transaction Item Trigger","time":"2017-02-01T16:19:13.505Z","v":0}
{"name":"sails","hostname":"apaco-Lenovo-G40-80","pid":8460,"level":30,"msg":"Bootstrap: Created admin@opp.com","time":"2017-02-01T16:19:20.541Z","v":0}
{"name":"sails","hostname":"apaco-Lenovo-G40-80","pid":8460,"level":30,"msg":"Bootstrap: Created test credit cards","time":"2017-02-01T16:19:20.589Z","v":0}
{"name":"sails","hostname":"apaco-Lenovo-G40-80","pid":8460,"level":30,"msg":"Bootstrap: Created Roles","time":"2017-02-01T16:19:20.644Z","v":0}
{"name":"sails","hostname":"apaco-Lenovo-G40-80","pid":8460,"level":30,"msg":"Bootstrap: Created Transaction Item Trigger","time":"2017-02-01T16:19:20.701Z","v":0}
{"name":"sails","hostname":"apaco-Lenovo-G40-80","pid":26750,"level":30,"msg":"Bootstrap: Created admin@opp.com","time":"2017-02-01T20:08:00.340Z","v":0}
{"name":"sails","hostname":"apaco-Lenovo-G40-80","pid":26750,"level":30,"msg":"Bootstrap: Created test credit cards","time":"2017-02-01T20:08:00.393Z","v":0}
{"name":"sails","hostname":"apaco-Lenovo-G40-80","pid":26750,"level":30,"msg":"Bootstrap: Created Roles","time":"2017-02-01T20:08:00.425Z","v":0}
{"name":"sails","hostname":"apaco-Lenovo-G40-80","pid":26750,"level":30,"msg":"Bootstrap: Created Transaction Item Trigger","time":"2017-02-01T20:08:00.704Z","v":0}
