{"name":"sails","hostname":"apaco-Lenovo-G40-80","pid":16755,"level":30,"msg":"Bootstrap: Created admin@opp.com","time":"2017-02-06T16:21:59.114Z","v":0}
{"name":"sails","hostname":"apaco-Lenovo-G40-80","pid":16755,"level":30,"msg":"Bootstrap: Created test credit cards","time":"2017-02-06T16:21:59.376Z","v":0}
{"name":"sails","hostname":"apaco-Lenovo-G40-80","pid":16755,"level":30,"msg":"Bootstrap: Created Roles","time":"2017-02-06T16:21:59.508Z","v":0}
{"name":"sails","hostname":"apaco-Lenovo-G40-80","pid":16755,"level":30,"msg":"Bootstrap: Created Transaction Item Trigger","time":"2017-02-06T16:22:00.572Z","v":0}
