{"name":"sails","hostname":"apaco-Lenovo-G40-80","pid":19352,"level":30,"msg":"Bootstrap: Created admin@opp.com","time":"2017-02-03T13:19:07.349Z","v":0}
{"name":"sails","hostname":"apaco-Lenovo-G40-80","pid":19352,"level":30,"msg":"Bootstrap: Created test credit cards","time":"2017-02-03T13:19:07.752Z","v":0}
{"name":"sails","hostname":"apaco-Lenovo-G40-80","pid":19352,"level":30,"msg":"Bootstrap: Created Roles","time":"2017-02-03T13:19:07.938Z","v":0}
{"name":"sails","hostname":"apaco-Lenovo-G40-80","pid":19352,"level":40,"msg":"Bootstrap is taking unusually long to execute its callback (2000 milliseconds).\nPerhaps you forgot to call it?  The callback is the first argument of the function, `cb`.","time":"2017-02-03T13:19:08.939Z","v":0}
{"name":"sails","hostname":"apaco-Lenovo-G40-80","pid":19352,"level":30,"msg":"Bootstrap: Created Transaction Item Trigger","time":"2017-02-03T13:19:09.267Z","v":0}
{"name":"sails","hostname":"apaco-Lenovo-G40-80","pid":20068,"level":30,"msg":"Bootstrap: Created admin@opp.com","time":"2017-02-03T13:23:50.826Z","v":0}
{"name":"sails","hostname":"apaco-Lenovo-G40-80","pid":20068,"level":30,"msg":"Bootstrap: Created test credit cards","time":"2017-02-03T13:23:50.884Z","v":0}
{"name":"sails","hostname":"apaco-Lenovo-G40-80","pid":20068,"level":30,"msg":"Bootstrap: Created Roles","time":"2017-02-03T13:23:50.918Z","v":0}
{"name":"sails","hostname":"apaco-Lenovo-G40-80","pid":20068,"level":30,"msg":"Bootstrap: Created Transaction Item Trigger","time":"2017-02-03T13:23:50.952Z","v":0}
