{"name":"sails","hostname":"apaco-Lenovo-G40-80","pid":20215,"level":50,"msg":"Bootstrap encountered an error: (see below)","time":"2017-01-19T17:16:20.696Z","v":0}
{"name":"sails","hostname":"apaco-Lenovo-G40-80","pid":20215,"level":50,"err":{"message":"sequelize.getMigrator is not a function","name":"TypeError","stack":"TypeError: sequelize.getMigrator is not a function\n    at Object.module.exports.bootstrap (/home/apaco/Projects/open-payment-platform-v2/config/bootstrap.js:17:28)\n    at Sails.runBootstrap (/home/apaco/Projects/open-payment-platform-v2/node_modules/sails/lib/app/private/bootstrap.js:44:25)\n    at Sails.wrapper [as runBootstrap] (/home/apaco/Projects/open-payment-platform-v2/node_modules/@sailshq/lodash/lib/index.js:3250:19)\n    at Sails.initialize (/home/apaco/Projects/open-payment-platform-v2/node_modules/sails/lib/app/private/initialize.js:68:9)\n    at wrapper (/home/apaco/Projects/open-payment-platform-v2/node_modules/@sailshq/lodash/lib/index.js:3250:19)\n    at /home/apaco/Projects/open-payment-platform-v2/node_modules/sails/node_modules/async/lib/async.js:713:13\n    at iterate (/home/apaco/Projects/open-payment-platform-v2/node_modules/sails/node_modules/async/lib/async.js:262:13)\n    at /home/apaco/Projects/open-payment-platform-v2/node_modules/sails/node_modules/async/lib/async.js:274:29\n    at /home/apaco/Projects/open-payment-platform-v2/node_modules/sails/node_modules/async/lib/async.js:44:16\n    at /home/apaco/Projects/open-payment-platform-v2/node_modules/sails/node_modules/async/lib/async.js:718:17\n    at /home/apaco/Projects/open-payment-platform-v2/node_modules/sails/node_modules/async/lib/async.js:167:37\n    at module.exports (/home/apaco/Projects/open-payment-platform-v2/node_modules/sails/lib/app/load.js:184:13)\n    at _toString (/home/apaco/Projects/open-payment-platform-v2/node_modules/sails/node_modules/async/lib/async.js:52:16)\n    at /home/apaco/Projects/open-payment-platform-v2/node_modules/sails/node_modules/async/lib/async.js:548:17\n    at /home/apaco/Projects/open-payment-platform-v2/node_modules/sails/node_modules/async/lib/async.js:542:17\n    at _arrayEach (/home/apaco/Projects/open-payment-platform-v2/node_modules/sails/node_modules/async/lib/async.js:85:13)\n    at Immediate.taskComplete (/home/apaco/Projects/open-payment-platform-v2/node_modules/sails/node_modules/async/lib/async.js:541:13)\n    at runCallback (timers.js:651:20)\n    at tryOnImmediate (timers.js:624:5)\n    at processImmediate [as _immediateCallback] (timers.js:596:5)"},"msg":"sequelize.getMigrator is not a function","time":"2017-01-19T17:16:20.698Z","v":0}
{"name":"sails","hostname":"apaco-Lenovo-G40-80","pid":20303,"level":50,"msg":"Bootstrap encountered an error: (see below)","time":"2017-01-19T17:16:49.171Z","v":0}
{"name":"sails","hostname":"apaco-Lenovo-G40-80","pid":20303,"level":50,"err":{"message":"Sequelize.getMigrator is not a function","name":"TypeError","stack":"TypeError: Sequelize.getMigrator is not a function\n    at Object.module.exports.bootstrap (/home/apaco/Projects/open-payment-platform-v2/config/bootstrap.js:17:28)\n    at Sails.runBootstrap (/home/apaco/Projects/open-payment-platform-v2/node_modules/sails/lib/app/private/bootstrap.js:44:25)\n    at Sails.wrapper [as runBootstrap] (/home/apaco/Projects/open-payment-platform-v2/node_modules/@sailshq/lodash/lib/index.js:3250:19)\n    at Sails.initialize (/home/apaco/Projects/open-payment-platform-v2/node_modules/sails/lib/app/private/initialize.js:68:9)\n    at wrapper (/home/apaco/Projects/open-payment-platform-v2/node_modules/@sailshq/lodash/lib/index.js:3250:19)\n    at /home/apaco/Projects/open-payment-platform-v2/node_modules/sails/node_modules/async/lib/async.js:713:13\n    at iterate (/home/apaco/Projects/open-payment-platform-v2/node_modules/sails/node_modules/async/lib/async.js:262:13)\n    at /home/apaco/Projects/open-payment-platform-v2/node_modules/sails/node_modules/async/lib/async.js:274:29\n    at /home/apaco/Projects/open-payment-platform-v2/node_modules/sails/node_modules/async/lib/async.js:44:16\n    at /home/apaco/Projects/open-payment-platform-v2/node_modules/sails/node_modules/async/lib/async.js:718:17\n    at /home/apaco/Projects/open-payment-platform-v2/node_modules/sails/node_modules/async/lib/async.js:167:37\n    at module.exports (/home/apaco/Projects/open-payment-platform-v2/node_modules/sails/lib/app/load.js:184:13)\n    at _toString (/home/apaco/Projects/open-payment-platform-v2/node_modules/sails/node_modules/async/lib/async.js:52:16)\n    at /home/apaco/Projects/open-payment-platform-v2/node_modules/sails/node_modules/async/lib/async.js:548:17\n    at /home/apaco/Projects/open-payment-platform-v2/node_modules/sails/node_modules/async/lib/async.js:542:17\n    at _arrayEach (/home/apaco/Projects/open-payment-platform-v2/node_modules/sails/node_modules/async/lib/async.js:85:13)\n    at Immediate.taskComplete (/home/apaco/Projects/open-payment-platform-v2/node_modules/sails/node_modules/async/lib/async.js:541:13)\n    at runCallback (timers.js:651:20)\n    at tryOnImmediate (timers.js:624:5)\n    at processImmediate [as _immediateCallback] (timers.js:596:5)"},"msg":"Sequelize.getMigrator is not a function","time":"2017-01-19T17:16:49.174Z","v":0}
{"name":"sails","hostname":"apaco-Lenovo-G40-80","pid":20403,"level":50,"msg":"Bootstrap encountered an error: (see below)","time":"2017-01-19T17:17:15.817Z","v":0}
{"name":"sails","hostname":"apaco-Lenovo-G40-80","pid":20403,"level":50,"err":{"message":"User.sequelize.getMigrator is not a function","name":"TypeError","stack":"TypeError: User.sequelize.getMigrator is not a function\n    at Object.module.exports.bootstrap (/home/apaco/Projects/open-payment-platform-v2/config/bootstrap.js:17:33)\n    at Sails.runBootstrap (/home/apaco/Projects/open-payment-platform-v2/node_modules/sails/lib/app/private/bootstrap.js:44:25)\n    at Sails.wrapper [as runBootstrap] (/home/apaco/Projects/open-payment-platform-v2/node_modules/@sailshq/lodash/lib/index.js:3250:19)\n    at Sails.initialize (/home/apaco/Projects/open-payment-platform-v2/node_modules/sails/lib/app/private/initialize.js:68:9)\n    at wrapper (/home/apaco/Projects/open-payment-platform-v2/node_modules/@sailshq/lodash/lib/index.js:3250:19)\n    at /home/apaco/Projects/open-payment-platform-v2/node_modules/sails/node_modules/async/lib/async.js:713:13\n    at iterate (/home/apaco/Projects/open-payment-platform-v2/node_modules/sails/node_modules/async/lib/async.js:262:13)\n    at /home/apaco/Projects/open-payment-platform-v2/node_modules/sails/node_modules/async/lib/async.js:274:29\n    at /home/apaco/Projects/open-payment-platform-v2/node_modules/sails/node_modules/async/lib/async.js:44:16\n    at /home/apaco/Projects/open-payment-platform-v2/node_modules/sails/node_modules/async/lib/async.js:718:17\n    at /home/apaco/Projects/open-payment-platform-v2/node_modules/sails/node_modules/async/lib/async.js:167:37\n    at module.exports (/home/apaco/Projects/open-payment-platform-v2/node_modules/sails/lib/app/load.js:184:13)\n    at _toString (/home/apaco/Projects/open-payment-platform-v2/node_modules/sails/node_modules/async/lib/async.js:52:16)\n    at /home/apaco/Projects/open-payment-platform-v2/node_modules/sails/node_modules/async/lib/async.js:548:17\n    at /home/apaco/Projects/open-payment-platform-v2/node_modules/sails/node_modules/async/lib/async.js:542:17\n    at _arrayEach (/home/apaco/Projects/open-payment-platform-v2/node_modules/sails/node_modules/async/lib/async.js:85:13)\n    at Immediate.taskComplete (/home/apaco/Projects/open-payment-platform-v2/node_modules/sails/node_modules/async/lib/async.js:541:13)\n    at runCallback (timers.js:651:20)\n    at tryOnImmediate (timers.js:624:5)\n    at processImmediate [as _immediateCallback] (timers.js:596:5)"},"msg":"User.sequelize.getMigrator is not a function","time":"2017-01-19T17:17:15.819Z","v":0}
{"name":"sails","hostname":"apaco-Lenovo-G40-80","pid":20520,"level":50,"msg":"Bootstrap encountered an error: (see below)","time":"2017-01-19T17:17:47.110Z","v":0}
{"name":"sails","hostname":"apaco-Lenovo-G40-80","pid":20520,"level":50,"err":{"message":"User.sequelize.getMigrator is not a function","name":"TypeError","stack":"TypeError: User.sequelize.getMigrator is not a function\n    at Object.module.exports.bootstrap (/home/apaco/Projects/open-payment-platform-v2/config/bootstrap.js:17:33)\n    at Sails.runBootstrap (/home/apaco/Projects/open-payment-platform-v2/node_modules/sails/lib/app/private/bootstrap.js:44:25)\n    at Sails.wrapper [as runBootstrap] (/home/apaco/Projects/open-payment-platform-v2/node_modules/@sailshq/lodash/lib/index.js:3250:19)\n    at Sails.initialize (/home/apaco/Projects/open-payment-platform-v2/node_modules/sails/lib/app/private/initialize.js:68:9)\n    at wrapper (/home/apaco/Projects/open-payment-platform-v2/node_modules/@sailshq/lodash/lib/index.js:3250:19)\n    at /home/apaco/Projects/open-payment-platform-v2/node_modules/sails/node_modules/async/lib/async.js:713:13\n    at iterate (/home/apaco/Projects/open-payment-platform-v2/node_modules/sails/node_modules/async/lib/async.js:262:13)\n    at /home/apaco/Projects/open-payment-platform-v2/node_modules/sails/node_modules/async/lib/async.js:274:29\n    at /home/apaco/Projects/open-payment-platform-v2/node_modules/sails/node_modules/async/lib/async.js:44:16\n    at /home/apaco/Projects/open-payment-platform-v2/node_modules/sails/node_modules/async/lib/async.js:718:17\n    at /home/apaco/Projects/open-payment-platform-v2/node_modules/sails/node_modules/async/lib/async.js:167:37\n    at module.exports (/home/apaco/Projects/open-payment-platform-v2/node_modules/sails/lib/app/load.js:184:13)\n    at _toString (/home/apaco/Projects/open-payment-platform-v2/node_modules/sails/node_modules/async/lib/async.js:52:16)\n    at /home/apaco/Projects/open-payment-platform-v2/node_modules/sails/node_modules/async/lib/async.js:548:17\n    at /home/apaco/Projects/open-payment-platform-v2/node_modules/sails/node_modules/async/lib/async.js:542:17\n    at _arrayEach (/home/apaco/Projects/open-payment-platform-v2/node_modules/sails/node_modules/async/lib/async.js:85:13)\n    at Immediate.taskComplete (/home/apaco/Projects/open-payment-platform-v2/node_modules/sails/node_modules/async/lib/async.js:541:13)\n    at runCallback (timers.js:651:20)\n    at tryOnImmediate (timers.js:624:5)\n    at processImmediate [as _immediateCallback] (timers.js:596:5)"},"msg":"User.sequelize.getMigrator is not a function","time":"2017-01-19T17:17:47.114Z","v":0}
{"name":"sails","hostname":"apaco-Lenovo-G40-80","pid":25743,"level":50,"msg":"Bootstrap encountered an error: (see below)","time":"2017-01-19T18:10:12.790Z","v":0}
{"name":"sails","hostname":"apaco-Lenovo-G40-80","pid":25743,"level":50,"err":{"message":"User.sequelize.getMigrator is not a function","name":"TypeError","stack":"TypeError: User.sequelize.getMigrator is not a function\n    at Object.module.exports.bootstrap (/home/apaco/Projects/open-payment-platform-v2/config/bootstrap.js:17:33)\n    at Sails.runBootstrap (/home/apaco/Projects/open-payment-platform-v2/node_modules/sails/lib/app/private/bootstrap.js:44:25)\n    at Sails.wrapper [as runBootstrap] (/home/apaco/Projects/open-payment-platform-v2/node_modules/@sailshq/lodash/lib/index.js:3250:19)\n    at Sails.initialize (/home/apaco/Projects/open-payment-platform-v2/node_modules/sails/lib/app/private/initialize.js:68:9)\n    at wrapper (/home/apaco/Projects/open-payment-platform-v2/node_modules/@sailshq/lodash/lib/index.js:3250:19)\n    at /home/apaco/Projects/open-payment-platform-v2/node_modules/sails/node_modules/async/lib/async.js:713:13\n    at iterate (/home/apaco/Projects/open-payment-platform-v2/node_modules/sails/node_modules/async/lib/async.js:262:13)\n    at /home/apaco/Projects/open-payment-platform-v2/node_modules/sails/node_modules/async/lib/async.js:274:29\n    at /home/apaco/Projects/open-payment-platform-v2/node_modules/sails/node_modules/async/lib/async.js:44:16\n    at /home/apaco/Projects/open-payment-platform-v2/node_modules/sails/node_modules/async/lib/async.js:718:17\n    at /home/apaco/Projects/open-payment-platform-v2/node_modules/sails/node_modules/async/lib/async.js:167:37\n    at module.exports (/home/apaco/Projects/open-payment-platform-v2/node_modules/sails/lib/app/load.js:184:13)\n    at _toString (/home/apaco/Projects/open-payment-platform-v2/node_modules/sails/node_modules/async/lib/async.js:52:16)\n    at /home/apaco/Projects/open-payment-platform-v2/node_modules/sails/node_modules/async/lib/async.js:548:17\n    at /home/apaco/Projects/open-payment-platform-v2/node_modules/sails/node_modules/async/lib/async.js:542:17\n    at _arrayEach (/home/apaco/Projects/open-payment-platform-v2/node_modules/sails/node_modules/async/lib/async.js:85:13)\n    at Immediate.taskComplete (/home/apaco/Projects/open-payment-platform-v2/node_modules/sails/node_modules/async/lib/async.js:541:13)\n    at runCallback (timers.js:651:20)\n    at tryOnImmediate (timers.js:624:5)\n    at processImmediate [as _immediateCallback] (timers.js:596:5)"},"msg":"User.sequelize.getMigrator is not a function","time":"2017-01-19T18:10:12.792Z","v":0}
