{"name":"sails","hostname":"apaco-Lenovo-G40-80","pid":18024,"level":50,"err":{"message":"invalid input value for enum enum_transactionopp_type: \"transaction\"","name":"SequelizeDatabaseError","stack":"SequelizeBaseError: invalid input value for enum enum_transactionopp_type: \"transaction\"\n    at Query.formatError (/home/apaco/Projects/open-payment-platform-v2/node_modules/sequelize/lib/dialects/postgres/query.js:357:14)\n    at Query.<anonymous> (/home/apaco/Projects/open-payment-platform-v2/node_modules/sequelize/lib/dialects/postgres/query.js:88:19)\n    at emitOne (events.js:96:13)\n    at Query.emit (events.js:188:7)\n    at Query.handleError (/home/apaco/Projects/open-payment-platform-v2/node_modules/pg/lib/query.js:131:8)\n    at Connection.<anonymous> (/home/apaco/Projects/open-payment-platform-v2/node_modules/pg/lib/client.js:180:26)\n    at emitOne (events.js:96:13)\n    at Connection.emit (events.js:188:7)\n    at Socket.<anonymous> (/home/apaco/Projects/open-payment-platform-v2/node_modules/pg/lib/connection.js:121:12)\n    at emitOne (events.js:96:13)\n    at Socket.emit (events.js:188:7)\n    at readableAddChunk (_stream_readable.js:176:18)\n    at Socket.Readable.push (_stream_readable.js:134:10)\n    at TCP.onread [as _originalOnread] (net.js:551:20)\n    at TCP.onread (/home/apaco/Projects/open-payment-platform-v2/node_modules/async-listener/glue.js:188:31)"},"msg":"invalid input value for enum enum_transactionopp_type: \"transaction\"","time":"2017-02-13T18:59:58.747Z","v":0}
{"name":"sails","hostname":"apaco-Lenovo-G40-80","pid":18158,"level":50,"err":{"message":"invalid input value for enum enum_transactionopp_type: \"transaction\"","name":"SequelizeDatabaseError","stack":"SequelizeBaseError: invalid input value for enum enum_transactionopp_type: \"transaction\"\n    at Query.formatError (/home/apaco/Projects/open-payment-platform-v2/node_modules/sequelize/lib/dialects/postgres/query.js:357:14)\n    at Query.<anonymous> (/home/apaco/Projects/open-payment-platform-v2/node_modules/sequelize/lib/dialects/postgres/query.js:88:19)\n    at emitOne (events.js:96:13)\n    at Query.emit (events.js:188:7)\n    at Query.handleError (/home/apaco/Projects/open-payment-platform-v2/node_modules/pg/lib/query.js:131:8)\n    at Connection.<anonymous> (/home/apaco/Projects/open-payment-platform-v2/node_modules/pg/lib/client.js:180:26)\n    at emitOne (events.js:96:13)\n    at Connection.emit (events.js:188:7)\n    at Socket.<anonymous> (/home/apaco/Projects/open-payment-platform-v2/node_modules/pg/lib/connection.js:121:12)\n    at emitOne (events.js:96:13)\n    at Socket.emit (events.js:188:7)\n    at readableAddChunk (_stream_readable.js:176:18)\n    at Socket.Readable.push (_stream_readable.js:134:10)\n    at TCP.onread [as _originalOnread] (net.js:551:20)\n    at TCP.onread (/home/apaco/Projects/open-payment-platform-v2/node_modules/async-listener/glue.js:188:31)"},"msg":"invalid input value for enum enum_transactionopp_type: \"transaction\"","time":"2017-02-13T19:01:50.269Z","v":0}
{"name":"sails","hostname":"apaco-Lenovo-G40-80","pid":18304,"level":50,"err":{"message":"invalid input value for enum enum_transactionopp_type: \"transaction\"","name":"SequelizeDatabaseError","stack":"SequelizeBaseError: invalid input value for enum enum_transactionopp_type: \"transaction\"\n    at Query.formatError (/home/apaco/Projects/open-payment-platform-v2/node_modules/sequelize/lib/dialects/postgres/query.js:357:14)\n    at Query.<anonymous> (/home/apaco/Projects/open-payment-platform-v2/node_modules/sequelize/lib/dialects/postgres/query.js:88:19)\n    at emitOne (events.js:96:13)\n    at Query.emit (events.js:188:7)\n    at Query.handleError (/home/apaco/Projects/open-payment-platform-v2/node_modules/pg/lib/query.js:131:8)\n    at Connection.<anonymous> (/home/apaco/Projects/open-payment-platform-v2/node_modules/pg/lib/client.js:180:26)\n    at emitOne (events.js:96:13)\n    at Connection.emit (events.js:188:7)\n    at Socket.<anonymous> (/home/apaco/Projects/open-payment-platform-v2/node_modules/pg/lib/connection.js:121:12)\n    at emitOne (events.js:96:13)\n    at Socket.emit (events.js:188:7)\n    at readableAddChunk (_stream_readable.js:176:18)\n    at Socket.Readable.push (_stream_readable.js:134:10)\n    at TCP.onread [as _originalOnread] (net.js:551:20)\n    at TCP.onread (/home/apaco/Projects/open-payment-platform-v2/node_modules/async-listener/glue.js:188:31)"},"msg":"invalid input value for enum enum_transactionopp_type: \"transaction\"","time":"2017-02-13T19:04:06.405Z","v":0}
{"name":"sails","hostname":"apaco-Lenovo-G40-80","pid":21539,"level":50,"msg":"Sending 500 (\"Server Error\") response: \n TypeError: Cannot read property 'push' of undefined\n    at Object.payment (/home/apaco/Projects/open-payment-platform-v2/api/controllers/OppPaymentController.js:20:36)\n    at wrapper (/home/apaco/Projects/open-payment-platform-v2/node_modules/@sailshq/lodash/lib/index.js:3250:19)\n    at routeTargetFnWrapper (/home/apaco/Projects/open-payment-platform-v2/node_modules/sails/lib/router/bind.js:181:5)\n    at callbacks (/home/apaco/Projects/open-payment-platform-v2/node_modules/sails/node_modules/express/lib/router/index.js:164:37)\n    at param (/home/apaco/Projects/open-payment-platform-v2/node_modules/sails/node_modules/express/lib/router/index.js:138:11)\n    at pass (/home/apaco/Projects/open-payment-platform-v2/node_modules/sails/node_modules/express/lib/router/index.js:145:5)\n    at nextRoute (/home/apaco/Projects/open-payment-platform-v2/node_modules/sails/node_modules/express/lib/router/index.js:100:7)\n    at callbacks (/home/apaco/Projects/open-payment-platform-v2/node_modules/sails/node_modules/express/lib/router/index.js:167:11)\n    at Model.<anonymous> (/home/apaco/Projects/open-payment-platform-v2/api/policies/isauthorized.js:45:17)\n    at Model.<anonymous> (/home/apaco/Projects/open-payment-platform-v2/node_modules/continuation-local-storage/context.js:84:17)\n    at Model.tryCatcher (/home/apaco/Projects/open-payment-platform-v2/node_modules/bluebird/js/release/util.js:16:23)\n    at Promise._settlePromiseFromHandler (/home/apaco/Projects/open-payment-platform-v2/node_modules/bluebird/js/release/promise.js:510:31)\n    at Promise._settlePromise (/home/apaco/Projects/open-payment-platform-v2/node_modules/bluebird/js/release/promise.js:567:18)\n    at Promise._settlePromise0 (/home/apaco/Projects/open-payment-platform-v2/node_modules/bluebird/js/release/promise.js:612:10)\n    at Promise._settlePromises (/home/apaco/Projects/open-payment-platform-v2/node_modules/bluebird/js/release/promise.js:691:18)\n    at Async._drainQueue (/home/apaco/Projects/open-payment-platform-v2/node_modules/bluebird/js/release/async.js:133:16)\n    at Async._drainQueues (/home/apaco/Projects/open-payment-platform-v2/node_modules/bluebird/js/release/async.js:143:10)\n    at Immediate.Async.drainQueues (/home/apaco/Projects/open-payment-platform-v2/node_modules/bluebird/js/release/async.js:17:14)\n    at runCallback (timers.js:651:20)\n    at tryOnImmediate (timers.js:624:5)\n    at processImmediate [as _immediateCallback] (timers.js:596:5)","time":"2017-02-13T19:48:35.525Z","v":0}
{"name":"sails","hostname":"apaco-Lenovo-G40-80","pid":21539,"level":50,"msg":"Sending 500 (\"Server Error\") response: \n TypeError: Cannot read property 'push' of undefined\n    at Object.payment (/home/apaco/Projects/open-payment-platform-v2/api/controllers/OppPaymentController.js:20:36)\n    at wrapper (/home/apaco/Projects/open-payment-platform-v2/node_modules/@sailshq/lodash/lib/index.js:3250:19)\n    at routeTargetFnWrapper (/home/apaco/Projects/open-payment-platform-v2/node_modules/sails/lib/router/bind.js:181:5)\n    at callbacks (/home/apaco/Projects/open-payment-platform-v2/node_modules/sails/node_modules/express/lib/router/index.js:164:37)\n    at param (/home/apaco/Projects/open-payment-platform-v2/node_modules/sails/node_modules/express/lib/router/index.js:138:11)\n    at pass (/home/apaco/Projects/open-payment-platform-v2/node_modules/sails/node_modules/express/lib/router/index.js:145:5)\n    at nextRoute (/home/apaco/Projects/open-payment-platform-v2/node_modules/sails/node_modules/express/lib/router/index.js:100:7)\n    at callbacks (/home/apaco/Projects/open-payment-platform-v2/node_modules/sails/node_modules/express/lib/router/index.js:167:11)\n    at Model.<anonymous> (/home/apaco/Projects/open-payment-platform-v2/api/policies/isauthorized.js:45:17)\n    at Model.<anonymous> (/home/apaco/Projects/open-payment-platform-v2/node_modules/continuation-local-storage/context.js:84:17)\n    at Model.tryCatcher (/home/apaco/Projects/open-payment-platform-v2/node_modules/bluebird/js/release/util.js:16:23)\n    at Promise._settlePromiseFromHandler (/home/apaco/Projects/open-payment-platform-v2/node_modules/bluebird/js/release/promise.js:510:31)\n    at Promise._settlePromise (/home/apaco/Projects/open-payment-platform-v2/node_modules/bluebird/js/release/promise.js:567:18)\n    at Promise._settlePromise0 (/home/apaco/Projects/open-payment-platform-v2/node_modules/bluebird/js/release/promise.js:612:10)\n    at Promise._settlePromises (/home/apaco/Projects/open-payment-platform-v2/node_modules/bluebird/js/release/promise.js:691:18)\n    at Async._drainQueue (/home/apaco/Projects/open-payment-platform-v2/node_modules/bluebird/js/release/async.js:133:16)\n    at Async._drainQueues (/home/apaco/Projects/open-payment-platform-v2/node_modules/bluebird/js/release/async.js:143:10)\n    at Immediate.Async.drainQueues (/home/apaco/Projects/open-payment-platform-v2/node_modules/bluebird/js/release/async.js:17:14)\n    at runCallback (timers.js:651:20)\n    at tryOnImmediate (timers.js:624:5)\n    at processImmediate [as _immediateCallback] (timers.js:596:5)","time":"2017-02-13T19:48:35.602Z","v":0}
{"name":"sails","hostname":"apaco-Lenovo-G40-80","pid":21629,"level":50,"msg":"Sending 500 (\"Server Error\") response: \n { ServiceUnavailableError: Response timeout\n    at IncomingMessage.<anonymous> (/home/apaco/Projects/open-payment-platform-v2/node_modules/connect-timeout/index.js:75:8)\n    at emitOne (events.js:96:13)\n    at IncomingMessage.emit (events.js:188:7)\n    at Timeout.<anonymous> (/home/apaco/Projects/open-payment-platform-v2/node_modules/connect-timeout/index.js:48:11)\n    at Timeout._onTimeout (/home/apaco/Projects/open-payment-platform-v2/node_modules/async-listener/glue.js:188:31)\n    at ontimeout (timers.js:365:14)\n    at tryOnTimeout (timers.js:237:5)\n    at Timer.listOnTimeout (timers.js:207:5) code: 'ETIMEDOUT', timeout: 71000 }","time":"2017-02-13T19:50:31.878Z","v":0}
