{"name":"sails","hostname":"apaco-Lenovo-G40-80","pid":10232,"level":30,"msg":"Bootstrap: Created admin@opp.com","time":"2017-02-13T16:22:23.436Z","v":0}
{"name":"sails","hostname":"apaco-Lenovo-G40-80","pid":10232,"level":30,"msg":"Bootstrap: Created test credit cards","time":"2017-02-13T16:22:23.480Z","v":0}
{"name":"sails","hostname":"apaco-Lenovo-G40-80","pid":10232,"level":30,"msg":"Bootstrap: Created Roles","time":"2017-02-13T16:22:23.491Z","v":0}
{"name":"sails","hostname":"apaco-Lenovo-G40-80","pid":10232,"level":30,"msg":"Bootstrap: Created Transaction Item Trigger","time":"2017-02-13T16:22:23.568Z","v":0}
{"name":"Not Found","hostname":"apaco-Lenovo-G40-80","pid":10232,"level":30,"message":"User was not found","statusCode":404,"msg":"","time":"2017-02-13T16:22:24.237Z","v":0}
{"name":"Not Found","hostname":"apaco-Lenovo-G40-80","pid":10232,"level":30,"message":"User was not found","statusCode":404,"msg":"","time":"2017-02-13T16:22:24.291Z","v":0}
{"name":"Not Found","hostname":"apaco-Lenovo-G40-80","pid":10232,"level":30,"message":"Sender was not found","statusCode":404,"msg":"","time":"2017-02-13T16:22:24.397Z","v":0}
{"name":"sails","hostname":"apaco-Lenovo-G40-80","pid":15433,"level":30,"msg":"Bootstrap: Created admin@opp.com","time":"2017-02-13T18:18:43.815Z","v":0}
{"name":"sails","hostname":"apaco-Lenovo-G40-80","pid":15433,"level":30,"msg":"Bootstrap: Created test credit cards","time":"2017-02-13T18:18:43.892Z","v":0}
{"name":"sails","hostname":"apaco-Lenovo-G40-80","pid":15433,"level":30,"msg":"Bootstrap: Created Roles","time":"2017-02-13T18:18:43.903Z","v":0}
{"name":"sails","hostname":"apaco-Lenovo-G40-80","pid":15433,"level":30,"msg":"Bootstrap: Created Transaction Item Trigger","time":"2017-02-13T18:18:43.947Z","v":0}
{"name":"Not Found","hostname":"apaco-Lenovo-G40-80","pid":15433,"level":30,"message":"User was not found","statusCode":404,"msg":"","time":"2017-02-13T18:18:44.609Z","v":0}
{"name":"Not Found","hostname":"apaco-Lenovo-G40-80","pid":15433,"level":30,"message":"User was not found","statusCode":404,"msg":"","time":"2017-02-13T18:18:44.686Z","v":0}
{"name":"Not Found","hostname":"apaco-Lenovo-G40-80","pid":15433,"level":30,"message":"Sender was not found","statusCode":404,"msg":"","time":"2017-02-13T18:18:44.847Z","v":0}
{"name":"sails","hostname":"apaco-Lenovo-G40-80","pid":15669,"level":30,"msg":"Bootstrap: Created admin@opp.com","time":"2017-02-13T18:20:53.535Z","v":0}
{"name":"sails","hostname":"apaco-Lenovo-G40-80","pid":15669,"level":30,"msg":"Bootstrap: Created test credit cards","time":"2017-02-13T18:20:53.590Z","v":0}
{"name":"sails","hostname":"apaco-Lenovo-G40-80","pid":15669,"level":30,"msg":"Bootstrap: Created Roles","time":"2017-02-13T18:20:53.601Z","v":0}
{"name":"sails","hostname":"apaco-Lenovo-G40-80","pid":15669,"level":30,"msg":"Bootstrap: Created Transaction Item Trigger","time":"2017-02-13T18:20:53.646Z","v":0}
{"name":"Not Found","hostname":"apaco-Lenovo-G40-80","pid":15669,"level":30,"message":"User was not found","statusCode":404,"msg":"","time":"2017-02-13T18:20:54.123Z","v":0}
{"name":"Not Found","hostname":"apaco-Lenovo-G40-80","pid":15669,"level":30,"message":"User was not found","statusCode":404,"msg":"","time":"2017-02-13T18:20:54.173Z","v":0}
{"name":"Not Found","hostname":"apaco-Lenovo-G40-80","pid":15669,"level":30,"message":"Sender was not found","statusCode":404,"msg":"","time":"2017-02-13T18:20:54.277Z","v":0}
{"name":"sails","hostname":"apaco-Lenovo-G40-80","pid":15777,"level":30,"msg":"Bootstrap: Created admin@opp.com","time":"2017-02-13T18:22:16.476Z","v":0}
{"name":"sails","hostname":"apaco-Lenovo-G40-80","pid":15777,"level":30,"msg":"Bootstrap: Created test credit cards","time":"2017-02-13T18:22:16.531Z","v":0}
{"name":"sails","hostname":"apaco-Lenovo-G40-80","pid":15777,"level":30,"msg":"Bootstrap: Created Roles","time":"2017-02-13T18:22:16.543Z","v":0}
{"name":"sails","hostname":"apaco-Lenovo-G40-80","pid":15777,"level":30,"msg":"Bootstrap: Created Transaction Item Trigger","time":"2017-02-13T18:22:16.575Z","v":0}
{"name":"Not Found","hostname":"apaco-Lenovo-G40-80","pid":15777,"level":30,"message":"User was not found","statusCode":404,"msg":"","time":"2017-02-13T18:22:17.108Z","v":0}
{"name":"Not Found","hostname":"apaco-Lenovo-G40-80","pid":15777,"level":30,"message":"User was not found","statusCode":404,"msg":"","time":"2017-02-13T18:22:17.195Z","v":0}
{"name":"Not Found","hostname":"apaco-Lenovo-G40-80","pid":15777,"level":30,"message":"Sender was not found","statusCode":404,"msg":"","time":"2017-02-13T18:22:17.311Z","v":0}
{"name":"sails","hostname":"apaco-Lenovo-G40-80","pid":16170,"level":30,"msg":"Bootstrap: Created admin@opp.com","time":"2017-02-13T18:25:57.741Z","v":0}
{"name":"sails","hostname":"apaco-Lenovo-G40-80","pid":16170,"level":30,"msg":"Bootstrap: Created test credit cards","time":"2017-02-13T18:25:57.808Z","v":0}
{"name":"sails","hostname":"apaco-Lenovo-G40-80","pid":16170,"level":30,"msg":"Bootstrap: Created Roles","time":"2017-02-13T18:25:57.818Z","v":0}
{"name":"sails","hostname":"apaco-Lenovo-G40-80","pid":16170,"level":30,"msg":"Bootstrap: Created Transaction Item Trigger","time":"2017-02-13T18:25:57.853Z","v":0}
{"name":"Not Found","hostname":"apaco-Lenovo-G40-80","pid":16170,"level":30,"message":"User was not found","statusCode":404,"msg":"","time":"2017-02-13T18:25:58.336Z","v":0}
{"name":"Not Found","hostname":"apaco-Lenovo-G40-80","pid":16170,"level":30,"message":"User was not found","statusCode":404,"msg":"","time":"2017-02-13T18:25:58.438Z","v":0}
{"name":"Not Found","hostname":"apaco-Lenovo-G40-80","pid":16170,"level":30,"message":"Sender was not found","statusCode":404,"msg":"","time":"2017-02-13T18:25:58.550Z","v":0}
{"name":"sails","hostname":"apaco-Lenovo-G40-80","pid":16271,"level":30,"msg":"Bootstrap: Created admin@opp.com","time":"2017-02-13T18:26:38.549Z","v":0}
{"name":"sails","hostname":"apaco-Lenovo-G40-80","pid":16271,"level":30,"msg":"Bootstrap: Created test credit cards","time":"2017-02-13T18:26:38.660Z","v":0}
{"name":"sails","hostname":"apaco-Lenovo-G40-80","pid":16271,"level":30,"msg":"Bootstrap: Created Roles","time":"2017-02-13T18:26:38.715Z","v":0}
{"name":"sails","hostname":"apaco-Lenovo-G40-80","pid":16271,"level":30,"msg":"Bootstrap: Created Transaction Item Trigger","time":"2017-02-13T18:26:38.770Z","v":0}
{"name":"Not Found","hostname":"apaco-Lenovo-G40-80","pid":16271,"level":30,"message":"User was not found","statusCode":404,"msg":"","time":"2017-02-13T18:26:39.288Z","v":0}
{"name":"Not Found","hostname":"apaco-Lenovo-G40-80","pid":16271,"level":30,"message":"User was not found","statusCode":404,"msg":"","time":"2017-02-13T18:26:39.346Z","v":0}
{"name":"Not Found","hostname":"apaco-Lenovo-G40-80","pid":16271,"level":30,"message":"Sender was not found","statusCode":404,"msg":"","time":"2017-02-13T18:26:39.448Z","v":0}
{"name":"sails","hostname":"apaco-Lenovo-G40-80","pid":16414,"level":30,"msg":"Bootstrap: Created admin@opp.com","time":"2017-02-13T18:29:49.875Z","v":0}
{"name":"sails","hostname":"apaco-Lenovo-G40-80","pid":16414,"level":30,"msg":"Bootstrap: Created test credit cards","time":"2017-02-13T18:29:49.942Z","v":0}
{"name":"sails","hostname":"apaco-Lenovo-G40-80","pid":16414,"level":30,"msg":"Bootstrap: Created Roles","time":"2017-02-13T18:29:49.952Z","v":0}
{"name":"sails","hostname":"apaco-Lenovo-G40-80","pid":16414,"level":30,"msg":"Bootstrap: Created Transaction Item Trigger","time":"2017-02-13T18:29:49.985Z","v":0}
{"name":"Not Found","hostname":"apaco-Lenovo-G40-80","pid":16414,"level":30,"message":"User was not found","statusCode":404,"msg":"","time":"2017-02-13T18:29:50.445Z","v":0}
{"name":"Not Found","hostname":"apaco-Lenovo-G40-80","pid":16414,"level":30,"message":"User was not found","statusCode":404,"msg":"","time":"2017-02-13T18:29:50.518Z","v":0}
{"name":"Not Found","hostname":"apaco-Lenovo-G40-80","pid":16414,"level":30,"message":"Sender was not found","statusCode":404,"msg":"","time":"2017-02-13T18:29:50.654Z","v":0}
{"name":"sails","hostname":"apaco-Lenovo-G40-80","pid":16473,"level":30,"msg":"Bootstrap: Created admin@opp.com","time":"2017-02-13T18:30:11.195Z","v":0}
{"name":"sails","hostname":"apaco-Lenovo-G40-80","pid":16473,"level":30,"msg":"Bootstrap: Created test credit cards","time":"2017-02-13T18:30:11.250Z","v":0}
{"name":"sails","hostname":"apaco-Lenovo-G40-80","pid":16473,"level":30,"msg":"Bootstrap: Created Roles","time":"2017-02-13T18:30:11.261Z","v":0}
{"name":"sails","hostname":"apaco-Lenovo-G40-80","pid":16473,"level":30,"msg":"Bootstrap: Created Transaction Item Trigger","time":"2017-02-13T18:30:11.294Z","v":0}
{"name":"Not Found","hostname":"apaco-Lenovo-G40-80","pid":16473,"level":30,"message":"User was not found","statusCode":404,"msg":"","time":"2017-02-13T18:30:11.733Z","v":0}
{"name":"Not Found","hostname":"apaco-Lenovo-G40-80","pid":16473,"level":30,"message":"User was not found","statusCode":404,"msg":"","time":"2017-02-13T18:30:11.795Z","v":0}
{"name":"Not Found","hostname":"apaco-Lenovo-G40-80","pid":16473,"level":30,"message":"Sender was not found","statusCode":404,"msg":"","time":"2017-02-13T18:30:11.914Z","v":0}
{"name":"sails","hostname":"apaco-Lenovo-G40-80","pid":16544,"level":30,"msg":"Bootstrap: Created admin@opp.com","time":"2017-02-13T18:30:32.813Z","v":0}
{"name":"sails","hostname":"apaco-Lenovo-G40-80","pid":16544,"level":30,"msg":"Bootstrap: Created test credit cards","time":"2017-02-13T18:30:32.881Z","v":0}
{"name":"sails","hostname":"apaco-Lenovo-G40-80","pid":16544,"level":30,"msg":"Bootstrap: Created Roles","time":"2017-02-13T18:30:32.891Z","v":0}
{"name":"sails","hostname":"apaco-Lenovo-G40-80","pid":16544,"level":30,"msg":"Bootstrap: Created Transaction Item Trigger","time":"2017-02-13T18:30:32.940Z","v":0}
{"name":"Not Found","hostname":"apaco-Lenovo-G40-80","pid":16544,"level":30,"message":"User was not found","statusCode":404,"msg":"","time":"2017-02-13T18:30:33.383Z","v":0}
{"name":"Not Found","hostname":"apaco-Lenovo-G40-80","pid":16544,"level":30,"message":"User was not found","statusCode":404,"msg":"","time":"2017-02-13T18:30:33.441Z","v":0}
{"name":"Not Found","hostname":"apaco-Lenovo-G40-80","pid":16544,"level":30,"message":"Sender was not found","statusCode":404,"msg":"","time":"2017-02-13T18:30:33.573Z","v":0}
{"name":"sails","hostname":"apaco-Lenovo-G40-80","pid":16714,"level":30,"msg":"Bootstrap: Created admin@opp.com","time":"2017-02-13T18:32:36.997Z","v":0}
{"name":"sails","hostname":"apaco-Lenovo-G40-80","pid":16714,"level":30,"msg":"Bootstrap: Created test credit cards","time":"2017-02-13T18:32:37.074Z","v":0}
{"name":"sails","hostname":"apaco-Lenovo-G40-80","pid":16714,"level":30,"msg":"Bootstrap: Created Roles","time":"2017-02-13T18:32:37.086Z","v":0}
{"name":"sails","hostname":"apaco-Lenovo-G40-80","pid":16714,"level":30,"msg":"Bootstrap: Created Transaction Item Trigger","time":"2017-02-13T18:32:37.118Z","v":0}
{"name":"Not Found","hostname":"apaco-Lenovo-G40-80","pid":16714,"level":30,"message":"User was not found","statusCode":404,"msg":"","time":"2017-02-13T18:32:37.666Z","v":0}
{"name":"Not Found","hostname":"apaco-Lenovo-G40-80","pid":16714,"level":30,"message":"User was not found","statusCode":404,"msg":"","time":"2017-02-13T18:32:37.738Z","v":0}
{"name":"Not Found","hostname":"apaco-Lenovo-G40-80","pid":16714,"level":30,"message":"Sender was not found","statusCode":404,"msg":"","time":"2017-02-13T18:32:37.877Z","v":0}
{"name":"sails","hostname":"apaco-Lenovo-G40-80","pid":17262,"level":30,"msg":"Bootstrap: Created admin@opp.com","time":"2017-02-13T18:48:16.225Z","v":0}
{"name":"sails","hostname":"apaco-Lenovo-G40-80","pid":17262,"level":30,"msg":"Bootstrap: Created test credit cards","time":"2017-02-13T18:48:16.282Z","v":0}
{"name":"sails","hostname":"apaco-Lenovo-G40-80","pid":17262,"level":30,"msg":"Bootstrap: Created Roles","time":"2017-02-13T18:48:16.292Z","v":0}
{"name":"sails","hostname":"apaco-Lenovo-G40-80","pid":17262,"level":30,"msg":"Bootstrap: Created Transaction Item Trigger","time":"2017-02-13T18:48:16.336Z","v":0}
{"name":"Not Found","hostname":"apaco-Lenovo-G40-80","pid":17262,"level":30,"message":"User was not found","statusCode":404,"msg":"","time":"2017-02-13T18:48:16.884Z","v":0}
{"name":"Not Found","hostname":"apaco-Lenovo-G40-80","pid":17262,"level":30,"message":"User was not found","statusCode":404,"msg":"","time":"2017-02-13T18:48:17.065Z","v":0}
{"name":"Not Found","hostname":"apaco-Lenovo-G40-80","pid":17262,"level":30,"message":"Sender was not found","statusCode":404,"msg":"","time":"2017-02-13T18:48:17.259Z","v":0}
{"name":"sails","hostname":"apaco-Lenovo-G40-80","pid":17477,"level":30,"msg":"Bootstrap: Created admin@opp.com","time":"2017-02-13T18:50:56.305Z","v":0}
{"name":"sails","hostname":"apaco-Lenovo-G40-80","pid":17477,"level":30,"msg":"Bootstrap: Created test credit cards","time":"2017-02-13T18:50:56.363Z","v":0}
{"name":"sails","hostname":"apaco-Lenovo-G40-80","pid":17477,"level":30,"msg":"Bootstrap: Created Roles","time":"2017-02-13T18:50:56.371Z","v":0}
{"name":"sails","hostname":"apaco-Lenovo-G40-80","pid":17477,"level":30,"msg":"Bootstrap: Created Transaction Item Trigger","time":"2017-02-13T18:50:56.405Z","v":0}
{"name":"Not Found","hostname":"apaco-Lenovo-G40-80","pid":17477,"level":30,"message":"User was not found","statusCode":404,"msg":"","time":"2017-02-13T18:50:56.930Z","v":0}
{"name":"Not Found","hostname":"apaco-Lenovo-G40-80","pid":17477,"level":30,"message":"User was not found","statusCode":404,"msg":"","time":"2017-02-13T18:50:57.037Z","v":0}
{"name":"Not Found","hostname":"apaco-Lenovo-G40-80","pid":17477,"level":30,"message":"Sender was not found","statusCode":404,"msg":"","time":"2017-02-13T18:50:57.217Z","v":0}
{"name":"sails","hostname":"apaco-Lenovo-G40-80","pid":17644,"level":30,"msg":"Bootstrap: Created admin@opp.com","time":"2017-02-13T18:52:44.219Z","v":0}
{"name":"sails","hostname":"apaco-Lenovo-G40-80","pid":17644,"level":30,"msg":"Bootstrap: Created test credit cards","time":"2017-02-13T18:52:44.286Z","v":0}
{"name":"sails","hostname":"apaco-Lenovo-G40-80","pid":17644,"level":30,"msg":"Bootstrap: Created Roles","time":"2017-02-13T18:52:44.297Z","v":0}
{"name":"sails","hostname":"apaco-Lenovo-G40-80","pid":17644,"level":30,"msg":"Bootstrap: Created Transaction Item Trigger","time":"2017-02-13T18:52:44.330Z","v":0}
{"name":"Not Found","hostname":"apaco-Lenovo-G40-80","pid":17644,"level":30,"message":"User was not found","statusCode":404,"msg":"","time":"2017-02-13T18:52:44.879Z","v":0}
{"name":"Not Found","hostname":"apaco-Lenovo-G40-80","pid":17644,"level":30,"message":"User was not found","statusCode":404,"msg":"","time":"2017-02-13T18:52:44.999Z","v":0}
{"name":"Not Found","hostname":"apaco-Lenovo-G40-80","pid":17644,"level":30,"message":"Sender was not found","statusCode":404,"msg":"","time":"2017-02-13T18:52:45.152Z","v":0}
{"name":"sails","hostname":"apaco-Lenovo-G40-80","pid":17820,"level":30,"msg":"Bootstrap: Created admin@opp.com","time":"2017-02-13T18:55:11.971Z","v":0}
{"name":"sails","hostname":"apaco-Lenovo-G40-80","pid":17820,"level":30,"msg":"Bootstrap: Created test credit cards","time":"2017-02-13T18:55:12.027Z","v":0}
{"name":"sails","hostname":"apaco-Lenovo-G40-80","pid":17820,"level":30,"msg":"Bootstrap: Created Roles","time":"2017-02-13T18:55:12.038Z","v":0}
{"name":"sails","hostname":"apaco-Lenovo-G40-80","pid":17820,"level":30,"msg":"Bootstrap: Created Transaction Item Trigger","time":"2017-02-13T18:55:12.071Z","v":0}
{"name":"Not Found","hostname":"apaco-Lenovo-G40-80","pid":17820,"level":30,"message":"User was not found","statusCode":404,"msg":"","time":"2017-02-13T18:55:12.568Z","v":0}
{"name":"Not Found","hostname":"apaco-Lenovo-G40-80","pid":17820,"level":30,"message":"User was not found","statusCode":404,"msg":"","time":"2017-02-13T18:55:12.687Z","v":0}
{"name":"Not Found","hostname":"apaco-Lenovo-G40-80","pid":17820,"level":30,"message":"Sender was not found","statusCode":404,"msg":"","time":"2017-02-13T18:55:12.854Z","v":0}
{"name":"sails","hostname":"apaco-Lenovo-G40-80","pid":18024,"level":30,"msg":"Bootstrap: Created admin@opp.com","time":"2017-02-13T18:59:57.976Z","v":0}
{"name":"sails","hostname":"apaco-Lenovo-G40-80","pid":18024,"level":30,"msg":"Bootstrap: Created test credit cards","time":"2017-02-13T18:59:58.032Z","v":0}
{"name":"sails","hostname":"apaco-Lenovo-G40-80","pid":18024,"level":30,"msg":"Bootstrap: Created Roles","time":"2017-02-13T18:59:58.043Z","v":0}
{"name":"sails","hostname":"apaco-Lenovo-G40-80","pid":18024,"level":30,"msg":"Bootstrap: Created Transaction Item Trigger","time":"2017-02-13T18:59:58.087Z","v":0}
{"name":"Not Found","hostname":"apaco-Lenovo-G40-80","pid":18024,"level":30,"message":"User was not found","statusCode":404,"msg":"","time":"2017-02-13T18:59:58.564Z","v":0}
{"name":"Not Found","hostname":"apaco-Lenovo-G40-80","pid":18024,"level":30,"message":"User was not found","statusCode":404,"msg":"","time":"2017-02-13T18:59:58.681Z","v":0}
{"name":"sails","hostname":"apaco-Lenovo-G40-80","pid":18024,"level":50,"err":{"message":"invalid input value for enum enum_transactionopp_type: \"transaction\"","name":"SequelizeDatabaseError","stack":"SequelizeBaseError: invalid input value for enum enum_transactionopp_type: \"transaction\"\n    at Query.formatError (/home/apaco/Projects/open-payment-platform-v2/node_modules/sequelize/lib/dialects/postgres/query.js:357:14)\n    at Query.<anonymous> (/home/apaco/Projects/open-payment-platform-v2/node_modules/sequelize/lib/dialects/postgres/query.js:88:19)\n    at emitOne (events.js:96:13)\n    at Query.emit (events.js:188:7)\n    at Query.handleError (/home/apaco/Projects/open-payment-platform-v2/node_modules/pg/lib/query.js:131:8)\n    at Connection.<anonymous> (/home/apaco/Projects/open-payment-platform-v2/node_modules/pg/lib/client.js:180:26)\n    at emitOne (events.js:96:13)\n    at Connection.emit (events.js:188:7)\n    at Socket.<anonymous> (/home/apaco/Projects/open-payment-platform-v2/node_modules/pg/lib/connection.js:121:12)\n    at emitOne (events.js:96:13)\n    at Socket.emit (events.js:188:7)\n    at readableAddChunk (_stream_readable.js:176:18)\n    at Socket.Readable.push (_stream_readable.js:134:10)\n    at TCP.onread [as _originalOnread] (net.js:551:20)\n    at TCP.onread (/home/apaco/Projects/open-payment-platform-v2/node_modules/async-listener/glue.js:188:31)"},"msg":"invalid input value for enum enum_transactionopp_type: \"transaction\"","time":"2017-02-13T18:59:58.747Z","v":0}
{"name":"Not Found","hostname":"apaco-Lenovo-G40-80","pid":18024,"level":30,"message":"Sender was not found","statusCode":404,"msg":"","time":"2017-02-13T18:59:58.862Z","v":0}
{"name":"sails","hostname":"apaco-Lenovo-G40-80","pid":18158,"level":30,"msg":"Bootstrap: Created admin@opp.com","time":"2017-02-13T19:01:49.252Z","v":0}
{"name":"sails","hostname":"apaco-Lenovo-G40-80","pid":18158,"level":30,"msg":"Bootstrap: Created test credit cards","time":"2017-02-13T19:01:49.307Z","v":0}
{"name":"sails","hostname":"apaco-Lenovo-G40-80","pid":18158,"level":30,"msg":"Bootstrap: Created Roles","time":"2017-02-13T19:01:49.319Z","v":0}
{"name":"sails","hostname":"apaco-Lenovo-G40-80","pid":18158,"level":30,"msg":"Bootstrap: Created Transaction Item Trigger","time":"2017-02-13T19:01:49.363Z","v":0}
{"name":"Not Found","hostname":"apaco-Lenovo-G40-80","pid":18158,"level":30,"message":"User was not found","statusCode":404,"msg":"","time":"2017-02-13T19:01:50.043Z","v":0}
{"name":"Not Found","hostname":"apaco-Lenovo-G40-80","pid":18158,"level":30,"message":"User was not found","statusCode":404,"msg":"","time":"2017-02-13T19:01:50.202Z","v":0}
{"name":"sails","hostname":"apaco-Lenovo-G40-80","pid":18158,"level":50,"err":{"message":"invalid input value for enum enum_transactionopp_type: \"transaction\"","name":"SequelizeDatabaseError","stack":"SequelizeBaseError: invalid input value for enum enum_transactionopp_type: \"transaction\"\n    at Query.formatError (/home/apaco/Projects/open-payment-platform-v2/node_modules/sequelize/lib/dialects/postgres/query.js:357:14)\n    at Query.<anonymous> (/home/apaco/Projects/open-payment-platform-v2/node_modules/sequelize/lib/dialects/postgres/query.js:88:19)\n    at emitOne (events.js:96:13)\n    at Query.emit (events.js:188:7)\n    at Query.handleError (/home/apaco/Projects/open-payment-platform-v2/node_modules/pg/lib/query.js:131:8)\n    at Connection.<anonymous> (/home/apaco/Projects/open-payment-platform-v2/node_modules/pg/lib/client.js:180:26)\n    at emitOne (events.js:96:13)\n    at Connection.emit (events.js:188:7)\n    at Socket.<anonymous> (/home/apaco/Projects/open-payment-platform-v2/node_modules/pg/lib/connection.js:121:12)\n    at emitOne (events.js:96:13)\n    at Socket.emit (events.js:188:7)\n    at readableAddChunk (_stream_readable.js:176:18)\n    at Socket.Readable.push (_stream_readable.js:134:10)\n    at TCP.onread [as _originalOnread] (net.js:551:20)\n    at TCP.onread (/home/apaco/Projects/open-payment-platform-v2/node_modules/async-listener/glue.js:188:31)"},"msg":"invalid input value for enum enum_transactionopp_type: \"transaction\"","time":"2017-02-13T19:01:50.269Z","v":0}
{"name":"Not Found","hostname":"apaco-Lenovo-G40-80","pid":18158,"level":30,"message":"Sender was not found","statusCode":404,"msg":"","time":"2017-02-13T19:01:50.355Z","v":0}
{"name":"sails","hostname":"apaco-Lenovo-G40-80","pid":18304,"level":30,"msg":"Bootstrap: Created admin@opp.com","time":"2017-02-13T19:04:05.669Z","v":0}
{"name":"sails","hostname":"apaco-Lenovo-G40-80","pid":18304,"level":30,"msg":"Bootstrap: Created test credit cards","time":"2017-02-13T19:04:05.725Z","v":0}
{"name":"sails","hostname":"apaco-Lenovo-G40-80","pid":18304,"level":30,"msg":"Bootstrap: Created Roles","time":"2017-02-13T19:04:05.735Z","v":0}
{"name":"sails","hostname":"apaco-Lenovo-G40-80","pid":18304,"level":30,"msg":"Bootstrap: Created Transaction Item Trigger","time":"2017-02-13T19:04:05.768Z","v":0}
{"name":"Not Found","hostname":"apaco-Lenovo-G40-80","pid":18304,"level":30,"message":"User was not found","statusCode":404,"msg":"","time":"2017-02-13T19:04:06.244Z","v":0}
{"name":"Not Found","hostname":"apaco-Lenovo-G40-80","pid":18304,"level":30,"message":"User was not found","statusCode":404,"msg":"","time":"2017-02-13T19:04:06.355Z","v":0}
{"name":"sails","hostname":"apaco-Lenovo-G40-80","pid":18304,"level":50,"err":{"message":"invalid input value for enum enum_transactionopp_type: \"transaction\"","name":"SequelizeDatabaseError","stack":"SequelizeBaseError: invalid input value for enum enum_transactionopp_type: \"transaction\"\n    at Query.formatError (/home/apaco/Projects/open-payment-platform-v2/node_modules/sequelize/lib/dialects/postgres/query.js:357:14)\n    at Query.<anonymous> (/home/apaco/Projects/open-payment-platform-v2/node_modules/sequelize/lib/dialects/postgres/query.js:88:19)\n    at emitOne (events.js:96:13)\n    at Query.emit (events.js:188:7)\n    at Query.handleError (/home/apaco/Projects/open-payment-platform-v2/node_modules/pg/lib/query.js:131:8)\n    at Connection.<anonymous> (/home/apaco/Projects/open-payment-platform-v2/node_modules/pg/lib/client.js:180:26)\n    at emitOne (events.js:96:13)\n    at Connection.emit (events.js:188:7)\n    at Socket.<anonymous> (/home/apaco/Projects/open-payment-platform-v2/node_modules/pg/lib/connection.js:121:12)\n    at emitOne (events.js:96:13)\n    at Socket.emit (events.js:188:7)\n    at readableAddChunk (_stream_readable.js:176:18)\n    at Socket.Readable.push (_stream_readable.js:134:10)\n    at TCP.onread [as _originalOnread] (net.js:551:20)\n    at TCP.onread (/home/apaco/Projects/open-payment-platform-v2/node_modules/async-listener/glue.js:188:31)"},"msg":"invalid input value for enum enum_transactionopp_type: \"transaction\"","time":"2017-02-13T19:04:06.405Z","v":0}
{"name":"Not Found","hostname":"apaco-Lenovo-G40-80","pid":18304,"level":30,"message":"Sender was not found","statusCode":404,"msg":"","time":"2017-02-13T19:04:06.490Z","v":0}
{"name":"sails","hostname":"apaco-Lenovo-G40-80","pid":18935,"level":30,"msg":"Bootstrap: Created admin@opp.com","time":"2017-02-13T19:09:53.622Z","v":0}
{"name":"sails","hostname":"apaco-Lenovo-G40-80","pid":18935,"level":30,"msg":"Bootstrap: Created test credit cards","time":"2017-02-13T19:09:53.678Z","v":0}
{"name":"sails","hostname":"apaco-Lenovo-G40-80","pid":18935,"level":30,"msg":"Bootstrap: Created Roles","time":"2017-02-13T19:09:53.688Z","v":0}
{"name":"sails","hostname":"apaco-Lenovo-G40-80","pid":18935,"level":30,"msg":"Bootstrap: Created Transaction Item Trigger","time":"2017-02-13T19:09:53.722Z","v":0}
{"name":"Not Found","hostname":"apaco-Lenovo-G40-80","pid":18935,"level":30,"message":"User was not found","statusCode":404,"msg":"","time":"2017-02-13T19:09:54.280Z","v":0}
{"name":"Not Found","hostname":"apaco-Lenovo-G40-80","pid":18935,"level":30,"message":"User was not found","statusCode":404,"msg":"","time":"2017-02-13T19:09:54.394Z","v":0}
{"name":"sails","hostname":"apaco-Lenovo-G40-80","pid":19012,"level":30,"msg":"Bootstrap: Created admin@opp.com","time":"2017-02-13T19:10:28.775Z","v":0}
{"name":"sails","hostname":"apaco-Lenovo-G40-80","pid":19012,"level":30,"msg":"Bootstrap: Created test credit cards","time":"2017-02-13T19:10:28.831Z","v":0}
{"name":"sails","hostname":"apaco-Lenovo-G40-80","pid":19012,"level":30,"msg":"Bootstrap: Created Roles","time":"2017-02-13T19:10:28.841Z","v":0}
{"name":"sails","hostname":"apaco-Lenovo-G40-80","pid":19012,"level":30,"msg":"Bootstrap: Created Transaction Item Trigger","time":"2017-02-13T19:10:28.874Z","v":0}
{"name":"Not Found","hostname":"apaco-Lenovo-G40-80","pid":19012,"level":30,"message":"User was not found","statusCode":404,"msg":"","time":"2017-02-13T19:10:29.334Z","v":0}
{"name":"Not Found","hostname":"apaco-Lenovo-G40-80","pid":19012,"level":30,"message":"User was not found","statusCode":404,"msg":"","time":"2017-02-13T19:10:29.456Z","v":0}
{"name":"sails","hostname":"apaco-Lenovo-G40-80","pid":19100,"level":30,"msg":"Bootstrap: Created admin@opp.com","time":"2017-02-13T19:10:49.749Z","v":0}
{"name":"sails","hostname":"apaco-Lenovo-G40-80","pid":19100,"level":30,"msg":"Bootstrap: Created test credit cards","time":"2017-02-13T19:10:49.805Z","v":0}
{"name":"sails","hostname":"apaco-Lenovo-G40-80","pid":19100,"level":30,"msg":"Bootstrap: Created Roles","time":"2017-02-13T19:10:49.815Z","v":0}
{"name":"sails","hostname":"apaco-Lenovo-G40-80","pid":19100,"level":30,"msg":"Bootstrap: Created Transaction Item Trigger","time":"2017-02-13T19:10:49.860Z","v":0}
{"name":"Not Found","hostname":"apaco-Lenovo-G40-80","pid":19100,"level":30,"message":"User was not found","statusCode":404,"msg":"","time":"2017-02-13T19:10:50.298Z","v":0}
{"name":"Not Found","hostname":"apaco-Lenovo-G40-80","pid":19100,"level":30,"message":"User was not found","statusCode":404,"msg":"","time":"2017-02-13T19:10:50.387Z","v":0}
{"name":"sails","hostname":"apaco-Lenovo-G40-80","pid":19184,"level":30,"msg":"Bootstrap: Created admin@opp.com","time":"2017-02-13T19:11:41.397Z","v":0}
{"name":"sails","hostname":"apaco-Lenovo-G40-80","pid":19184,"level":30,"msg":"Bootstrap: Created test credit cards","time":"2017-02-13T19:11:41.453Z","v":0}
{"name":"sails","hostname":"apaco-Lenovo-G40-80","pid":19184,"level":30,"msg":"Bootstrap: Created Roles","time":"2017-02-13T19:11:41.464Z","v":0}
{"name":"sails","hostname":"apaco-Lenovo-G40-80","pid":19184,"level":30,"msg":"Bootstrap: Created Transaction Item Trigger","time":"2017-02-13T19:11:41.496Z","v":0}
{"name":"Not Found","hostname":"apaco-Lenovo-G40-80","pid":19184,"level":30,"message":"User was not found","statusCode":404,"msg":"","time":"2017-02-13T19:11:41.932Z","v":0}
{"name":"Not Found","hostname":"apaco-Lenovo-G40-80","pid":19184,"level":30,"message":"User was not found","statusCode":404,"msg":"","time":"2017-02-13T19:11:42.021Z","v":0}
{"name":"sails","hostname":"apaco-Lenovo-G40-80","pid":19384,"level":30,"msg":"Bootstrap: Created admin@opp.com","time":"2017-02-13T19:14:27.001Z","v":0}
{"name":"sails","hostname":"apaco-Lenovo-G40-80","pid":19384,"level":30,"msg":"Bootstrap: Created test credit cards","time":"2017-02-13T19:14:27.057Z","v":0}
{"name":"sails","hostname":"apaco-Lenovo-G40-80","pid":19384,"level":30,"msg":"Bootstrap: Created Roles","time":"2017-02-13T19:14:27.067Z","v":0}
{"name":"sails","hostname":"apaco-Lenovo-G40-80","pid":19384,"level":30,"msg":"Bootstrap: Created Transaction Item Trigger","time":"2017-02-13T19:14:27.100Z","v":0}
{"name":"Not Found","hostname":"apaco-Lenovo-G40-80","pid":19384,"level":30,"message":"User was not found","statusCode":404,"msg":"","time":"2017-02-13T19:14:27.546Z","v":0}
{"name":"Not Found","hostname":"apaco-Lenovo-G40-80","pid":19384,"level":30,"message":"User was not found","statusCode":404,"msg":"","time":"2017-02-13T19:14:27.638Z","v":0}
{"name":"sails","hostname":"apaco-Lenovo-G40-80","pid":19560,"level":30,"msg":"Bootstrap: Created admin@opp.com","time":"2017-02-13T19:18:41.673Z","v":0}
{"name":"sails","hostname":"apaco-Lenovo-G40-80","pid":19560,"level":30,"msg":"Bootstrap: Created test credit cards","time":"2017-02-13T19:18:41.729Z","v":0}
{"name":"sails","hostname":"apaco-Lenovo-G40-80","pid":19560,"level":30,"msg":"Bootstrap: Created Roles","time":"2017-02-13T19:18:41.741Z","v":0}
{"name":"sails","hostname":"apaco-Lenovo-G40-80","pid":19560,"level":30,"msg":"Bootstrap: Created Transaction Item Trigger","time":"2017-02-13T19:18:41.784Z","v":0}
{"name":"Not Found","hostname":"apaco-Lenovo-G40-80","pid":19560,"level":30,"message":"User was not found","statusCode":404,"msg":"","time":"2017-02-13T19:18:42.322Z","v":0}
{"name":"Not Found","hostname":"apaco-Lenovo-G40-80","pid":19560,"level":30,"message":"User was not found","statusCode":404,"msg":"","time":"2017-02-13T19:18:42.479Z","v":0}
{"name":"sails","hostname":"apaco-Lenovo-G40-80","pid":19693,"level":30,"msg":"Bootstrap: Created admin@opp.com","time":"2017-02-13T19:20:02.324Z","v":0}
{"name":"sails","hostname":"apaco-Lenovo-G40-80","pid":19693,"level":30,"msg":"Bootstrap: Created test credit cards","time":"2017-02-13T19:20:02.380Z","v":0}
{"name":"sails","hostname":"apaco-Lenovo-G40-80","pid":19693,"level":30,"msg":"Bootstrap: Created Roles","time":"2017-02-13T19:20:02.390Z","v":0}
{"name":"sails","hostname":"apaco-Lenovo-G40-80","pid":19693,"level":30,"msg":"Bootstrap: Created Transaction Item Trigger","time":"2017-02-13T19:20:02.434Z","v":0}
{"name":"Not Found","hostname":"apaco-Lenovo-G40-80","pid":19693,"level":30,"message":"User was not found","statusCode":404,"msg":"","time":"2017-02-13T19:20:02.876Z","v":0}
{"name":"Not Found","hostname":"apaco-Lenovo-G40-80","pid":19693,"level":30,"message":"User was not found","statusCode":404,"msg":"","time":"2017-02-13T19:20:02.963Z","v":0}
{"name":"sails","hostname":"apaco-Lenovo-G40-80","pid":20092,"level":30,"msg":"Bootstrap: Created admin@opp.com","time":"2017-02-13T19:26:09.836Z","v":0}
{"name":"sails","hostname":"apaco-Lenovo-G40-80","pid":20092,"level":30,"msg":"Bootstrap: Created test credit cards","time":"2017-02-13T19:26:09.891Z","v":0}
{"name":"sails","hostname":"apaco-Lenovo-G40-80","pid":20092,"level":30,"msg":"Bootstrap: Created Roles","time":"2017-02-13T19:26:09.904Z","v":0}
{"name":"sails","hostname":"apaco-Lenovo-G40-80","pid":20092,"level":30,"msg":"Bootstrap: Created Transaction Item Trigger","time":"2017-02-13T19:26:09.935Z","v":0}
{"name":"Not Found","hostname":"apaco-Lenovo-G40-80","pid":20092,"level":30,"message":"User was not found","statusCode":404,"msg":"","time":"2017-02-13T19:26:10.440Z","v":0}
{"name":"Not Found","hostname":"apaco-Lenovo-G40-80","pid":20092,"level":30,"message":"User was not found","statusCode":404,"msg":"","time":"2017-02-13T19:26:10.559Z","v":0}
{"name":"sails","hostname":"apaco-Lenovo-G40-80","pid":20295,"level":30,"msg":"Bootstrap: Created admin@opp.com","time":"2017-02-13T19:27:54.680Z","v":0}
{"name":"sails","hostname":"apaco-Lenovo-G40-80","pid":20295,"level":30,"msg":"Bootstrap: Created test credit cards","time":"2017-02-13T19:27:54.735Z","v":0}
{"name":"sails","hostname":"apaco-Lenovo-G40-80","pid":20295,"level":30,"msg":"Bootstrap: Created Roles","time":"2017-02-13T19:27:54.746Z","v":0}
{"name":"sails","hostname":"apaco-Lenovo-G40-80","pid":20295,"level":30,"msg":"Bootstrap: Created Transaction Item Trigger","time":"2017-02-13T19:27:54.790Z","v":0}
{"name":"Not Found","hostname":"apaco-Lenovo-G40-80","pid":20295,"level":30,"message":"User was not found","statusCode":404,"msg":"","time":"2017-02-13T19:27:55.227Z","v":0}
{"name":"Not Found","hostname":"apaco-Lenovo-G40-80","pid":20295,"level":30,"message":"User was not found","statusCode":404,"msg":"","time":"2017-02-13T19:27:55.315Z","v":0}
{"name":"sails","hostname":"apaco-Lenovo-G40-80","pid":20397,"level":30,"msg":"Bootstrap: Created admin@opp.com","time":"2017-02-13T19:28:59.515Z","v":0}
{"name":"sails","hostname":"apaco-Lenovo-G40-80","pid":20397,"level":30,"msg":"Bootstrap: Created test credit cards","time":"2017-02-13T19:28:59.571Z","v":0}
{"name":"sails","hostname":"apaco-Lenovo-G40-80","pid":20397,"level":30,"msg":"Bootstrap: Created Roles","time":"2017-02-13T19:28:59.581Z","v":0}
{"name":"sails","hostname":"apaco-Lenovo-G40-80","pid":20397,"level":30,"msg":"Bootstrap: Created Transaction Item Trigger","time":"2017-02-13T19:28:59.615Z","v":0}
{"name":"Not Found","hostname":"apaco-Lenovo-G40-80","pid":20397,"level":30,"message":"User was not found","statusCode":404,"msg":"","time":"2017-02-13T19:29:00.056Z","v":0}
{"name":"Not Found","hostname":"apaco-Lenovo-G40-80","pid":20397,"level":30,"message":"User was not found","statusCode":404,"msg":"","time":"2017-02-13T19:29:00.143Z","v":0}
{"name":"sails","hostname":"apaco-Lenovo-G40-80","pid":20641,"level":30,"msg":"Bootstrap: Created admin@opp.com","time":"2017-02-13T19:33:42.504Z","v":0}
{"name":"sails","hostname":"apaco-Lenovo-G40-80","pid":20641,"level":30,"msg":"Bootstrap: Created test credit cards","time":"2017-02-13T19:33:42.571Z","v":0}
{"name":"sails","hostname":"apaco-Lenovo-G40-80","pid":20641,"level":30,"msg":"Bootstrap: Created Roles","time":"2017-02-13T19:33:42.581Z","v":0}
{"name":"sails","hostname":"apaco-Lenovo-G40-80","pid":20641,"level":30,"msg":"Bootstrap: Created Transaction Item Trigger","time":"2017-02-13T19:33:42.614Z","v":0}
{"name":"Not Found","hostname":"apaco-Lenovo-G40-80","pid":20641,"level":30,"message":"User was not found","statusCode":404,"msg":"","time":"2017-02-13T19:33:43.072Z","v":0}
{"name":"Not Found","hostname":"apaco-Lenovo-G40-80","pid":20641,"level":30,"message":"User was not found","statusCode":404,"msg":"","time":"2017-02-13T19:33:43.159Z","v":0}
{"name":"sails","hostname":"apaco-Lenovo-G40-80","pid":20735,"level":30,"msg":"Bootstrap: Created admin@opp.com","time":"2017-02-13T19:34:11.960Z","v":0}
{"name":"sails","hostname":"apaco-Lenovo-G40-80","pid":20735,"level":30,"msg":"Bootstrap: Created test credit cards","time":"2017-02-13T19:34:12.029Z","v":0}
{"name":"sails","hostname":"apaco-Lenovo-G40-80","pid":20735,"level":30,"msg":"Bootstrap: Created Roles","time":"2017-02-13T19:34:12.048Z","v":0}
{"name":"sails","hostname":"apaco-Lenovo-G40-80","pid":20735,"level":30,"msg":"Bootstrap: Created Transaction Item Trigger","time":"2017-02-13T19:34:12.080Z","v":0}
{"name":"Not Found","hostname":"apaco-Lenovo-G40-80","pid":20735,"level":30,"message":"User was not found","statusCode":404,"msg":"","time":"2017-02-13T19:34:12.732Z","v":0}
{"name":"Not Found","hostname":"apaco-Lenovo-G40-80","pid":20735,"level":30,"message":"User was not found","statusCode":404,"msg":"","time":"2017-02-13T19:34:12.914Z","v":0}
{"name":"sails","hostname":"apaco-Lenovo-G40-80","pid":20908,"level":30,"msg":"Bootstrap: Created admin@opp.com","time":"2017-02-13T19:36:42.813Z","v":0}
{"name":"sails","hostname":"apaco-Lenovo-G40-80","pid":20908,"level":30,"msg":"Bootstrap: Created test credit cards","time":"2017-02-13T19:36:42.869Z","v":0}
{"name":"sails","hostname":"apaco-Lenovo-G40-80","pid":20908,"level":30,"msg":"Bootstrap: Created Roles","time":"2017-02-13T19:36:42.879Z","v":0}
{"name":"sails","hostname":"apaco-Lenovo-G40-80","pid":20908,"level":30,"msg":"Bootstrap: Created Transaction Item Trigger","time":"2017-02-13T19:36:42.913Z","v":0}
{"name":"Not Found","hostname":"apaco-Lenovo-G40-80","pid":20908,"level":30,"message":"User was not found","statusCode":404,"msg":"","time":"2017-02-13T19:36:43.362Z","v":0}
{"name":"Not Found","hostname":"apaco-Lenovo-G40-80","pid":20908,"level":30,"message":"User was not found","statusCode":404,"msg":"","time":"2017-02-13T19:36:43.446Z","v":0}
{"name":"sails","hostname":"apaco-Lenovo-G40-80","pid":21539,"level":30,"msg":"Bootstrap: Created admin@opp.com","time":"2017-02-13T19:48:34.552Z","v":0}
{"name":"sails","hostname":"apaco-Lenovo-G40-80","pid":21539,"level":30,"msg":"Bootstrap: Created test credit cards","time":"2017-02-13T19:48:34.607Z","v":0}
{"name":"sails","hostname":"apaco-Lenovo-G40-80","pid":21539,"level":30,"msg":"Bootstrap: Created Roles","time":"2017-02-13T19:48:34.618Z","v":0}
{"name":"sails","hostname":"apaco-Lenovo-G40-80","pid":21539,"level":30,"msg":"Bootstrap: Created Transaction Item Trigger","time":"2017-02-13T19:48:34.652Z","v":0}
{"name":"Not Found","hostname":"apaco-Lenovo-G40-80","pid":21539,"level":30,"message":"User was not found","statusCode":404,"msg":"","time":"2017-02-13T19:48:35.105Z","v":0}
{"name":"Not Found","hostname":"apaco-Lenovo-G40-80","pid":21539,"level":30,"message":"User was not found","statusCode":404,"msg":"","time":"2017-02-13T19:48:35.183Z","v":0}
{"name":"sails","hostname":"apaco-Lenovo-G40-80","pid":21539,"level":50,"msg":"Sending 500 (\"Server Error\") response: \n TypeError: Cannot read property 'push' of undefined\n    at Object.payment (/home/apaco/Projects/open-payment-platform-v2/api/controllers/OppPaymentController.js:20:36)\n    at wrapper (/home/apaco/Projects/open-payment-platform-v2/node_modules/@sailshq/lodash/lib/index.js:3250:19)\n    at routeTargetFnWrapper (/home/apaco/Projects/open-payment-platform-v2/node_modules/sails/lib/router/bind.js:181:5)\n    at callbacks (/home/apaco/Projects/open-payment-platform-v2/node_modules/sails/node_modules/express/lib/router/index.js:164:37)\n    at param (/home/apaco/Projects/open-payment-platform-v2/node_modules/sails/node_modules/express/lib/router/index.js:138:11)\n    at pass (/home/apaco/Projects/open-payment-platform-v2/node_modules/sails/node_modules/express/lib/router/index.js:145:5)\n    at nextRoute (/home/apaco/Projects/open-payment-platform-v2/node_modules/sails/node_modules/express/lib/router/index.js:100:7)\n    at callbacks (/home/apaco/Projects/open-payment-platform-v2/node_modules/sails/node_modules/express/lib/router/index.js:167:11)\n    at Model.<anonymous> (/home/apaco/Projects/open-payment-platform-v2/api/policies/isauthorized.js:45:17)\n    at Model.<anonymous> (/home/apaco/Projects/open-payment-platform-v2/node_modules/continuation-local-storage/context.js:84:17)\n    at Model.tryCatcher (/home/apaco/Projects/open-payment-platform-v2/node_modules/bluebird/js/release/util.js:16:23)\n    at Promise._settlePromiseFromHandler (/home/apaco/Projects/open-payment-platform-v2/node_modules/bluebird/js/release/promise.js:510:31)\n    at Promise._settlePromise (/home/apaco/Projects/open-payment-platform-v2/node_modules/bluebird/js/release/promise.js:567:18)\n    at Promise._settlePromise0 (/home/apaco/Projects/open-payment-platform-v2/node_modules/bluebird/js/release/promise.js:612:10)\n    at Promise._settlePromises (/home/apaco/Projects/open-payment-platform-v2/node_modules/bluebird/js/release/promise.js:691:18)\n    at Async._drainQueue (/home/apaco/Projects/open-payment-platform-v2/node_modules/bluebird/js/release/async.js:133:16)\n    at Async._drainQueues (/home/apaco/Projects/open-payment-platform-v2/node_modules/bluebird/js/release/async.js:143:10)\n    at Immediate.Async.drainQueues (/home/apaco/Projects/open-payment-platform-v2/node_modules/bluebird/js/release/async.js:17:14)\n    at runCallback (timers.js:651:20)\n    at tryOnImmediate (timers.js:624:5)\n    at processImmediate [as _immediateCallback] (timers.js:596:5)","time":"2017-02-13T19:48:35.525Z","v":0}
{"name":"sails","hostname":"apaco-Lenovo-G40-80","pid":21539,"level":50,"msg":"Sending 500 (\"Server Error\") response: \n TypeError: Cannot read property 'push' of undefined\n    at Object.payment (/home/apaco/Projects/open-payment-platform-v2/api/controllers/OppPaymentController.js:20:36)\n    at wrapper (/home/apaco/Projects/open-payment-platform-v2/node_modules/@sailshq/lodash/lib/index.js:3250:19)\n    at routeTargetFnWrapper (/home/apaco/Projects/open-payment-platform-v2/node_modules/sails/lib/router/bind.js:181:5)\n    at callbacks (/home/apaco/Projects/open-payment-platform-v2/node_modules/sails/node_modules/express/lib/router/index.js:164:37)\n    at param (/home/apaco/Projects/open-payment-platform-v2/node_modules/sails/node_modules/express/lib/router/index.js:138:11)\n    at pass (/home/apaco/Projects/open-payment-platform-v2/node_modules/sails/node_modules/express/lib/router/index.js:145:5)\n    at nextRoute (/home/apaco/Projects/open-payment-platform-v2/node_modules/sails/node_modules/express/lib/router/index.js:100:7)\n    at callbacks (/home/apaco/Projects/open-payment-platform-v2/node_modules/sails/node_modules/express/lib/router/index.js:167:11)\n    at Model.<anonymous> (/home/apaco/Projects/open-payment-platform-v2/api/policies/isauthorized.js:45:17)\n    at Model.<anonymous> (/home/apaco/Projects/open-payment-platform-v2/node_modules/continuation-local-storage/context.js:84:17)\n    at Model.tryCatcher (/home/apaco/Projects/open-payment-platform-v2/node_modules/bluebird/js/release/util.js:16:23)\n    at Promise._settlePromiseFromHandler (/home/apaco/Projects/open-payment-platform-v2/node_modules/bluebird/js/release/promise.js:510:31)\n    at Promise._settlePromise (/home/apaco/Projects/open-payment-platform-v2/node_modules/bluebird/js/release/promise.js:567:18)\n    at Promise._settlePromise0 (/home/apaco/Projects/open-payment-platform-v2/node_modules/bluebird/js/release/promise.js:612:10)\n    at Promise._settlePromises (/home/apaco/Projects/open-payment-platform-v2/node_modules/bluebird/js/release/promise.js:691:18)\n    at Async._drainQueue (/home/apaco/Projects/open-payment-platform-v2/node_modules/bluebird/js/release/async.js:133:16)\n    at Async._drainQueues (/home/apaco/Projects/open-payment-platform-v2/node_modules/bluebird/js/release/async.js:143:10)\n    at Immediate.Async.drainQueues (/home/apaco/Projects/open-payment-platform-v2/node_modules/bluebird/js/release/async.js:17:14)\n    at runCallback (timers.js:651:20)\n    at tryOnImmediate (timers.js:624:5)\n    at processImmediate [as _immediateCallback] (timers.js:596:5)","time":"2017-02-13T19:48:35.602Z","v":0}
{"name":"sails","hostname":"apaco-Lenovo-G40-80","pid":21629,"level":30,"msg":"Bootstrap: Created admin@opp.com","time":"2017-02-13T19:49:20.073Z","v":0}
{"name":"sails","hostname":"apaco-Lenovo-G40-80","pid":21629,"level":30,"msg":"Bootstrap: Created test credit cards","time":"2017-02-13T19:49:20.128Z","v":0}
{"name":"sails","hostname":"apaco-Lenovo-G40-80","pid":21629,"level":30,"msg":"Bootstrap: Created Roles","time":"2017-02-13T19:49:20.139Z","v":0}
{"name":"sails","hostname":"apaco-Lenovo-G40-80","pid":21629,"level":30,"msg":"Bootstrap: Created Transaction Item Trigger","time":"2017-02-13T19:49:20.172Z","v":0}
{"name":"Not Found","hostname":"apaco-Lenovo-G40-80","pid":21629,"level":30,"message":"User was not found","statusCode":404,"msg":"","time":"2017-02-13T19:49:20.636Z","v":0}
{"name":"Not Found","hostname":"apaco-Lenovo-G40-80","pid":21629,"level":30,"message":"User was not found","statusCode":404,"msg":"","time":"2017-02-13T19:49:20.721Z","v":0}
{"name":"sails","hostname":"apaco-Lenovo-G40-80","pid":21629,"level":50,"msg":"Sending 500 (\"Server Error\") response: \n { ServiceUnavailableError: Response timeout\n    at IncomingMessage.<anonymous> (/home/apaco/Projects/open-payment-platform-v2/node_modules/connect-timeout/index.js:75:8)\n    at emitOne (events.js:96:13)\n    at IncomingMessage.emit (events.js:188:7)\n    at Timeout.<anonymous> (/home/apaco/Projects/open-payment-platform-v2/node_modules/connect-timeout/index.js:48:11)\n    at Timeout._onTimeout (/home/apaco/Projects/open-payment-platform-v2/node_modules/async-listener/glue.js:188:31)\n    at ontimeout (timers.js:365:14)\n    at tryOnTimeout (timers.js:237:5)\n    at Timer.listOnTimeout (timers.js:207:5) code: 'ETIMEDOUT', timeout: 71000 }","time":"2017-02-13T19:50:31.878Z","v":0}
{"name":"sails","hostname":"apaco-Lenovo-G40-80","pid":21837,"level":30,"msg":"Bootstrap: Created admin@opp.com","time":"2017-02-13T19:51:37.319Z","v":0}
{"name":"sails","hostname":"apaco-Lenovo-G40-80","pid":21837,"level":30,"msg":"Bootstrap: Created test credit cards","time":"2017-02-13T19:51:37.385Z","v":0}
{"name":"sails","hostname":"apaco-Lenovo-G40-80","pid":21837,"level":30,"msg":"Bootstrap: Created Roles","time":"2017-02-13T19:51:37.396Z","v":0}
{"name":"sails","hostname":"apaco-Lenovo-G40-80","pid":21837,"level":30,"msg":"Bootstrap: Created Transaction Item Trigger","time":"2017-02-13T19:51:37.429Z","v":0}
{"name":"Not Found","hostname":"apaco-Lenovo-G40-80","pid":21837,"level":30,"message":"User was not found","statusCode":404,"msg":"","time":"2017-02-13T19:51:37.866Z","v":0}
{"name":"Not Found","hostname":"apaco-Lenovo-G40-80","pid":21837,"level":30,"message":"User was not found","statusCode":404,"msg":"","time":"2017-02-13T19:51:37.951Z","v":0}
{"name":"sails","hostname":"apaco-Lenovo-G40-80","pid":21890,"level":30,"msg":"Bootstrap: Created admin@opp.com","time":"2017-02-13T19:51:59.995Z","v":0}
{"name":"sails","hostname":"apaco-Lenovo-G40-80","pid":21890,"level":30,"msg":"Bootstrap: Created test credit cards","time":"2017-02-13T19:52:00.066Z","v":0}
{"name":"sails","hostname":"apaco-Lenovo-G40-80","pid":21890,"level":30,"msg":"Bootstrap: Created Roles","time":"2017-02-13T19:52:00.077Z","v":0}
{"name":"sails","hostname":"apaco-Lenovo-G40-80","pid":21890,"level":30,"msg":"Bootstrap: Created Transaction Item Trigger","time":"2017-02-13T19:52:00.110Z","v":0}
{"name":"Not Found","hostname":"apaco-Lenovo-G40-80","pid":21890,"level":30,"message":"User was not found","statusCode":404,"msg":"","time":"2017-02-13T19:52:00.547Z","v":0}
{"name":"Not Found","hostname":"apaco-Lenovo-G40-80","pid":21890,"level":30,"message":"User was not found","statusCode":404,"msg":"","time":"2017-02-13T19:52:00.643Z","v":0}
{"name":"sails","hostname":"apaco-Lenovo-G40-80","pid":22091,"level":30,"msg":"Bootstrap: Created admin@opp.com","time":"2017-02-13T19:55:17.191Z","v":0}
{"name":"sails","hostname":"apaco-Lenovo-G40-80","pid":22091,"level":30,"msg":"Bootstrap: Created test credit cards","time":"2017-02-13T19:55:17.247Z","v":0}
{"name":"sails","hostname":"apaco-Lenovo-G40-80","pid":22091,"level":30,"msg":"Bootstrap: Created Roles","time":"2017-02-13T19:55:17.257Z","v":0}
{"name":"sails","hostname":"apaco-Lenovo-G40-80","pid":22091,"level":30,"msg":"Bootstrap: Created Transaction Item Trigger","time":"2017-02-13T19:55:17.291Z","v":0}
{"name":"Not Found","hostname":"apaco-Lenovo-G40-80","pid":22091,"level":30,"message":"User was not found","statusCode":404,"msg":"","time":"2017-02-13T19:55:17.737Z","v":0}
{"name":"Not Found","hostname":"apaco-Lenovo-G40-80","pid":22091,"level":30,"message":"User was not found","statusCode":404,"msg":"","time":"2017-02-13T19:55:17.825Z","v":0}
{"name":"sails","hostname":"apaco-Lenovo-G40-80","pid":22226,"level":30,"msg":"Bootstrap: Created admin@opp.com","time":"2017-02-13T19:57:21.562Z","v":0}
{"name":"sails","hostname":"apaco-Lenovo-G40-80","pid":22226,"level":30,"msg":"Bootstrap: Created test credit cards","time":"2017-02-13T19:57:21.628Z","v":0}
{"name":"sails","hostname":"apaco-Lenovo-G40-80","pid":22226,"level":30,"msg":"Bootstrap: Created Roles","time":"2017-02-13T19:57:21.639Z","v":0}
{"name":"sails","hostname":"apaco-Lenovo-G40-80","pid":22226,"level":30,"msg":"Bootstrap: Created Transaction Item Trigger","time":"2017-02-13T19:57:21.673Z","v":0}
{"name":"Not Found","hostname":"apaco-Lenovo-G40-80","pid":22226,"level":30,"message":"User was not found","statusCode":404,"msg":"","time":"2017-02-13T19:57:22.116Z","v":0}
{"name":"Not Found","hostname":"apaco-Lenovo-G40-80","pid":22226,"level":30,"message":"User was not found","statusCode":404,"msg":"","time":"2017-02-13T19:57:22.199Z","v":0}
{"name":"sails","hostname":"apaco-Lenovo-G40-80","pid":22682,"level":30,"msg":"Bootstrap: Created admin@opp.com","time":"2017-02-13T20:10:21.164Z","v":0}
{"name":"sails","hostname":"apaco-Lenovo-G40-80","pid":22682,"level":30,"msg":"Bootstrap: Created test credit cards","time":"2017-02-13T20:10:21.252Z","v":0}
{"name":"sails","hostname":"apaco-Lenovo-G40-80","pid":22682,"level":30,"msg":"Bootstrap: Created Roles","time":"2017-02-13T20:10:21.263Z","v":0}
{"name":"sails","hostname":"apaco-Lenovo-G40-80","pid":22682,"level":30,"msg":"Bootstrap: Created Transaction Item Trigger","time":"2017-02-13T20:10:21.308Z","v":0}
{"name":"Not Found","hostname":"apaco-Lenovo-G40-80","pid":22682,"level":30,"message":"User was not found","statusCode":404,"msg":"","time":"2017-02-13T20:10:22.017Z","v":0}
{"name":"Not Found","hostname":"apaco-Lenovo-G40-80","pid":22682,"level":30,"message":"User was not found","statusCode":404,"msg":"","time":"2017-02-13T20:10:22.096Z","v":0}
{"name":"sails","hostname":"apaco-Lenovo-G40-80","pid":22793,"level":30,"msg":"Bootstrap: Created admin@opp.com","time":"2017-02-13T20:12:14.874Z","v":0}
{"name":"sails","hostname":"apaco-Lenovo-G40-80","pid":22793,"level":30,"msg":"Bootstrap: Created test credit cards","time":"2017-02-13T20:12:14.929Z","v":0}
{"name":"sails","hostname":"apaco-Lenovo-G40-80","pid":22793,"level":30,"msg":"Bootstrap: Created Roles","time":"2017-02-13T20:12:14.940Z","v":0}
{"name":"sails","hostname":"apaco-Lenovo-G40-80","pid":22793,"level":30,"msg":"Bootstrap: Created Transaction Item Trigger","time":"2017-02-13T20:12:14.973Z","v":0}
{"name":"Not Found","hostname":"apaco-Lenovo-G40-80","pid":22793,"level":30,"message":"User was not found","statusCode":404,"msg":"","time":"2017-02-13T20:12:15.625Z","v":0}
{"name":"Not Found","hostname":"apaco-Lenovo-G40-80","pid":22793,"level":30,"message":"User was not found","statusCode":404,"msg":"","time":"2017-02-13T20:12:15.719Z","v":0}
{"name":"sails","hostname":"apaco-Lenovo-G40-80","pid":22994,"level":30,"msg":"Bootstrap: Created admin@opp.com","time":"2017-02-13T20:18:15.108Z","v":0}
{"name":"sails","hostname":"apaco-Lenovo-G40-80","pid":22994,"level":30,"msg":"Bootstrap: Created test credit cards","time":"2017-02-13T20:18:15.163Z","v":0}
{"name":"sails","hostname":"apaco-Lenovo-G40-80","pid":22994,"level":30,"msg":"Bootstrap: Created Roles","time":"2017-02-13T20:18:15.174Z","v":0}
{"name":"sails","hostname":"apaco-Lenovo-G40-80","pid":22994,"level":30,"msg":"Bootstrap: Created Transaction Item Trigger","time":"2017-02-13T20:18:15.207Z","v":0}
{"name":"Not Found","hostname":"apaco-Lenovo-G40-80","pid":22994,"level":30,"message":"User was not found","statusCode":404,"msg":"","time":"2017-02-13T20:18:15.859Z","v":0}
{"name":"Not Found","hostname":"apaco-Lenovo-G40-80","pid":22994,"level":30,"message":"User was not found","statusCode":404,"msg":"","time":"2017-02-13T20:18:15.933Z","v":0}
{"name":"sails","hostname":"apaco-Lenovo-G40-80","pid":23314,"level":30,"msg":"Bootstrap: Created admin@opp.com","time":"2017-02-13T20:25:19.162Z","v":0}
{"name":"sails","hostname":"apaco-Lenovo-G40-80","pid":23314,"level":30,"msg":"Bootstrap: Created test credit cards","time":"2017-02-13T20:25:19.217Z","v":0}
{"name":"sails","hostname":"apaco-Lenovo-G40-80","pid":23314,"level":30,"msg":"Bootstrap: Created Roles","time":"2017-02-13T20:25:19.228Z","v":0}
{"name":"sails","hostname":"apaco-Lenovo-G40-80","pid":23314,"level":30,"msg":"Bootstrap: Created Transaction Item Trigger","time":"2017-02-13T20:25:19.273Z","v":0}
{"name":"Not Found","hostname":"apaco-Lenovo-G40-80","pid":23314,"level":30,"message":"User was not found","statusCode":404,"msg":"","time":"2017-02-13T20:25:20.073Z","v":0}
{"name":"Not Found","hostname":"apaco-Lenovo-G40-80","pid":23314,"level":30,"message":"User was not found","statusCode":404,"msg":"","time":"2017-02-13T20:25:20.139Z","v":0}
{"name":"sails","hostname":"apaco-Lenovo-G40-80","pid":23425,"level":30,"msg":"Bootstrap: Created admin@opp.com","time":"2017-02-13T20:26:49.628Z","v":0}
{"name":"sails","hostname":"apaco-Lenovo-G40-80","pid":23425,"level":30,"msg":"Bootstrap: Created test credit cards","time":"2017-02-13T20:26:49.683Z","v":0}
{"name":"sails","hostname":"apaco-Lenovo-G40-80","pid":23425,"level":30,"msg":"Bootstrap: Created Roles","time":"2017-02-13T20:26:49.694Z","v":0}
{"name":"sails","hostname":"apaco-Lenovo-G40-80","pid":23425,"level":30,"msg":"Bootstrap: Created Transaction Item Trigger","time":"2017-02-13T20:26:49.727Z","v":0}
{"name":"Not Found","hostname":"apaco-Lenovo-G40-80","pid":23425,"level":30,"message":"User was not found","statusCode":404,"msg":"","time":"2017-02-13T20:26:50.373Z","v":0}
{"name":"Not Found","hostname":"apaco-Lenovo-G40-80","pid":23425,"level":30,"message":"User was not found","statusCode":404,"msg":"","time":"2017-02-13T20:26:50.455Z","v":0}
{"name":"sails","hostname":"apaco-Lenovo-G40-80","pid":24331,"level":30,"msg":"Bootstrap: Created admin@opp.com","time":"2017-02-13T20:47:27.831Z","v":0}
{"name":"sails","hostname":"apaco-Lenovo-G40-80","pid":24331,"level":30,"msg":"Bootstrap: Created test credit cards","time":"2017-02-13T20:47:27.901Z","v":0}
{"name":"sails","hostname":"apaco-Lenovo-G40-80","pid":24331,"level":30,"msg":"Bootstrap: Created Roles","time":"2017-02-13T20:47:27.911Z","v":0}
{"name":"sails","hostname":"apaco-Lenovo-G40-80","pid":24331,"level":30,"msg":"Bootstrap: Created Transaction Item Trigger","time":"2017-02-13T20:47:27.955Z","v":0}
{"name":"Not Found","hostname":"apaco-Lenovo-G40-80","pid":24331,"level":30,"message":"User was not found","statusCode":404,"msg":"","time":"2017-02-13T20:47:28.667Z","v":0}
{"name":"Not Found","hostname":"apaco-Lenovo-G40-80","pid":24331,"level":30,"message":"User was not found","statusCode":404,"msg":"","time":"2017-02-13T20:47:28.755Z","v":0}
{"name":"sails","hostname":"apaco-Lenovo-G40-80","pid":24441,"level":30,"msg":"Bootstrap: Created admin@opp.com","time":"2017-02-13T20:49:13.005Z","v":0}
{"name":"sails","hostname":"apaco-Lenovo-G40-80","pid":24441,"level":30,"msg":"Bootstrap: Created test credit cards","time":"2017-02-13T20:49:13.059Z","v":0}
{"name":"sails","hostname":"apaco-Lenovo-G40-80","pid":24441,"level":30,"msg":"Bootstrap: Created Roles","time":"2017-02-13T20:49:13.070Z","v":0}
{"name":"sails","hostname":"apaco-Lenovo-G40-80","pid":24441,"level":30,"msg":"Bootstrap: Created Transaction Item Trigger","time":"2017-02-13T20:49:13.114Z","v":0}
{"name":"Not Found","hostname":"apaco-Lenovo-G40-80","pid":24441,"level":30,"message":"User was not found","statusCode":404,"msg":"","time":"2017-02-13T20:49:13.799Z","v":0}
{"name":"Not Found","hostname":"apaco-Lenovo-G40-80","pid":24441,"level":30,"message":"User was not found","statusCode":404,"msg":"","time":"2017-02-13T20:49:13.927Z","v":0}
{"name":"sails","hostname":"apaco-Lenovo-G40-80","pid":24888,"level":30,"msg":"Bootstrap: Created admin@opp.com","time":"2017-02-13T20:56:44.689Z","v":0}
{"name":"sails","hostname":"apaco-Lenovo-G40-80","pid":24888,"level":30,"msg":"Bootstrap: Created test credit cards","time":"2017-02-13T20:56:44.756Z","v":0}
{"name":"sails","hostname":"apaco-Lenovo-G40-80","pid":24888,"level":30,"msg":"Bootstrap: Created Roles","time":"2017-02-13T20:56:44.767Z","v":0}
{"name":"sails","hostname":"apaco-Lenovo-G40-80","pid":24888,"level":30,"msg":"Bootstrap: Created Transaction Item Trigger","time":"2017-02-13T20:56:44.811Z","v":0}
{"name":"Not Found","hostname":"apaco-Lenovo-G40-80","pid":24888,"level":30,"message":"User was not found","statusCode":404,"msg":"","time":"2017-02-13T20:56:45.548Z","v":0}
{"name":"Not Found","hostname":"apaco-Lenovo-G40-80","pid":24888,"level":30,"message":"User was not found","statusCode":404,"msg":"","time":"2017-02-13T20:56:45.702Z","v":0}
{"name":"sails","hostname":"apaco-Lenovo-G40-80","pid":24983,"level":30,"msg":"Bootstrap: Created admin@opp.com","time":"2017-02-13T20:58:09.298Z","v":0}
{"name":"sails","hostname":"apaco-Lenovo-G40-80","pid":24983,"level":30,"msg":"Bootstrap: Created test credit cards","time":"2017-02-13T20:58:09.375Z","v":0}
{"name":"sails","hostname":"apaco-Lenovo-G40-80","pid":24983,"level":30,"msg":"Bootstrap: Created Roles","time":"2017-02-13T20:58:09.386Z","v":0}
{"name":"sails","hostname":"apaco-Lenovo-G40-80","pid":24983,"level":30,"msg":"Bootstrap: Created Transaction Item Trigger","time":"2017-02-13T20:58:09.419Z","v":0}
{"name":"Not Found","hostname":"apaco-Lenovo-G40-80","pid":24983,"level":30,"message":"User was not found","statusCode":404,"msg":"","time":"2017-02-13T20:58:10.218Z","v":0}
{"name":"Not Found","hostname":"apaco-Lenovo-G40-80","pid":24983,"level":30,"message":"User was not found","statusCode":404,"msg":"","time":"2017-02-13T20:58:10.308Z","v":0}
{"name":"sails","hostname":"apaco-Lenovo-G40-80","pid":25105,"level":30,"msg":"Bootstrap: Created admin@opp.com","time":"2017-02-13T20:59:42.082Z","v":0}
{"name":"sails","hostname":"apaco-Lenovo-G40-80","pid":25105,"level":30,"msg":"Bootstrap: Created test credit cards","time":"2017-02-13T20:59:42.137Z","v":0}
{"name":"sails","hostname":"apaco-Lenovo-G40-80","pid":25105,"level":30,"msg":"Bootstrap: Created Roles","time":"2017-02-13T20:59:42.148Z","v":0}
{"name":"sails","hostname":"apaco-Lenovo-G40-80","pid":25105,"level":30,"msg":"Bootstrap: Created Transaction Item Trigger","time":"2017-02-13T20:59:42.181Z","v":0}
{"name":"Not Found","hostname":"apaco-Lenovo-G40-80","pid":25105,"level":30,"message":"User was not found","statusCode":404,"msg":"","time":"2017-02-13T20:59:42.865Z","v":0}
{"name":"Not Found","hostname":"apaco-Lenovo-G40-80","pid":25105,"level":30,"message":"User was not found","statusCode":404,"msg":"","time":"2017-02-13T20:59:42.951Z","v":0}
{"name":"sails","hostname":"apaco-Lenovo-G40-80","pid":25243,"level":30,"msg":"Bootstrap: Created admin@opp.com","time":"2017-02-13T21:01:10.171Z","v":0}
{"name":"sails","hostname":"apaco-Lenovo-G40-80","pid":25243,"level":30,"msg":"Bootstrap: Created test credit cards","time":"2017-02-13T21:01:10.238Z","v":0}
{"name":"sails","hostname":"apaco-Lenovo-G40-80","pid":25243,"level":30,"msg":"Bootstrap: Created Roles","time":"2017-02-13T21:01:10.248Z","v":0}
{"name":"sails","hostname":"apaco-Lenovo-G40-80","pid":25243,"level":30,"msg":"Bootstrap: Created Transaction Item Trigger","time":"2017-02-13T21:01:10.293Z","v":0}
{"name":"Not Found","hostname":"apaco-Lenovo-G40-80","pid":25243,"level":30,"message":"User was not found","statusCode":404,"msg":"","time":"2017-02-13T21:01:11.091Z","v":0}
{"name":"Not Found","hostname":"apaco-Lenovo-G40-80","pid":25243,"level":30,"message":"User was not found","statusCode":404,"msg":"","time":"2017-02-13T21:01:11.183Z","v":0}
{"name":"sails","hostname":"apaco-Lenovo-G40-80","pid":25344,"level":30,"msg":"Bootstrap: Created admin@opp.com","time":"2017-02-13T21:02:51.958Z","v":0}
{"name":"sails","hostname":"apaco-Lenovo-G40-80","pid":25344,"level":30,"msg":"Bootstrap: Created test credit cards","time":"2017-02-13T21:02:52.014Z","v":0}
{"name":"sails","hostname":"apaco-Lenovo-G40-80","pid":25344,"level":30,"msg":"Bootstrap: Created Roles","time":"2017-02-13T21:02:52.024Z","v":0}
{"name":"sails","hostname":"apaco-Lenovo-G40-80","pid":25344,"level":30,"msg":"Bootstrap: Created Transaction Item Trigger","time":"2017-02-13T21:02:52.057Z","v":0}
{"name":"Not Found","hostname":"apaco-Lenovo-G40-80","pid":25344,"level":30,"message":"User was not found","statusCode":404,"msg":"","time":"2017-02-13T21:02:52.729Z","v":0}
{"name":"Not Found","hostname":"apaco-Lenovo-G40-80","pid":25344,"level":30,"message":"User was not found","statusCode":404,"msg":"","time":"2017-02-13T21:02:52.822Z","v":0}
{"name":"sails","hostname":"apaco-Lenovo-G40-80","pid":25556,"level":30,"msg":"Bootstrap: Created admin@opp.com","time":"2017-02-13T21:05:40.324Z","v":0}
{"name":"sails","hostname":"apaco-Lenovo-G40-80","pid":25556,"level":30,"msg":"Bootstrap: Created test credit cards","time":"2017-02-13T21:05:40.480Z","v":0}
{"name":"sails","hostname":"apaco-Lenovo-G40-80","pid":25556,"level":30,"msg":"Bootstrap: Created Roles","time":"2017-02-13T21:05:40.490Z","v":0}
{"name":"sails","hostname":"apaco-Lenovo-G40-80","pid":25556,"level":30,"msg":"Bootstrap: Created Transaction Item Trigger","time":"2017-02-13T21:05:40.525Z","v":0}
{"name":"Not Found","hostname":"apaco-Lenovo-G40-80","pid":25556,"level":30,"message":"User was not found","statusCode":404,"msg":"","time":"2017-02-13T21:05:41.287Z","v":0}
{"name":"Not Found","hostname":"apaco-Lenovo-G40-80","pid":25556,"level":30,"message":"User was not found","statusCode":404,"msg":"","time":"2017-02-13T21:05:41.375Z","v":0}
{"name":"sails","hostname":"apaco-Lenovo-G40-80","pid":25673,"level":30,"msg":"Bootstrap: Created admin@opp.com","time":"2017-02-13T21:07:35.941Z","v":0}
{"name":"sails","hostname":"apaco-Lenovo-G40-80","pid":25673,"level":30,"msg":"Bootstrap: Created test credit cards","time":"2017-02-13T21:07:36.007Z","v":0}
{"name":"sails","hostname":"apaco-Lenovo-G40-80","pid":25673,"level":30,"msg":"Bootstrap: Created Roles","time":"2017-02-13T21:07:36.019Z","v":0}
{"name":"sails","hostname":"apaco-Lenovo-G40-80","pid":25673,"level":30,"msg":"Bootstrap: Created Transaction Item Trigger","time":"2017-02-13T21:07:36.061Z","v":0}
{"name":"Not Found","hostname":"apaco-Lenovo-G40-80","pid":25673,"level":30,"message":"User was not found","statusCode":404,"msg":"","time":"2017-02-13T21:07:36.870Z","v":0}
{"name":"Not Found","hostname":"apaco-Lenovo-G40-80","pid":25673,"level":30,"message":"User was not found","statusCode":404,"msg":"","time":"2017-02-13T21:07:36.952Z","v":0}
{"name":"sails","hostname":"apaco-Lenovo-G40-80","pid":25874,"level":30,"msg":"Bootstrap: Created admin@opp.com","time":"2017-02-13T21:10:57.508Z","v":0}
{"name":"sails","hostname":"apaco-Lenovo-G40-80","pid":25874,"level":30,"msg":"Bootstrap: Created test credit cards","time":"2017-02-13T21:10:57.585Z","v":0}
{"name":"sails","hostname":"apaco-Lenovo-G40-80","pid":25874,"level":30,"msg":"Bootstrap: Created Roles","time":"2017-02-13T21:10:57.596Z","v":0}
{"name":"sails","hostname":"apaco-Lenovo-G40-80","pid":25874,"level":30,"msg":"Bootstrap: Created Transaction Item Trigger","time":"2017-02-13T21:10:57.641Z","v":0}
{"name":"Not Found","hostname":"apaco-Lenovo-G40-80","pid":25874,"level":30,"message":"User was not found","statusCode":404,"msg":"","time":"2017-02-13T21:10:58.429Z","v":0}
{"name":"Not Found","hostname":"apaco-Lenovo-G40-80","pid":25874,"level":30,"message":"User was not found","statusCode":404,"msg":"","time":"2017-02-13T21:10:58.525Z","v":0}
{"name":"sails","hostname":"apaco-Lenovo-G40-80","pid":25975,"level":30,"msg":"Bootstrap: Created admin@opp.com","time":"2017-02-13T21:12:06.089Z","v":0}
{"name":"sails","hostname":"apaco-Lenovo-G40-80","pid":25975,"level":30,"msg":"Bootstrap: Created test credit cards","time":"2017-02-13T21:12:06.200Z","v":0}
{"name":"sails","hostname":"apaco-Lenovo-G40-80","pid":25975,"level":30,"msg":"Bootstrap: Created Roles","time":"2017-02-13T21:12:06.210Z","v":0}
{"name":"sails","hostname":"apaco-Lenovo-G40-80","pid":25975,"level":30,"msg":"Bootstrap: Created Transaction Item Trigger","time":"2017-02-13T21:12:06.254Z","v":0}
{"name":"Not Found","hostname":"apaco-Lenovo-G40-80","pid":25975,"level":30,"message":"User was not found","statusCode":404,"msg":"","time":"2017-02-13T21:12:07.249Z","v":0}
{"name":"Not Found","hostname":"apaco-Lenovo-G40-80","pid":25975,"level":30,"message":"User was not found","statusCode":404,"msg":"","time":"2017-02-13T21:12:07.363Z","v":0}
{"name":"sails","hostname":"apaco-Lenovo-G40-80","pid":26109,"level":30,"msg":"Bootstrap: Created admin@opp.com","time":"2017-02-13T21:14:23.470Z","v":0}
{"name":"sails","hostname":"apaco-Lenovo-G40-80","pid":26109,"level":30,"msg":"Bootstrap: Created test credit cards","time":"2017-02-13T21:14:23.579Z","v":0}
{"name":"sails","hostname":"apaco-Lenovo-G40-80","pid":26109,"level":30,"msg":"Bootstrap: Created Roles","time":"2017-02-13T21:14:23.591Z","v":0}
{"name":"sails","hostname":"apaco-Lenovo-G40-80","pid":26109,"level":30,"msg":"Bootstrap: Created Transaction Item Trigger","time":"2017-02-13T21:14:23.635Z","v":0}
{"name":"Not Found","hostname":"apaco-Lenovo-G40-80","pid":26109,"level":30,"message":"User was not found","statusCode":404,"msg":"","time":"2017-02-13T21:14:24.711Z","v":0}
{"name":"Not Found","hostname":"apaco-Lenovo-G40-80","pid":26109,"level":30,"message":"User was not found","statusCode":404,"msg":"","time":"2017-02-13T21:14:24.831Z","v":0}
{"name":"sails","hostname":"apaco-Lenovo-G40-80","pid":26352,"level":30,"msg":"Bootstrap: Created admin@opp.com","time":"2017-02-13T21:17:43.563Z","v":0}
{"name":"sails","hostname":"apaco-Lenovo-G40-80","pid":26352,"level":30,"msg":"Bootstrap: Created test credit cards","time":"2017-02-13T21:17:43.620Z","v":0}
{"name":"sails","hostname":"apaco-Lenovo-G40-80","pid":26352,"level":30,"msg":"Bootstrap: Created Roles","time":"2017-02-13T21:17:43.629Z","v":0}
{"name":"sails","hostname":"apaco-Lenovo-G40-80","pid":26352,"level":30,"msg":"Bootstrap: Created Transaction Item Trigger","time":"2017-02-13T21:17:43.662Z","v":0}
{"name":"sails","hostname":"apaco-Lenovo-G40-80","pid":26352,"level":30,"msg":"((((()))))","time":"2017-02-13T21:17:44.164Z","v":0}
{"name":"Not Found","hostname":"apaco-Lenovo-G40-80","pid":26352,"level":30,"message":"User was not found","statusCode":404,"msg":"","time":"2017-02-13T21:17:44.516Z","v":0}
{"name":"Not Found","hostname":"apaco-Lenovo-G40-80","pid":26352,"level":30,"message":"User was not found","statusCode":404,"msg":"","time":"2017-02-13T21:17:44.615Z","v":0}
{"name":"sails","hostname":"apaco-Lenovo-G40-80","pid":26473,"level":30,"msg":"Bootstrap: Created admin@opp.com","time":"2017-02-13T21:18:32.649Z","v":0}
{"name":"sails","hostname":"apaco-Lenovo-G40-80","pid":26473,"level":30,"msg":"Bootstrap: Created test credit cards","time":"2017-02-13T21:18:32.762Z","v":0}
{"name":"sails","hostname":"apaco-Lenovo-G40-80","pid":26473,"level":30,"msg":"Bootstrap: Created Roles","time":"2017-02-13T21:18:32.772Z","v":0}
{"name":"sails","hostname":"apaco-Lenovo-G40-80","pid":26473,"level":30,"msg":"Bootstrap: Created Transaction Item Trigger","time":"2017-02-13T21:18:32.817Z","v":0}
{"name":"Not Found","hostname":"apaco-Lenovo-G40-80","pid":26473,"level":30,"message":"User was not found","statusCode":404,"msg":"","time":"2017-02-13T21:18:33.720Z","v":0}
{"name":"Not Found","hostname":"apaco-Lenovo-G40-80","pid":26473,"level":30,"message":"User was not found","statusCode":404,"msg":"","time":"2017-02-13T21:18:33.867Z","v":0}
{"name":"sails","hostname":"apaco-Lenovo-G40-80","pid":26656,"level":30,"msg":"Bootstrap: Created admin@opp.com","time":"2017-02-13T21:19:30.095Z","v":0}
{"name":"sails","hostname":"apaco-Lenovo-G40-80","pid":26656,"level":30,"msg":"Bootstrap: Created test credit cards","time":"2017-02-13T21:19:30.182Z","v":0}
{"name":"sails","hostname":"apaco-Lenovo-G40-80","pid":26656,"level":30,"msg":"Bootstrap: Created Roles","time":"2017-02-13T21:19:30.203Z","v":0}
{"name":"sails","hostname":"apaco-Lenovo-G40-80","pid":26656,"level":30,"msg":"Bootstrap: Created Transaction Item Trigger","time":"2017-02-13T21:19:30.248Z","v":0}
{"name":"Not Found","hostname":"apaco-Lenovo-G40-80","pid":26656,"level":30,"message":"User was not found","statusCode":404,"msg":"","time":"2017-02-13T21:19:31.167Z","v":0}
{"name":"Not Found","hostname":"apaco-Lenovo-G40-80","pid":26656,"level":30,"message":"User was not found","statusCode":404,"msg":"","time":"2017-02-13T21:19:31.248Z","v":0}
{"name":"sails","hostname":"apaco-Lenovo-G40-80","pid":26804,"level":30,"msg":"Bootstrap: Created admin@opp.com","time":"2017-02-13T21:20:38.455Z","v":0}
{"name":"sails","hostname":"apaco-Lenovo-G40-80","pid":26804,"level":30,"msg":"Bootstrap: Created test credit cards","time":"2017-02-13T21:20:38.521Z","v":0}
{"name":"sails","hostname":"apaco-Lenovo-G40-80","pid":26804,"level":30,"msg":"Bootstrap: Created Roles","time":"2017-02-13T21:20:38.531Z","v":0}
{"name":"sails","hostname":"apaco-Lenovo-G40-80","pid":26804,"level":30,"msg":"Bootstrap: Created Transaction Item Trigger","time":"2017-02-13T21:20:38.565Z","v":0}
{"name":"Not Found","hostname":"apaco-Lenovo-G40-80","pid":26804,"level":30,"message":"User was not found","statusCode":404,"msg":"","time":"2017-02-13T21:20:39.336Z","v":0}
{"name":"Not Found","hostname":"apaco-Lenovo-G40-80","pid":26804,"level":30,"message":"User was not found","statusCode":404,"msg":"","time":"2017-02-13T21:20:39.452Z","v":0}
