{"name":"sails","hostname":"apaco-Lenovo-G40-80","pid":26500,"level":50,"err":{"message":"The hook `sequelize` is taking too long to load.\nMake sure it is triggering its `initialize()` callback, or else set `sails.config.sequelize._hookTimeout to a higher value (currently 20000)","name":"Error","stack":"Error: The hook `sequelize` is taking too long to load.\nMake sure it is triggering its `initialize()` callback, or else set `sails.config.sequelize._hookTimeout to a higher value (currently 20000)\n    at Timeout.tooLong (/home/apaco/Projects/open-payment-platform-v2/node_modules/sails/lib/app/private/loadHooks.js:85:21)\n    at Timeout.asyncWrap [as _onTimeout] (/home/apaco/Projects/open-payment-platform-v2/node_modules/async-listener/glue.js:188:31)\n    at ontimeout (timers.js:365:14)\n    at tryOnTimeout (timers.js:237:5)\n    at Timer.listOnTimeout (timers.js:207:5)","code":"E_HOOK_TIMEOUT"},"msg":"The hook `sequelize` is taking too long to load.\nMake sure it is triggering its `initialize()` callback, or else set `sails.config.sequelize._hookTimeout to a higher value (currently 20000)","time":"2017-01-18T13:45:33.788Z","v":0}
{"name":"sails","hostname":"apaco-Lenovo-G40-80","pid":26623,"level":30,"msg":"Bootstrap: Created admin@opp.com","time":"2017-01-18T13:45:40.171Z","v":0}
{"name":"sails","hostname":"apaco-Lenovo-G40-80","pid":26623,"level":30,"msg":"Bootstrap: Created test credit cards","time":"2017-01-18T13:45:40.226Z","v":0}
{"name":"sails","hostname":"apaco-Lenovo-G40-80","pid":26623,"level":30,"msg":"Bootstrap: Created Roles","time":"2017-01-18T13:45:40.237Z","v":0}
{"name":"sails","hostname":"apaco-Lenovo-G40-80","pid":26623,"level":30,"msg":"Bootstrap: Created Transaction Item Trigger","time":"2017-01-18T13:45:40.270Z","v":0}
