{"name":"sails","hostname":"apaco-Lenovo-G40-80","pid":5583,"level":30,"msg":"Bootstrap: Created admin@opp.com","time":"2017-01-23T12:36:12.054Z","v":0}
{"name":"sails","hostname":"apaco-Lenovo-G40-80","pid":5583,"level":30,"msg":"Bootstrap: Created test credit cards","time":"2017-01-23T12:36:12.358Z","v":0}
{"name":"sails","hostname":"apaco-Lenovo-G40-80","pid":5583,"level":30,"msg":"Bootstrap: Created Roles","time":"2017-01-23T12:36:12.967Z","v":0}
{"name":"sails","hostname":"apaco-Lenovo-G40-80","pid":5660,"level":30,"msg":"Bootstrap: Created admin@opp.com","time":"2017-01-23T12:36:15.877Z","v":0}
{"name":"sails","hostname":"apaco-Lenovo-G40-80","pid":5660,"level":30,"msg":"Bootstrap: Created test credit cards","time":"2017-01-23T12:36:15.917Z","v":0}
{"name":"sails","hostname":"apaco-Lenovo-G40-80","pid":5660,"level":30,"msg":"Bootstrap: Created Roles","time":"2017-01-23T12:36:15.950Z","v":0}
{"name":"sails","hostname":"apaco-Lenovo-G40-80","pid":5660,"level":30,"msg":"Bootstrap: Created Transaction Item Trigger","time":"2017-01-23T12:36:15.983Z","v":0}
{"name":"sails","hostname":"apaco-Lenovo-G40-80","pid":7328,"level":30,"msg":"Bootstrap: Created admin@opp.com","time":"2017-01-23T13:20:11.284Z","v":0}
{"name":"sails","hostname":"apaco-Lenovo-G40-80","pid":7328,"level":30,"msg":"Bootstrap: Created test credit cards","time":"2017-01-23T13:20:11.320Z","v":0}
{"name":"sails","hostname":"apaco-Lenovo-G40-80","pid":7328,"level":30,"msg":"Bootstrap: Created Roles","time":"2017-01-23T13:20:11.331Z","v":0}
{"name":"sails","hostname":"apaco-Lenovo-G40-80","pid":7328,"level":30,"msg":"Bootstrap: Created Transaction Item Trigger","time":"2017-01-23T13:20:11.354Z","v":0}
