{"name":"sails","hostname":"apaco-Lenovo-G40-80","pid":5957,"level":30,"msg":"Bootstrap: Created admin@opp.com","time":"2017-02-07T14:43:58.702Z","v":0}
{"name":"sails","hostname":"apaco-Lenovo-G40-80","pid":5957,"level":30,"msg":"Bootstrap: Created test credit cards","time":"2017-02-07T14:43:59.331Z","v":0}
{"name":"sails","hostname":"apaco-Lenovo-G40-80","pid":5957,"level":30,"msg":"Bootstrap: Created Roles","time":"2017-02-07T14:43:59.530Z","v":0}
{"name":"sails","hostname":"apaco-Lenovo-G40-80","pid":5957,"level":40,"msg":"Bootstrap is taking unusually long to execute its callback (2000 milliseconds).\nPerhaps you forgot to call it?  The callback is the first argument of the function, `cb`.","time":"2017-02-07T14:44:00.325Z","v":0}
{"name":"sails","hostname":"apaco-Lenovo-G40-80","pid":5957,"level":30,"msg":"Bootstrap: Created Transaction Item Trigger","time":"2017-02-07T14:44:01.468Z","v":0}
