{"name":"sails","hostname":"apaco-Lenovo-G40-80","pid":10981,"level":40,"msg":"Bootstrap is taking unusually long to execute its callback (2000 milliseconds).\nPerhaps you forgot to call it?  The callback is the first argument of the function, `cb`.","time":"2017-02-02T14:11:50.543Z","v":0}
{"name":"sails","hostname":"apaco-Lenovo-G40-80","pid":10981,"level":50,"msg":"Ignored attempt to bind route (/v2/opp/pay/document) to unknown controller.action :: oppcreditcard.paydocument","time":"2017-02-02T14:11:50.699Z","v":0}
{"name":"sails","hostname":"apaco-Lenovo-G40-80","pid":10981,"level":50,"msg":"Ignored attempt to bind route (/v2/opp/pay/user) to unknown controller.action :: oppcreditcard.payuser","time":"2017-02-02T14:11:50.700Z","v":0}
{"name":"sails","hostname":"apaco-Lenovo-G40-80","pid":10981,"level":50,"msg":"Ignored attempt to bind route (/v2/opp/pay/balance/cc) to unknown controller.action :: oppcreditcard.paywithbalanceandcc","time":"2017-02-02T14:11:50.700Z","v":0}
{"name":"sails","hostname":"apaco-Lenovo-G40-80","pid":11163,"level":50,"err":{"message":"cc is not defined","name":"ReferenceError","stack":"ReferenceError: cc is not defined\n    at Object.<anonymous> (/home/apaco/Projects/open-payment-platform-v2/api/controllers/OppCreditCardController.js:127:43)\n    at Object.<anonymous> (/home/apaco/Projects/open-payment-platform-v2/node_modules/continuation-local-storage/context.js:84:17)\n    at Object.tryCatcher (/home/apaco/Projects/open-payment-platform-v2/node_modules/bluebird/js/release/util.js:16:23)\n    at Promise.module.exports.Promise._settlePromiseFromHandler (/home/apaco/Projects/open-payment-platform-v2/node_modules/bluebird/js/release/promise.js:510:31)\n    at Promise.module.exports.Promise._settlePromise (/home/apaco/Projects/open-payment-platform-v2/node_modules/bluebird/js/release/promise.js:567:18)\n    at Promise.module.exports.Promise._settlePromise0 (/home/apaco/Projects/open-payment-platform-v2/node_modules/bluebird/js/release/promise.js:612:10)\n    at Promise.module.exports.Promise._settlePromises (/home/apaco/Projects/open-payment-platform-v2/node_modules/bluebird/js/release/promise.js:691:18)\n    at Promise.module.exports.Promise._fulfill (/home/apaco/Projects/open-payment-platform-v2/node_modules/bluebird/js/release/promise.js:636:18)\n    at Promise.module.exports.Promise._resolveCallback (/home/apaco/Projects/open-payment-platform-v2/node_modules/bluebird/js/release/promise.js:431:57)\n    at Promise.module.exports.Promise._settlePromiseFromHandler (/home/apaco/Projects/open-payment-platform-v2/node_modules/bluebird/js/release/promise.js:522:17)\n    at Promise.module.exports.Promise._settlePromise (/home/apaco/Projects/open-payment-platform-v2/node_modules/bluebird/js/release/promise.js:567:18)\n    at Promise.module.exports.Promise._settlePromise0 (/home/apaco/Projects/open-payment-platform-v2/node_modules/bluebird/js/release/promise.js:612:10)\n    at Promise.module.exports.Promise._settlePromises (/home/apaco/Projects/open-payment-platform-v2/node_modules/bluebird/js/release/promise.js:691:18)\n    at Promise.module.exports.Promise._fulfill (/home/apaco/Projects/open-payment-platform-v2/node_modules/bluebird/js/release/promise.js:636:18)\n    at Promise.module.exports.Promise._resolveCallback (/home/apaco/Projects/open-payment-platform-v2/node_modules/bluebird/js/release/promise.js:431:57)\n    at Promise.module.exports.Promise._settlePromiseFromHandler (/home/apaco/Projects/open-payment-platform-v2/node_modules/bluebird/js/release/promise.js:522:17)\n    at Promise.module.exports.Promise._settlePromise (/home/apaco/Projects/open-payment-platform-v2/node_modules/bluebird/js/release/promise.js:567:18)\n    at Promise.module.exports.Promise._settlePromise0 (/home/apaco/Projects/open-payment-platform-v2/node_modules/bluebird/js/release/promise.js:612:10)\n    at Promise.module.exports.Promise._settlePromises (/home/apaco/Projects/open-payment-platform-v2/node_modules/bluebird/js/release/promise.js:691:18)\n    at Promise.module.exports.Promise._fulfill (/home/apaco/Projects/open-payment-platform-v2/node_modules/bluebird/js/release/promise.js:636:18)\n    at MappingPromiseArray.module.exports.PromiseArray._resolve (/home/apaco/Projects/open-payment-platform-v2/node_modules/bluebird/js/release/promise_array.js:125:19)\n    at MappingPromiseArray.module.exports.MappingPromiseArray._promiseFulfilled (/home/apaco/Projects/open-payment-platform-v2/node_modules/bluebird/js/release/map.js:101:18)"},"msg":"cc is not defined","time":"2017-02-02T14:16:17.413Z","v":0}
{"name":"sails","hostname":"apaco-Lenovo-G40-80","pid":31254,"level":50,"msg":"Sending 500 (\"Server Error\") response: \n TypeError: Cannot set property 'status' of undefined\n    at Object.transactions (/home/apaco/Projects/open-payment-platform-v2/api/controllers/OppUserController.js:122:39)\n    at wrapper (/home/apaco/Projects/open-payment-platform-v2/node_modules/@sailshq/lodash/lib/index.js:3250:19)\n    at routeTargetFnWrapper (/home/apaco/Projects/open-payment-platform-v2/node_modules/sails/lib/router/bind.js:181:5)\n    at callbacks (/home/apaco/Projects/open-payment-platform-v2/node_modules/sails/node_modules/express/lib/router/index.js:164:37)\n    at param (/home/apaco/Projects/open-payment-platform-v2/node_modules/sails/node_modules/express/lib/router/index.js:138:11)\n    at pass (/home/apaco/Projects/open-payment-platform-v2/node_modules/sails/node_modules/express/lib/router/index.js:145:5)\n    at nextRoute (/home/apaco/Projects/open-payment-platform-v2/node_modules/sails/node_modules/express/lib/router/index.js:100:7)\n    at callbacks (/home/apaco/Projects/open-payment-platform-v2/node_modules/sails/node_modules/express/lib/router/index.js:167:11)\n    at Model.<anonymous> (/home/apaco/Projects/open-payment-platform-v2/api/policies/isauthorized.js:45:17)\n    at Model.Namespace.bind (/home/apaco/Projects/open-payment-platform-v2/node_modules/continuation-local-storage/context.js:84:17)\n    at Model.tryCatcher (/home/apaco/Projects/open-payment-platform-v2/node_modules/bluebird/js/release/util.js:16:23)\n    at Promise.module.exports.Promise._settlePromiseFromHandler (/home/apaco/Projects/open-payment-platform-v2/node_modules/bluebird/js/release/promise.js:510:31)\n    at Promise.module.exports.Promise._settlePromise (/home/apaco/Projects/open-payment-platform-v2/node_modules/bluebird/js/release/promise.js:567:18)\n    at Promise.module.exports.Promise._settlePromise0 (/home/apaco/Projects/open-payment-platform-v2/node_modules/bluebird/js/release/promise.js:612:10)\n    at Promise.module.exports.Promise._settlePromises (/home/apaco/Projects/open-payment-platform-v2/node_modules/bluebird/js/release/promise.js:691:18)\n    at Async._drainQueue (/home/apaco/Projects/open-payment-platform-v2/node_modules/bluebird/js/release/async.js:133:16)\n    at Async._drainQueues (/home/apaco/Projects/open-payment-platform-v2/node_modules/bluebird/js/release/async.js:143:10)\n    at Immediate.__dirname.Async.drainQueues (/home/apaco/Projects/open-payment-platform-v2/node_modules/bluebird/js/release/async.js:17:14)\n    at runCallback (timers.js:651:20)\n    at tryOnImmediate (timers.js:624:5)\n    at processImmediate [as _immediateCallback] (timers.js:596:5)","time":"2017-02-02T18:55:01.360Z","v":0}
{"name":"sails","hostname":"apaco-Lenovo-G40-80","pid":4290,"level":50,"msg":"Sending 500 (\"Server Error\") response: \n TypeError: DatabaseErrorService.wrong is not a constructor\n    at Object.transactions (/home/apaco/Projects/open-payment-platform-v2/api/controllers/OppUserController.js:120:47)\n    at wrapper (/home/apaco/Projects/open-payment-platform-v2/node_modules/@sailshq/lodash/lib/index.js:3250:19)\n    at routeTargetFnWrapper (/home/apaco/Projects/open-payment-platform-v2/node_modules/sails/lib/router/bind.js:181:5)\n    at callbacks (/home/apaco/Projects/open-payment-platform-v2/node_modules/sails/node_modules/express/lib/router/index.js:164:37)\n    at param (/home/apaco/Projects/open-payment-platform-v2/node_modules/sails/node_modules/express/lib/router/index.js:138:11)\n    at pass (/home/apaco/Projects/open-payment-platform-v2/node_modules/sails/node_modules/express/lib/router/index.js:145:5)\n    at nextRoute (/home/apaco/Projects/open-payment-platform-v2/node_modules/sails/node_modules/express/lib/router/index.js:100:7)\n    at callbacks (/home/apaco/Projects/open-payment-platform-v2/node_modules/sails/node_modules/express/lib/router/index.js:167:11)\n    at Model.<anonymous> (/home/apaco/Projects/open-payment-platform-v2/api/policies/isauthorized.js:45:17)\n    at Model.Namespace.bind (/home/apaco/Projects/open-payment-platform-v2/node_modules/continuation-local-storage/context.js:84:17)\n    at Model.tryCatcher (/home/apaco/Projects/open-payment-platform-v2/node_modules/bluebird/js/release/util.js:16:23)\n    at Promise.module.exports.Promise._settlePromiseFromHandler (/home/apaco/Projects/open-payment-platform-v2/node_modules/bluebird/js/release/promise.js:510:31)\n    at Promise.module.exports.Promise._settlePromise (/home/apaco/Projects/open-payment-platform-v2/node_modules/bluebird/js/release/promise.js:567:18)\n    at Promise.module.exports.Promise._settlePromise0 (/home/apaco/Projects/open-payment-platform-v2/node_modules/bluebird/js/release/promise.js:612:10)\n    at Promise.module.exports.Promise._settlePromises (/home/apaco/Projects/open-payment-platform-v2/node_modules/bluebird/js/release/promise.js:691:18)\n    at Async._drainQueue (/home/apaco/Projects/open-payment-platform-v2/node_modules/bluebird/js/release/async.js:133:16)\n    at Async._drainQueues (/home/apaco/Projects/open-payment-platform-v2/node_modules/bluebird/js/release/async.js:143:10)\n    at Immediate.__dirname.Async.drainQueues (/home/apaco/Projects/open-payment-platform-v2/node_modules/bluebird/js/release/async.js:17:14)\n    at runCallback (timers.js:651:20)\n    at tryOnImmediate (timers.js:624:5)\n    at processImmediate [as _immediateCallback] (timers.js:596:5)","time":"2017-02-02T20:02:39.201Z","v":0}
