{"name":"sails","hostname":"apaco-Lenovo-G40-80","pid":10837,"level":50,"msg":"Insufficient funds to complete the transaction","time":"2017-02-15T14:33:28.467Z","v":0}
{"name":"sails","hostname":"apaco-Lenovo-G40-80","pid":10837,"level":50,"msg":"Payer was not found","time":"2017-02-15T14:33:29.080Z","v":0}
{"name":"sails","hostname":"apaco-Lenovo-G40-80","pid":11195,"level":50,"msg":"Insufficient funds to complete the transaction","time":"2017-02-15T14:38:51.452Z","v":0}
{"name":"sails","hostname":"apaco-Lenovo-G40-80","pid":11195,"level":50,"msg":"Payer was not found","time":"2017-02-15T14:38:51.991Z","v":0}
{"name":"sails","hostname":"apaco-Lenovo-G40-80","pid":11290,"level":50,"msg":"Insufficient funds to complete the transaction","time":"2017-02-15T14:40:19.303Z","v":0}
{"name":"sails","hostname":"apaco-Lenovo-G40-80","pid":11290,"level":50,"msg":"Payer was not found","time":"2017-02-15T14:40:19.936Z","v":0}
{"name":"sails","hostname":"apaco-Lenovo-G40-80","pid":11378,"level":50,"msg":"Insufficient funds to complete the transaction","time":"2017-02-15T14:40:55.748Z","v":0}
{"name":"sails","hostname":"apaco-Lenovo-G40-80","pid":11378,"level":50,"msg":"Payer was not found","time":"2017-02-15T14:40:56.298Z","v":0}
{"name":"sails","hostname":"apaco-Lenovo-G40-80","pid":11437,"level":50,"msg":"Insufficient funds to complete the transaction","time":"2017-02-15T14:41:47.544Z","v":0}
{"name":"sails","hostname":"apaco-Lenovo-G40-80","pid":11437,"level":50,"msg":"Payer was not found","time":"2017-02-15T14:41:48.075Z","v":0}
{"name":"sails","hostname":"apaco-Lenovo-G40-80","pid":11506,"level":50,"msg":"Insufficient funds to complete the transaction","time":"2017-02-15T14:42:28.924Z","v":0}
{"name":"sails","hostname":"apaco-Lenovo-G40-80","pid":11506,"level":50,"msg":"Payer was not found","time":"2017-02-15T14:42:29.522Z","v":0}
{"name":"sails","hostname":"apaco-Lenovo-G40-80","pid":11576,"level":50,"msg":"Insufficient funds to complete the transaction","time":"2017-02-15T14:42:47.747Z","v":0}
{"name":"sails","hostname":"apaco-Lenovo-G40-80","pid":11576,"level":50,"msg":"Payer was not found","time":"2017-02-15T14:42:48.371Z","v":0}
{"name":"sails","hostname":"apaco-Lenovo-G40-80","pid":11631,"level":50,"msg":"Insufficient funds to complete the transaction","time":"2017-02-15T14:43:07.271Z","v":0}
{"name":"sails","hostname":"apaco-Lenovo-G40-80","pid":11631,"level":50,"msg":"Payer was not found","time":"2017-02-15T14:43:07.793Z","v":0}
{"name":"sails","hostname":"apaco-Lenovo-G40-80","pid":11688,"level":50,"msg":"Insufficient funds to complete the transaction","time":"2017-02-15T14:43:28.302Z","v":0}
{"name":"sails","hostname":"apaco-Lenovo-G40-80","pid":11688,"level":50,"msg":"Payer was not found","time":"2017-02-15T14:43:28.894Z","v":0}
{"name":"sails","hostname":"apaco-Lenovo-G40-80","pid":11771,"level":50,"msg":"Insufficient funds to complete the transaction","time":"2017-02-15T14:44:13.070Z","v":0}
{"name":"sails","hostname":"apaco-Lenovo-G40-80","pid":11771,"level":50,"msg":"Payer was not found","time":"2017-02-15T14:44:13.719Z","v":0}
{"name":"sails","hostname":"apaco-Lenovo-G40-80","pid":11845,"level":50,"msg":"Insufficient funds to complete the transaction","time":"2017-02-15T14:44:36.957Z","v":0}
{"name":"sails","hostname":"apaco-Lenovo-G40-80","pid":11845,"level":50,"msg":"Payer was not found","time":"2017-02-15T14:44:37.531Z","v":0}
{"name":"sails","hostname":"apaco-Lenovo-G40-80","pid":11994,"level":50,"msg":"Insufficient funds to complete the transaction","time":"2017-02-15T14:45:44.837Z","v":0}
{"name":"sails","hostname":"apaco-Lenovo-G40-80","pid":11994,"level":50,"msg":"Payer was not found","time":"2017-02-15T14:45:45.557Z","v":0}
{"name":"sails","hostname":"apaco-Lenovo-G40-80","pid":12053,"level":50,"msg":"Insufficient funds to complete the transaction","time":"2017-02-15T14:46:18.393Z","v":0}
{"name":"sails","hostname":"apaco-Lenovo-G40-80","pid":12053,"level":50,"msg":"Payer was not found","time":"2017-02-15T14:46:18.748Z","v":0}
{"name":"sails","hostname":"apaco-Lenovo-G40-80","pid":14262,"level":50,"msg":"Insufficient funds to complete the transaction","time":"2017-02-15T15:58:31.662Z","v":0}
{"name":"sails","hostname":"apaco-Lenovo-G40-80","pid":14262,"level":50,"msg":"Payer was not found","time":"2017-02-15T15:58:32.216Z","v":0}
{"name":"sails","hostname":"apaco-Lenovo-G40-80","pid":14468,"level":50,"msg":"Insufficient funds to complete the transaction","time":"2017-02-15T16:01:35.285Z","v":0}
{"name":"sails","hostname":"apaco-Lenovo-G40-80","pid":14468,"level":50,"msg":"Payer was not found","time":"2017-02-15T16:01:35.802Z","v":0}
{"name":"sails","hostname":"apaco-Lenovo-G40-80","pid":14543,"level":50,"msg":"Insufficient funds to complete the transaction","time":"2017-02-15T16:02:11.564Z","v":0}
{"name":"sails","hostname":"apaco-Lenovo-G40-80","pid":14543,"level":50,"msg":"Payer was not found","time":"2017-02-15T16:02:12.107Z","v":0}
{"name":"sails","hostname":"apaco-Lenovo-G40-80","pid":14619,"level":50,"msg":"Insufficient funds to complete the transaction","time":"2017-02-15T16:02:40.828Z","v":0}
{"name":"sails","hostname":"apaco-Lenovo-G40-80","pid":14619,"level":50,"msg":"Payer was not found","time":"2017-02-15T16:02:41.345Z","v":0}
{"name":"sails","hostname":"apaco-Lenovo-G40-80","pid":14669,"level":50,"msg":"Insufficient funds to complete the transaction","time":"2017-02-15T16:03:01.749Z","v":0}
{"name":"sails","hostname":"apaco-Lenovo-G40-80","pid":14669,"level":50,"msg":"Payer was not found","time":"2017-02-15T16:03:02.049Z","v":0}
{"name":"sails","hostname":"apaco-Lenovo-G40-80","pid":14773,"level":50,"msg":"Insufficient funds to complete the transaction","time":"2017-02-15T16:04:04.273Z","v":0}
{"name":"sails","hostname":"apaco-Lenovo-G40-80","pid":14773,"level":50,"msg":"Payer was not found","time":"2017-02-15T16:04:04.817Z","v":0}
{"name":"sails","hostname":"apaco-Lenovo-G40-80","pid":14864,"level":50,"msg":"Insufficient funds to complete the transaction","time":"2017-02-15T16:04:28.081Z","v":0}
{"name":"sails","hostname":"apaco-Lenovo-G40-80","pid":14864,"level":50,"msg":"Payer was not found","time":"2017-02-15T16:04:28.617Z","v":0}
{"name":"sails","hostname":"apaco-Lenovo-G40-80","pid":14947,"level":50,"msg":"Insufficient funds to complete the transaction","time":"2017-02-15T16:05:07.648Z","v":0}
{"name":"sails","hostname":"apaco-Lenovo-G40-80","pid":14947,"level":50,"msg":"Payer was not found","time":"2017-02-15T16:05:08.186Z","v":0}
{"name":"sails","hostname":"apaco-Lenovo-G40-80","pid":15011,"level":50,"msg":"Insufficient funds to complete the transaction","time":"2017-02-15T16:05:34.765Z","v":0}
{"name":"sails","hostname":"apaco-Lenovo-G40-80","pid":15011,"level":50,"msg":"Payer was not found","time":"2017-02-15T16:05:35.292Z","v":0}
{"name":"sails","hostname":"apaco-Lenovo-G40-80","pid":15128,"level":50,"msg":"Insufficient funds to complete the transaction","time":"2017-02-15T16:06:28.421Z","v":0}
{"name":"sails","hostname":"apaco-Lenovo-G40-80","pid":15128,"level":50,"msg":"Payer was not found","time":"2017-02-15T16:06:28.943Z","v":0}
{"name":"sails","hostname":"apaco-Lenovo-G40-80","pid":15173,"level":50,"msg":"Insufficient funds to complete the transaction","time":"2017-02-15T16:06:45.011Z","v":0}
{"name":"sails","hostname":"apaco-Lenovo-G40-80","pid":15173,"level":50,"msg":"Payer was not found","time":"2017-02-15T16:06:45.542Z","v":0}
{"name":"sails","hostname":"apaco-Lenovo-G40-80","pid":15292,"level":50,"msg":"Insufficient funds to complete the transaction","time":"2017-02-15T16:08:03.182Z","v":0}
{"name":"sails","hostname":"apaco-Lenovo-G40-80","pid":15292,"level":50,"msg":"Payer was not found","time":"2017-02-15T16:08:03.711Z","v":0}
{"name":"sails","hostname":"apaco-Lenovo-G40-80","pid":15333,"level":50,"msg":"Insufficient funds to complete the transaction","time":"2017-02-15T16:08:13.072Z","v":0}
{"name":"sails","hostname":"apaco-Lenovo-G40-80","pid":15333,"level":50,"msg":"Payer was not found","time":"2017-02-15T16:08:13.609Z","v":0}
{"name":"sails","hostname":"apaco-Lenovo-G40-80","pid":15461,"level":50,"msg":"Insufficient funds to complete the transaction","time":"2017-02-15T16:09:41.245Z","v":0}
{"name":"sails","hostname":"apaco-Lenovo-G40-80","pid":15461,"level":50,"msg":"Payer was not found","time":"2017-02-15T16:09:41.896Z","v":0}
{"name":"sails","hostname":"apaco-Lenovo-G40-80","pid":15823,"level":50,"msg":"Insufficient funds to complete the transaction","time":"2017-02-15T16:14:17.574Z","v":0}
{"name":"sails","hostname":"apaco-Lenovo-G40-80","pid":15823,"level":50,"msg":"Payer was not found","time":"2017-02-15T16:14:18.177Z","v":0}
{"name":"sails","hostname":"apaco-Lenovo-G40-80","pid":17304,"level":50,"msg":"Insufficient funds to complete the transaction","time":"2017-02-15T16:36:44.036Z","v":0}
{"name":"sails","hostname":"apaco-Lenovo-G40-80","pid":17304,"level":50,"msg":"Payer was not found","time":"2017-02-15T16:36:44.554Z","v":0}
{"name":"sails","hostname":"apaco-Lenovo-G40-80","pid":17385,"level":50,"msg":"Insufficient funds to complete the transaction","time":"2017-02-15T16:37:52.957Z","v":0}
{"name":"sails","hostname":"apaco-Lenovo-G40-80","pid":17385,"level":50,"msg":"Payer was not found","time":"2017-02-15T16:37:53.476Z","v":0}
{"name":"sails","hostname":"apaco-Lenovo-G40-80","pid":17487,"level":50,"msg":"Insufficient funds to complete the transaction","time":"2017-02-15T16:39:01.256Z","v":0}
{"name":"sails","hostname":"apaco-Lenovo-G40-80","pid":17487,"level":50,"msg":"Payer was not found","time":"2017-02-15T16:39:01.835Z","v":0}
{"name":"sails","hostname":"apaco-Lenovo-G40-80","pid":17583,"level":50,"msg":"Insufficient funds to complete the transaction","time":"2017-02-15T16:40:21.698Z","v":0}
{"name":"sails","hostname":"apaco-Lenovo-G40-80","pid":17583,"level":50,"msg":"Payer was not found","time":"2017-02-15T16:40:22.235Z","v":0}
{"name":"sails","hostname":"apaco-Lenovo-G40-80","pid":17646,"level":50,"msg":"Insufficient funds to complete the transaction","time":"2017-02-15T16:40:46.890Z","v":0}
{"name":"sails","hostname":"apaco-Lenovo-G40-80","pid":17646,"level":50,"msg":"Payer was not found","time":"2017-02-15T16:40:47.442Z","v":0}
{"name":"sails","hostname":"apaco-Lenovo-G40-80","pid":17687,"level":50,"msg":"Insufficient funds to complete the transaction","time":"2017-02-15T16:40:56.836Z","v":0}
{"name":"sails","hostname":"apaco-Lenovo-G40-80","pid":17687,"level":50,"msg":"Payer was not found","time":"2017-02-15T16:40:57.367Z","v":0}
{"name":"sails","hostname":"apaco-Lenovo-G40-80","pid":17783,"level":50,"msg":"Insufficient funds to complete the transaction","time":"2017-02-15T16:42:01.703Z","v":0}
{"name":"sails","hostname":"apaco-Lenovo-G40-80","pid":17783,"level":50,"msg":"Payer was not found","time":"2017-02-15T16:42:02.208Z","v":0}
{"name":"sails","hostname":"apaco-Lenovo-G40-80","pid":17853,"level":50,"msg":"Insufficient funds to complete the transaction","time":"2017-02-15T16:42:33.068Z","v":0}
{"name":"sails","hostname":"apaco-Lenovo-G40-80","pid":17853,"level":50,"msg":"Payer was not found","time":"2017-02-15T16:42:33.597Z","v":0}
{"name":"sails","hostname":"apaco-Lenovo-G40-80","pid":17894,"level":50,"msg":"Insufficient funds to complete the transaction","time":"2017-02-15T16:42:46.755Z","v":0}
{"name":"sails","hostname":"apaco-Lenovo-G40-80","pid":17894,"level":50,"msg":"Payer was not found","time":"2017-02-15T16:42:47.377Z","v":0}
{"name":"sails","hostname":"apaco-Lenovo-G40-80","pid":18632,"level":50,"msg":"Insufficient funds to complete the transaction","time":"2017-02-15T16:55:06.414Z","v":0}
{"name":"sails","hostname":"apaco-Lenovo-G40-80","pid":18632,"level":50,"msg":"Payer was not found","time":"2017-02-15T16:55:06.976Z","v":0}
{"name":"sails","hostname":"apaco-Lenovo-G40-80","pid":18735,"level":50,"msg":"Insufficient funds to complete the transaction","time":"2017-02-15T16:55:37.338Z","v":0}
{"name":"sails","hostname":"apaco-Lenovo-G40-80","pid":18735,"level":50,"msg":"Payer was not found","time":"2017-02-15T16:55:37.902Z","v":0}
{"name":"sails","hostname":"apaco-Lenovo-G40-80","pid":18842,"level":50,"msg":"Insufficient funds to complete the transaction","time":"2017-02-15T16:56:45.258Z","v":0}
{"name":"sails","hostname":"apaco-Lenovo-G40-80","pid":18842,"level":50,"msg":"Payer was not found","time":"2017-02-15T16:56:45.812Z","v":0}
{"name":"sails","hostname":"apaco-Lenovo-G40-80","pid":18950,"level":50,"msg":"Insufficient funds to complete the transaction","time":"2017-02-15T16:57:27.597Z","v":0}
{"name":"sails","hostname":"apaco-Lenovo-G40-80","pid":18950,"level":50,"msg":"Payer was not found","time":"2017-02-15T16:57:28.155Z","v":0}
{"name":"sails","hostname":"apaco-Lenovo-G40-80","pid":19008,"level":50,"msg":"Insufficient funds to complete the transaction","time":"2017-02-15T16:57:47.056Z","v":0}
{"name":"sails","hostname":"apaco-Lenovo-G40-80","pid":19008,"level":50,"msg":"Payer was not found","time":"2017-02-15T16:57:47.725Z","v":0}
{"name":"sails","hostname":"apaco-Lenovo-G40-80","pid":19922,"level":50,"msg":"Insufficient funds to complete the transaction","time":"2017-02-15T17:19:39.562Z","v":0}
{"name":"sails","hostname":"apaco-Lenovo-G40-80","pid":19922,"level":50,"msg":"Payer was not found","time":"2017-02-15T17:19:40.144Z","v":0}
{"name":"sails","hostname":"apaco-Lenovo-G40-80","pid":24150,"level":50,"msg":"Insufficient funds to complete the transaction","time":"2017-02-15T18:12:32.301Z","v":0}
{"name":"sails","hostname":"apaco-Lenovo-G40-80","pid":24150,"level":50,"msg":"Payer was not found","time":"2017-02-15T18:12:32.925Z","v":0}
{"name":"sails","hostname":"apaco-Lenovo-G40-80","pid":24241,"level":50,"msg":"Insufficient funds to complete the transaction","time":"2017-02-15T18:13:55.325Z","v":0}
{"name":"sails","hostname":"apaco-Lenovo-G40-80","pid":24241,"level":50,"msg":"Payer was not found","time":"2017-02-15T18:13:55.865Z","v":0}
{"name":"sails","hostname":"apaco-Lenovo-G40-80","pid":24749,"level":50,"msg":"Insufficient funds to complete the transaction","time":"2017-02-15T18:20:23.897Z","v":0}
{"name":"sails","hostname":"apaco-Lenovo-G40-80","pid":24749,"level":50,"msg":"Payer was not found","time":"2017-02-15T18:20:24.468Z","v":0}
{"name":"sails","hostname":"apaco-Lenovo-G40-80","pid":24812,"level":50,"msg":"Insufficient funds to complete the transaction","time":"2017-02-15T18:20:52.966Z","v":0}
{"name":"sails","hostname":"apaco-Lenovo-G40-80","pid":24812,"level":50,"msg":"Payer was not found","time":"2017-02-15T18:20:53.526Z","v":0}
{"name":"sails","hostname":"apaco-Lenovo-G40-80","pid":24876,"level":50,"msg":"Insufficient funds to complete the transaction","time":"2017-02-15T18:21:08.408Z","v":0}
{"name":"sails","hostname":"apaco-Lenovo-G40-80","pid":24876,"level":50,"msg":"Payer was not found","time":"2017-02-15T18:21:09.025Z","v":0}
{"name":"sails","hostname":"apaco-Lenovo-G40-80","pid":24977,"level":50,"msg":"Insufficient funds to complete the transaction","time":"2017-02-15T18:22:17.028Z","v":0}
{"name":"sails","hostname":"apaco-Lenovo-G40-80","pid":24977,"level":50,"msg":"Payer was not found","time":"2017-02-15T18:22:17.599Z","v":0}
{"name":"sails","hostname":"apaco-Lenovo-G40-80","pid":25272,"level":50,"msg":"Insufficient funds to complete the transaction","time":"2017-02-15T18:26:00.354Z","v":0}
{"name":"sails","hostname":"apaco-Lenovo-G40-80","pid":25272,"level":50,"msg":"Payer was not found","time":"2017-02-15T18:26:00.873Z","v":0}
{"name":"sails","hostname":"apaco-Lenovo-G40-80","pid":25385,"level":50,"msg":"Insufficient funds to complete the transaction","time":"2017-02-15T18:27:10.945Z","v":0}
{"name":"sails","hostname":"apaco-Lenovo-G40-80","pid":25385,"level":50,"msg":"Payer was not found","time":"2017-02-15T18:27:11.558Z","v":0}
{"name":"sails","hostname":"apaco-Lenovo-G40-80","pid":25472,"level":50,"msg":"Insufficient funds to complete the transaction","time":"2017-02-15T18:27:34.664Z","v":0}
{"name":"sails","hostname":"apaco-Lenovo-G40-80","pid":25472,"level":50,"msg":"Payer was not found","time":"2017-02-15T18:27:35.233Z","v":0}
{"name":"sails","hostname":"apaco-Lenovo-G40-80","pid":25655,"level":50,"msg":"Insufficient funds to complete the transaction","time":"2017-02-15T18:29:52.652Z","v":0}
{"name":"sails","hostname":"apaco-Lenovo-G40-80","pid":25655,"level":50,"msg":"Payer was not found","time":"2017-02-15T18:29:53.391Z","v":0}
{"name":"sails","hostname":"apaco-Lenovo-G40-80","pid":25766,"level":50,"msg":"Insufficient funds to complete the transaction","time":"2017-02-15T18:30:38.430Z","v":0}
{"name":"sails","hostname":"apaco-Lenovo-G40-80","pid":25766,"level":50,"msg":"Payer was not found","time":"2017-02-15T18:30:39.203Z","v":0}
{"name":"sails","hostname":"apaco-Lenovo-G40-80","pid":25903,"level":50,"msg":"Insufficient funds to complete the transaction","time":"2017-02-15T18:31:55.318Z","v":0}
{"name":"sails","hostname":"apaco-Lenovo-G40-80","pid":25903,"level":50,"msg":"Payer was not found","time":"2017-02-15T18:31:55.942Z","v":0}
{"name":"sails","hostname":"apaco-Lenovo-G40-80","pid":26010,"level":50,"msg":"Insufficient funds to complete the transaction","time":"2017-02-15T18:32:34.170Z","v":0}
{"name":"sails","hostname":"apaco-Lenovo-G40-80","pid":26010,"level":50,"msg":"Payer was not found","time":"2017-02-15T18:32:34.792Z","v":0}
{"name":"sails","hostname":"apaco-Lenovo-G40-80","pid":26122,"level":50,"msg":"Insufficient funds to complete the transaction","time":"2017-02-15T18:33:17.188Z","v":0}
{"name":"sails","hostname":"apaco-Lenovo-G40-80","pid":26122,"level":50,"msg":"Payer was not found","time":"2017-02-15T18:33:17.868Z","v":0}
{"name":"sails","hostname":"apaco-Lenovo-G40-80","pid":26329,"level":50,"msg":"Insufficient funds to complete the transaction","time":"2017-02-15T18:35:43.066Z","v":0}
{"name":"sails","hostname":"apaco-Lenovo-G40-80","pid":26329,"level":50,"msg":"Payer was not found","time":"2017-02-15T18:35:43.636Z","v":0}
{"name":"sails","hostname":"apaco-Lenovo-G40-80","pid":26440,"level":50,"msg":"Insufficient funds to complete the transaction","time":"2017-02-15T18:36:50.457Z","v":0}
{"name":"sails","hostname":"apaco-Lenovo-G40-80","pid":26440,"level":50,"msg":"Payer was not found","time":"2017-02-15T18:36:51.054Z","v":0}
{"name":"sails","hostname":"apaco-Lenovo-G40-80","pid":26642,"level":50,"msg":"Insufficient funds to complete the transaction","time":"2017-02-15T18:40:01.542Z","v":0}
{"name":"sails","hostname":"apaco-Lenovo-G40-80","pid":26642,"level":50,"msg":"Payer was not found","time":"2017-02-15T18:40:02.113Z","v":0}
{"name":"sails","hostname":"apaco-Lenovo-G40-80","pid":26758,"level":50,"msg":"Insufficient funds to complete the transaction","time":"2017-02-15T18:41:19.156Z","v":0}
{"name":"sails","hostname":"apaco-Lenovo-G40-80","pid":26758,"level":50,"msg":"Payer was not found","time":"2017-02-15T18:41:19.706Z","v":0}
{"name":"sails","hostname":"apaco-Lenovo-G40-80","pid":27089,"level":50,"msg":"Insufficient funds to complete the transaction","time":"2017-02-15T18:44:17.634Z","v":0}
{"name":"sails","hostname":"apaco-Lenovo-G40-80","pid":27089,"level":50,"msg":"Payer was not found","time":"2017-02-15T18:44:18.176Z","v":0}
{"name":"sails","hostname":"apaco-Lenovo-G40-80","pid":27251,"level":50,"msg":"Insufficient funds to complete the transaction","time":"2017-02-15T18:46:41.691Z","v":0}
{"name":"sails","hostname":"apaco-Lenovo-G40-80","pid":27251,"level":50,"msg":"Payer was not found","time":"2017-02-15T18:46:42.239Z","v":0}
{"name":"sails","hostname":"apaco-Lenovo-G40-80","pid":27382,"level":50,"msg":"Insufficient funds to complete the transaction","time":"2017-02-15T18:47:31.632Z","v":0}
{"name":"sails","hostname":"apaco-Lenovo-G40-80","pid":27382,"level":50,"msg":"Payer was not found","time":"2017-02-15T18:47:32.264Z","v":0}
{"name":"sails","hostname":"apaco-Lenovo-G40-80","pid":27543,"level":50,"msg":"Insufficient funds to complete the transaction","time":"2017-02-15T18:49:40.321Z","v":0}
{"name":"sails","hostname":"apaco-Lenovo-G40-80","pid":27543,"level":50,"msg":"Payer was not found","time":"2017-02-15T18:49:40.949Z","v":0}
{"name":"sails","hostname":"apaco-Lenovo-G40-80","pid":27902,"level":50,"msg":"Insufficient funds to complete the transaction","time":"2017-02-15T18:54:22.329Z","v":0}
{"name":"sails","hostname":"apaco-Lenovo-G40-80","pid":27902,"level":50,"msg":"Payer was not found","time":"2017-02-15T18:54:22.946Z","v":0}
{"name":"sails","hostname":"apaco-Lenovo-G40-80","pid":27977,"level":50,"msg":"Insufficient funds to complete the transaction","time":"2017-02-15T18:55:08.722Z","v":0}
{"name":"sails","hostname":"apaco-Lenovo-G40-80","pid":27977,"level":50,"msg":"Payer was not found","time":"2017-02-15T18:55:09.474Z","v":0}
{"name":"sails","hostname":"apaco-Lenovo-G40-80","pid":28184,"level":50,"msg":"Insufficient funds to complete the transaction","time":"2017-02-15T18:57:06.910Z","v":0}
{"name":"sails","hostname":"apaco-Lenovo-G40-80","pid":28184,"level":50,"msg":"Payer was not found","time":"2017-02-15T18:57:07.476Z","v":0}
{"name":"sails","hostname":"apaco-Lenovo-G40-80","pid":28297,"level":50,"msg":"Insufficient funds to complete the transaction","time":"2017-02-15T18:57:50.814Z","v":0}
{"name":"sails","hostname":"apaco-Lenovo-G40-80","pid":28297,"level":50,"msg":"Payer was not found","time":"2017-02-15T18:57:51.524Z","v":0}
{"name":"sails","hostname":"apaco-Lenovo-G40-80","pid":28445,"level":50,"msg":"Insufficient funds to complete the transaction","time":"2017-02-15T18:59:28.456Z","v":0}
{"name":"sails","hostname":"apaco-Lenovo-G40-80","pid":28445,"level":50,"msg":"Payer was not found","time":"2017-02-15T18:59:29.050Z","v":0}
{"name":"sails","hostname":"apaco-Lenovo-G40-80","pid":28556,"level":50,"msg":"Insufficient funds to complete the transaction","time":"2017-02-15T19:00:11.362Z","v":0}
{"name":"sails","hostname":"apaco-Lenovo-G40-80","pid":28556,"level":50,"msg":"Payer was not found","time":"2017-02-15T19:00:11.942Z","v":0}
{"name":"sails","hostname":"apaco-Lenovo-G40-80","pid":28648,"level":50,"msg":"Insufficient funds to complete the transaction","time":"2017-02-15T19:00:54.581Z","v":0}
{"name":"sails","hostname":"apaco-Lenovo-G40-80","pid":28648,"level":50,"msg":"Payer was not found","time":"2017-02-15T19:00:55.145Z","v":0}
{"name":"sails","hostname":"apaco-Lenovo-G40-80","pid":28886,"level":50,"msg":"Insufficient funds to complete the transaction","time":"2017-02-15T19:03:44.009Z","v":0}
{"name":"sails","hostname":"apaco-Lenovo-G40-80","pid":29021,"level":50,"msg":"Insufficient funds to complete the transaction","time":"2017-02-15T19:04:50.151Z","v":0}
{"name":"sails","hostname":"apaco-Lenovo-G40-80","pid":29121,"level":50,"msg":"Insufficient funds to complete the transaction","time":"2017-02-15T19:05:42.215Z","v":0}
{"name":"sails","hostname":"apaco-Lenovo-G40-80","pid":29285,"level":50,"msg":"Insufficient funds to complete the transaction","time":"2017-02-15T19:07:50.858Z","v":0}
{"name":"sails","hostname":"apaco-Lenovo-G40-80","pid":29517,"level":50,"msg":"Insufficient funds to complete the transaction","time":"2017-02-15T19:09:40.633Z","v":0}
{"name":"sails","hostname":"apaco-Lenovo-G40-80","pid":29788,"level":50,"msg":"Insufficient funds to complete the transaction","time":"2017-02-15T19:13:42.274Z","v":0}
{"name":"sails","hostname":"apaco-Lenovo-G40-80","pid":29946,"level":50,"msg":"Insufficient funds to complete the transaction","time":"2017-02-15T19:15:29.176Z","v":0}
{"name":"sails","hostname":"apaco-Lenovo-G40-80","pid":30113,"level":50,"msg":"Insufficient funds to complete the transaction","time":"2017-02-15T19:17:06.744Z","v":0}
{"name":"sails","hostname":"apaco-Lenovo-G40-80","pid":30246,"level":50,"msg":"Insufficient funds to complete the transaction","time":"2017-02-15T19:18:34.630Z","v":0}
{"name":"sails","hostname":"apaco-Lenovo-G40-80","pid":30412,"level":50,"msg":"Insufficient funds to complete the transaction","time":"2017-02-15T19:21:15.025Z","v":0}
{"name":"sails","hostname":"apaco-Lenovo-G40-80","pid":30601,"level":50,"msg":"Insufficient funds to complete the transaction","time":"2017-02-15T19:23:39.871Z","v":0}
{"name":"sails","hostname":"apaco-Lenovo-G40-80","pid":30716,"level":50,"msg":"Insufficient funds to complete the transaction","time":"2017-02-15T19:24:47.817Z","v":0}
{"name":"sails","hostname":"apaco-Lenovo-G40-80","pid":30881,"level":50,"msg":"Insufficient funds to complete the transaction","time":"2017-02-15T19:27:44.584Z","v":0}
{"name":"sails","hostname":"apaco-Lenovo-G40-80","pid":30951,"level":50,"msg":"Insufficient funds to complete the transaction","time":"2017-02-15T19:28:19.894Z","v":0}
{"name":"sails","hostname":"apaco-Lenovo-G40-80","pid":31055,"level":50,"msg":"Insufficient funds to complete the transaction","time":"2017-02-15T19:29:05.546Z","v":0}
{"name":"sails","hostname":"apaco-Lenovo-G40-80","pid":31215,"level":50,"msg":"Insufficient funds to complete the transaction","time":"2017-02-15T19:30:08.963Z","v":0}
{"name":"sails","hostname":"apaco-Lenovo-G40-80","pid":31313,"level":50,"msg":"Insufficient funds to complete the transaction","time":"2017-02-15T19:31:56.608Z","v":0}
{"name":"sails","hostname":"apaco-Lenovo-G40-80","pid":31418,"level":50,"msg":"Insufficient funds to complete the transaction","time":"2017-02-15T19:32:37.340Z","v":0}
{"name":"sails","hostname":"apaco-Lenovo-G40-80","pid":31736,"level":50,"msg":"Insufficient funds to complete the transaction","time":"2017-02-15T19:36:08.610Z","v":0}
{"name":"sails","hostname":"apaco-Lenovo-G40-80","pid":31847,"level":50,"msg":"Insufficient funds to complete the transaction","time":"2017-02-15T19:36:46.766Z","v":0}
{"name":"sails","hostname":"apaco-Lenovo-G40-80","pid":31943,"level":50,"msg":"Insufficient funds to complete the transaction","time":"2017-02-15T19:37:19.874Z","v":0}
{"name":"sails","hostname":"apaco-Lenovo-G40-80","pid":32026,"level":50,"msg":"Insufficient funds to complete the transaction","time":"2017-02-15T19:37:56.648Z","v":0}
{"name":"sails","hostname":"apaco-Lenovo-G40-80","pid":32130,"level":40,"msg":"Bootstrap is taking unusually long to execute its callback (2000 milliseconds).\nPerhaps you forgot to call it?  The callback is the first argument of the function, `cb`.","time":"2017-02-15T19:38:36.515Z","v":0}
{"name":"sails","hostname":"apaco-Lenovo-G40-80","pid":32130,"level":50,"msg":"Insufficient funds to complete the transaction","time":"2017-02-15T19:38:37.725Z","v":0}
{"name":"sails","hostname":"apaco-Lenovo-G40-80","pid":32226,"level":50,"msg":"Insufficient funds to complete the transaction","time":"2017-02-15T19:39:03.078Z","v":0}
{"name":"sails","hostname":"apaco-Lenovo-G40-80","pid":32306,"level":50,"msg":"Insufficient funds to complete the transaction","time":"2017-02-15T19:39:31.316Z","v":0}
{"name":"sails","hostname":"apaco-Lenovo-G40-80","pid":32451,"level":50,"msg":"Insufficient funds to complete the transaction","time":"2017-02-15T19:41:35.499Z","v":0}
{"name":"sails","hostname":"apaco-Lenovo-G40-80","pid":32548,"level":50,"msg":"Insufficient funds to complete the transaction","time":"2017-02-15T19:42:55.231Z","v":0}
{"name":"sails","hostname":"apaco-Lenovo-G40-80","pid":32708,"level":50,"msg":"Insufficient funds to complete the transaction","time":"2017-02-15T19:44:28.440Z","v":0}
{"name":"sails","hostname":"apaco-Lenovo-G40-80","pid":32754,"level":50,"msg":"Insufficient funds to complete the transaction","time":"2017-02-15T19:44:42.380Z","v":0}
{"name":"sails","hostname":"apaco-Lenovo-G40-80","pid":703,"level":50,"msg":"Insufficient funds to complete the transaction","time":"2017-02-15T19:54:43.728Z","v":0}
{"name":"sails","hostname":"apaco-Lenovo-G40-80","pid":844,"level":50,"msg":"Insufficient funds to complete the transaction","time":"2017-02-15T19:55:36.393Z","v":0}
{"name":"sails","hostname":"apaco-Lenovo-G40-80","pid":844,"level":50,"msg":"Insufficient funds to complete the transaction","time":"2017-02-15T19:55:37.504Z","v":0}
{"name":"sails","hostname":"apaco-Lenovo-G40-80","pid":942,"level":50,"msg":"Insufficient funds to complete the transaction","time":"2017-02-15T19:56:09.592Z","v":0}
{"name":"sails","hostname":"apaco-Lenovo-G40-80","pid":1060,"level":50,"msg":"Insufficient funds to complete the transaction","time":"2017-02-15T19:57:51.071Z","v":0}
{"name":"sails","hostname":"apaco-Lenovo-G40-80","pid":1760,"level":50,"msg":"Insufficient funds to complete the transaction","time":"2017-02-15T20:06:45.554Z","v":0}
{"name":"sails","hostname":"apaco-Lenovo-G40-80","pid":1868,"level":50,"msg":"Insufficient funds to complete the transaction","time":"2017-02-15T20:07:40.895Z","v":0}
{"name":"sails","hostname":"apaco-Lenovo-G40-80","pid":2050,"level":50,"msg":"Insufficient funds to complete the transaction","time":"2017-02-15T20:09:39.339Z","v":0}
{"name":"sails","hostname":"apaco-Lenovo-G40-80","pid":2050,"level":50,"msg":"Insufficient funds to complete the transaction","time":"2017-02-15T20:09:40.551Z","v":0}
{"name":"sails","hostname":"apaco-Lenovo-G40-80","pid":2145,"level":50,"msg":"Insufficient funds to complete the transaction","time":"2017-02-15T20:10:15.578Z","v":0}
{"name":"sails","hostname":"apaco-Lenovo-G40-80","pid":2145,"level":50,"msg":"Insufficient funds to complete the transaction","time":"2017-02-15T20:10:16.979Z","v":0}
{"name":"sails","hostname":"apaco-Lenovo-G40-80","pid":2438,"level":50,"msg":"Insufficient funds to complete the transaction","time":"2017-02-15T20:13:28.911Z","v":0}
{"name":"sails","hostname":"apaco-Lenovo-G40-80","pid":2438,"level":50,"msg":"Insufficient funds to complete the transaction","time":"2017-02-15T20:13:29.917Z","v":0}
{"name":"sails","hostname":"apaco-Lenovo-G40-80","pid":2438,"level":50,"msg":"Insufficient funds to complete the transaction","time":"2017-02-15T20:13:30.191Z","v":0}
{"name":"sails","hostname":"apaco-Lenovo-G40-80","pid":2639,"level":50,"msg":"Insufficient funds to complete the transaction","time":"2017-02-15T20:16:10.486Z","v":0}
{"name":"sails","hostname":"apaco-Lenovo-G40-80","pid":2639,"level":50,"msg":"Insufficient funds to complete the transaction","time":"2017-02-15T20:16:11.433Z","v":0}
{"name":"sails","hostname":"apaco-Lenovo-G40-80","pid":2639,"level":50,"msg":"Insufficient funds to complete the transaction","time":"2017-02-15T20:16:11.693Z","v":0}
{"name":"sails","hostname":"apaco-Lenovo-G40-80","pid":2704,"level":50,"msg":"Insufficient funds to complete the transaction","time":"2017-02-15T20:16:40.978Z","v":0}
{"name":"sails","hostname":"apaco-Lenovo-G40-80","pid":2704,"level":50,"msg":"Insufficient funds to complete the transaction","time":"2017-02-15T20:16:41.927Z","v":0}
{"name":"sails","hostname":"apaco-Lenovo-G40-80","pid":2704,"level":50,"msg":"Insufficient funds to complete the transaction","time":"2017-02-15T20:16:42.269Z","v":0}
